%!PS-Adobe-3.0 EPSF-3.0
%%Creator: cairo 1.14.2 (http://cairographics.org)
%%CreationDate: Tue Nov 21 08:22:16 2017
%%Pages: 1
%%DocumentData: Clean7Bit
%%LanguageLevel: 2
%%BoundingBox: 34 -1 376 410
%%EndComments
%%BeginProlog
save
50 dict begin
/q { gsave } bind def
/Q { grestore } bind def
/cm { 6 array astore concat } bind def
/w { setlinewidth } bind def
/J { setlinecap } bind def
/j { setlinejoin } bind def
/M { setmiterlimit } bind def
/d { setdash } bind def
/m { moveto } bind def
/l { lineto } bind def
/c { curveto } bind def
/h { closepath } bind def
/re { exch dup neg 3 1 roll 5 3 roll moveto 0 rlineto
      0 exch rlineto 0 rlineto closepath } bind def
/S { stroke } bind def
/f { fill } bind def
/f* { eofill } bind def
/n { newpath } bind def
/W { clip } bind def
/W* { eoclip } bind def
/BT { } bind def
/ET { } bind def
/pdfmark where { pop globaldict /?pdfmark /exec load put }
    { globaldict begin /?pdfmark /pop load def /pdfmark
    /cleartomark load def end } ifelse
/BDC { mark 3 1 roll /BDC pdfmark } bind def
/EMC { mark /EMC pdfmark } bind def
/cairo_store_point { /cairo_point_y exch def /cairo_point_x exch def } def
/Tj { show currentpoint cairo_store_point } bind def
/TJ {
  {
    dup
    type /stringtype eq
    { show } { -0.001 mul 0 cairo_font_matrix dtransform rmoveto } ifelse
  } forall
  currentpoint cairo_store_point
} bind def
/cairo_selectfont { cairo_font_matrix aload pop pop pop 0 0 6 array astore
    cairo_font exch selectfont cairo_point_x cairo_point_y moveto } bind def
/Tf { pop /cairo_font exch def /cairo_font_matrix where
      { pop cairo_selectfont } if } bind def
/Td { matrix translate cairo_font_matrix matrix concatmatrix dup
      /cairo_font_matrix exch def dup 4 get exch 5 get cairo_store_point
      /cairo_font where { pop cairo_selectfont } if } bind def
/Tm { 2 copy 8 2 roll 6 array astore /cairo_font_matrix exch def
      cairo_store_point /cairo_font where { pop cairo_selectfont } if } bind def
/g { setgray } bind def
/rg { setrgbcolor } bind def
/d1 { setcachedevice } bind def
%%EndProlog
%%BeginSetup
%%EndSetup
%%Page: 1 1
%%BeginPageSetup
%%PageBoundingBox: 34 -1 376 410
%%EndPageSetup
q 34 -1 342 411 rectclip q
0 g
187.766 350.641 m 187.766 351.039 l 187.766 351.121 187.684 351.281 187.684
 351.36 c 187.684 351.442 187.684 351.52 187.605 351.602 c 187.605 351.762
 187.523 351.918 187.523 352.078 c 187.523 352.238 187.445 352.321 187.445
 352.481 c 187.445 352.559 187.363 352.719 187.363 352.801 c 186.887 354.238
 185.926 355.602 184.645 356.641 c 142.004 390.801 l 138.324 393.68 132.965
 393.121 130.004 389.442 c 127.043 385.762 127.684 380.399 131.363 377.442
 c 158.246 355.918 l 41.605 341.36 l 36.965 340.801 33.605 336.481 34.164
 331.84 c 34.727 327.52 38.406 324.399 42.645 324.399 c 43.043 324.399 43.363
 324.399 43.766 324.481 c 162.887 339.281 l 146.246 311.68 l 143.844 307.602
 145.125 302.399 149.203 299.918 c 150.566 299.121 152.086 298.719 153.605
 298.719 c 156.484 298.719 159.285 300.238 160.965 302.879 c 186.406 345.281
 l 187.445 346.801 187.926 348.641 187.766 350.641 c h
187.766 350.641 m f
375.445 376.559 m 374.887 381.281 370.566 384.641 366.004 384 c 238.164
 368.961 l 254.805 396.719 l 257.203 400.801 255.926 406 251.844 408.399
 c 247.844 410.801 242.566 409.52 240.164 405.52 c 214.566 362.879 l 212.965
 360.238 212.965 357.121 214.324 354.481 c 214.324 354.399 l 214.406 354.16
 214.566 354 214.645 353.762 c 214.645 353.68 l 214.805 353.52 214.887 353.281
 215.043 353.121 c 215.043 353.039 l 215.203 352.879 215.363 352.641 215.523
 352.481 c 249.844 318.16 l 251.523 316.481 253.684 315.68 255.926 315.68
 c 258.164 315.68 260.324 316.481 262.004 318.16 c 265.363 321.52 265.363
 326.879 262.004 330.238 c 240.406 352.078 l 368.004 367.121 l 372.645 367.602
 376.004 371.84 375.445 376.559 c h
375.445 376.559 m f
342.965 134.719 m 338.965 138.801 334.164 141.68 328.887 143.199 c 338.566
 156 337.605 174.321 325.844 186.078 c 321.926 190.078 317.043 192.879 311.766
 194.399 c 321.445 207.199 320.484 225.52 308.727 237.281 c 304.805 241.199
 300.086 244 294.965 245.52 c 325.203 275.762 l 337.926 288.481 337.926 
309.121 325.125 321.918 c 312.406 334.641 291.766 334.641 279.043 321.918
 c 162.887 205.68 l 152.086 274.559 l 149.445 293.199 133.285 307.281 114.406
 307.281 c 100.324 307.281 88.805 295.762 88.805 281.68 c 88.805 120.719
 l 88.805 95.602 98.566 72.078 116.324 54.321 c 143.125 27.442 l 160.805
 9.758 184.406 0 209.445 0 c 232.805 0 255.285 8.641 272.566 24.399 c 343.043
 88.559 l 355.766 101.281 355.766 121.918 342.965 134.719 c h
331.285 100.961 m 261.043 37.039 l 246.887 24.16 228.566 17.121 209.445
 17.121 c 188.965 17.121 169.684 25.121 155.203 39.602 c 128.406 66.481 
l 113.926 80.961 105.926 100.238 105.926 120.801 c 105.926 281.68 l 105.926
 286.399 109.766 290.238 114.484 290.238 c 124.887 290.238 133.766 282.481
 135.285 272.078 c 148.727 186.481 l 149.203 183.281 151.445 180.719 154.484
 179.68 c 157.523 178.641 160.887 179.52 163.203 181.758 c 291.285 309.84
 l 297.363 315.918 307.203 315.918 313.363 309.762 c 319.445 303.68 319.445
 293.84 313.363 287.762 c 227.844 202.399 l 224.484 199.039 224.484 193.68
 227.844 190.321 c 231.203 186.961 236.566 186.961 239.926 190.321 c 274.805
 225.199 l 280.645 231.039 290.805 231.121 296.887 225.121 c 302.965 219.039
 302.965 209.199 296.887 203.121 c 266.324 172.641 l 262.004 168.321 l 258.645
 164.961 258.645 159.602 262.004 156.238 c 265.363 152.879 270.727 152.879
 274.086 156.238 c 278.406 160.559 l 291.844 174 l 297.684 179.84 307.844
 179.918 313.926 173.918 c 320.004 167.84 320.004 158 313.926 151.918 c 
300.406 138.481 l 296.086 134.16 l 292.727 130.801 292.727 125.442 296.086
 122.078 c 299.445 118.719 304.805 118.719 308.164 122.078 c 308.887 122.801
 l 314.805 128.641 324.887 128.719 330.965 122.719 c 337.043 116.641 337.043
 106.801 331.285 100.961 c h
331.285 100.961 m f
Q Q
showpage
%%Trailer
end restore
%%EOF
