%!PS-Adobe-3.0 EPSF-3.0
%%Creator: cairo 1.14.2 (http://cairographics.org)
%%CreationDate: Tue Nov 21 08:22:16 2017
%%Pages: 1
%%DocumentData: Clean7Bit
%%LanguageLevel: 2
%%BoundingBox: 25 -1 384 410
%%EndComments
%%BeginProlog
save
50 dict begin
/q { gsave } bind def
/Q { grestore } bind def
/cm { 6 array astore concat } bind def
/w { setlinewidth } bind def
/J { setlinecap } bind def
/j { setlinejoin } bind def
/M { setmiterlimit } bind def
/d { setdash } bind def
/m { moveto } bind def
/l { lineto } bind def
/c { curveto } bind def
/h { closepath } bind def
/re { exch dup neg 3 1 roll 5 3 roll moveto 0 rlineto
      0 exch rlineto 0 rlineto closepath } bind def
/S { stroke } bind def
/f { fill } bind def
/f* { eofill } bind def
/n { newpath } bind def
/W { clip } bind def
/W* { eoclip } bind def
/BT { } bind def
/ET { } bind def
/pdfmark where { pop globaldict /?pdfmark /exec load put }
    { globaldict begin /?pdfmark /pop load def /pdfmark
    /cleartomark load def end } ifelse
/BDC { mark 3 1 roll /BDC pdfmark } bind def
/EMC { mark /EMC pdfmark } bind def
/cairo_store_point { /cairo_point_y exch def /cairo_point_x exch def } def
/Tj { show currentpoint cairo_store_point } bind def
/TJ {
  {
    dup
    type /stringtype eq
    { show } { -0.001 mul 0 cairo_font_matrix dtransform rmoveto } ifelse
  } forall
  currentpoint cairo_store_point
} bind def
/cairo_selectfont { cairo_font_matrix aload pop pop pop 0 0 6 array astore
    cairo_font exch selectfont cairo_point_x cairo_point_y moveto } bind def
/Tf { pop /cairo_font exch def /cairo_font_matrix where
      { pop cairo_selectfont } if } bind def
/Td { matrix translate cairo_font_matrix matrix concatmatrix dup
      /cairo_font_matrix exch def dup 4 get exch 5 get cairo_store_point
      /cairo_font where { pop cairo_selectfont } if } bind def
/Tm { 2 copy 8 2 roll 6 array astore /cairo_font_matrix exch def
      cairo_store_point /cairo_font where { pop cairo_selectfont } if } bind def
/g { setgray } bind def
/rg { setrgbcolor } bind def
/d1 { setcachedevice } bind def
%%EndProlog
%%BeginSetup
%%EndSetup
%%Page: 1 1
%%BeginPageSetup
%%PageBoundingBox: 25 -1 384 410
%%EndPageSetup
q 25 -1 359 411 rectclip q
0 g
262.023 321.759 m 176.691 407.091 l 173.363 410.419 167.953 410.419 164.625
 407.091 c 161.297 403.763 161.297 398.353 164.625 395.025 c 249.957 309.693
 l 251.633 308.036 253.816 307.2 256 307.2 c 258.184 307.2 260.367 308.036
 262.023 309.693 c 265.352 313.021 265.352 318.431 262.023 321.759 c h
262.023 321.759 m f
341.332 290.134 m 290.133 290.134 l 285.422 290.134 281.602 286.31 281.602
 281.599 c 281.602 230.4 l 281.602 225.689 285.422 221.865 290.133 221.865
 c 294.844 221.865 298.668 225.689 298.668 230.4 c 298.668 273.068 l 341.332
 273.068 l 346.043 273.068 349.867 276.888 349.867 281.599 c 349.867 286.31
 346.043 290.134 341.332 290.134 c h
341.332 290.134 m f
256 375.466 m 251.289 375.466 247.465 371.642 247.465 366.931 c 247.465
 324.267 l 204.801 324.267 l 200.09 324.267 196.266 320.443 196.266 315.732
 c 196.266 311.021 200.09 307.2 204.801 307.2 c 256 307.2 l 260.711 307.2
 264.535 311.021 264.535 315.732 c 264.535 366.931 l 264.535 371.646 260.711
 375.466 256 375.466 c h
256 375.466 m f
381.492 202.29 m 296.156 287.626 l 292.828 290.954 287.418 290.954 284.09
 287.626 c 280.762 284.298 280.762 278.888 284.09 275.56 c 369.426 190.224
 l 371.098 188.568 373.281 187.732 375.465 187.732 c 377.652 187.732 379.836
 188.568 381.492 190.224 c 384.82 193.552 384.82 198.962 381.492 202.29 
c h
381.492 202.29 m f
245.793 161.521 m 233.508 177.919 210.5 181.861 193.418 170.497 c 179.199
 161.025 l 179.199 264.533 l 179.199 278.65 167.715 290.134 153.602 290.134
 c 139.484 290.134 128 278.65 128 264.533 c 128 237.482 l 125.336 238.423
 122.453 238.935 119.465 238.935 c 107.691 238.935 97.723 230.931 94.77 
220.075 c 91.836 221.22 88.66 221.868 85.332 221.868 c 73.559 221.868 63.59
 213.865 60.637 203.009 c 57.703 204.154 54.527 204.802 51.199 204.802 c
 37.086 204.802 25.602 193.314 25.602 179.2 c 25.602 110.935 l 25.602 68.591
 60.059 34.134 102.402 34.134 c 131.074 34.134 l 147.781 34.134 163.824 
41.2 175.121 53.49 c 244.191 128.853 l 252.5 137.95 253.184 151.673 245.793
 161.521 c h
231.594 140.408 m 162.527 65.04 l 154.469 56.236 143 51.2 131.07 51.2 c
 102.398 51.2 l 69.461 51.2 42.668 77.993 42.668 110.935 c 42.668 179.2 
l 42.668 183.911 46.488 187.732 51.199 187.732 c 55.91 187.732 59.734 183.911
 59.734 179.2 c 59.734 170.665 l 59.734 165.954 63.559 162.134 68.266 162.134
 c 72.977 162.134 76.801 165.954 76.801 170.665 c 76.801 196.267 l 76.801
 200.978 80.625 204.798 85.332 204.798 c 90.043 204.798 93.867 200.978 93.867
 196.267 c 93.867 170.665 l 93.867 165.954 97.691 162.134 102.402 162.134
 c 107.109 162.134 110.934 165.954 110.934 170.665 c 110.934 213.333 l 110.934
 218.044 114.758 221.865 119.469 221.865 c 124.18 221.865 128 218.044 128
 213.333 c 128 170.665 l 128 165.958 131.824 162.134 136.535 162.134 c 141.242
 162.134 145.066 165.958 145.066 170.665 c 145.066 264.533 l 145.066 269.243
 148.891 273.068 153.602 273.068 c 158.312 273.068 162.133 269.243 162.133
 264.533 c 162.133 145.068 l 162.133 141.911 163.875 139.025 166.656 137.556
 c 169.406 136.072 172.785 136.243 175.41 137.986 c 202.891 156.314 l 212.43
 162.646 225.281 160.462 232.141 151.294 c 234.598 148.021 234.375 143.427
 231.594 140.408 c h
231.594 140.408 m f
170.668 51.2 m 51.199 51.2 l 46.488 51.2 42.668 47.376 42.668 42.665 c 
42.668 8.533 l 42.668 3.822 46.488 -0.003 51.199 -0.003 c 55.91 -0.003 59.734
 3.822 59.734 8.533 c 59.734 34.134 l 162.133 34.134 l 162.133 8.533 l 162.133
 3.822 165.957 -0.003 170.668 -0.003 c 175.379 -0.003 179.199 3.822 179.199
 8.533 c 179.199 42.665 l 179.199 47.376 175.375 51.2 170.668 51.2 c h
170.668 51.2 m f
Q Q
showpage
%%Trailer
end restore
%%EOF
