%!PS-Adobe-3.0 EPSF-3.0
%%Creator: cairo 1.14.2 (http://cairographics.org)
%%CreationDate: Tue Nov 21 08:22:16 2017
%%Pages: 1
%%DocumentData: Clean7Bit
%%LanguageLevel: 2
%%BoundingBox: 0 23 406 383
%%EndComments
%%BeginProlog
save
50 dict begin
/q { gsave } bind def
/Q { grestore } bind def
/cm { 6 array astore concat } bind def
/w { setlinewidth } bind def
/J { setlinecap } bind def
/j { setlinejoin } bind def
/M { setmiterlimit } bind def
/d { setdash } bind def
/m { moveto } bind def
/l { lineto } bind def
/c { curveto } bind def
/h { closepath } bind def
/re { exch dup neg 3 1 roll 5 3 roll moveto 0 rlineto
      0 exch rlineto 0 rlineto closepath } bind def
/S { stroke } bind def
/f { fill } bind def
/f* { eofill } bind def
/n { newpath } bind def
/W { clip } bind def
/W* { eoclip } bind def
/BT { } bind def
/ET { } bind def
/pdfmark where { pop globaldict /?pdfmark /exec load put }
    { globaldict begin /?pdfmark /pop load def /pdfmark
    /cleartomark load def end } ifelse
/BDC { mark 3 1 roll /BDC pdfmark } bind def
/EMC { mark /EMC pdfmark } bind def
/cairo_store_point { /cairo_point_y exch def /cairo_point_x exch def } def
/Tj { show currentpoint cairo_store_point } bind def
/TJ {
  {
    dup
    type /stringtype eq
    { show } { -0.001 mul 0 cairo_font_matrix dtransform rmoveto } ifelse
  } forall
  currentpoint cairo_store_point
} bind def
/cairo_selectfont { cairo_font_matrix aload pop pop pop 0 0 6 array astore
    cairo_font exch selectfont cairo_point_x cairo_point_y moveto } bind def
/Tf { pop /cairo_font exch def /cairo_font_matrix where
      { pop cairo_selectfont } if } bind def
/Td { matrix translate cairo_font_matrix matrix concatmatrix dup
      /cairo_font_matrix exch def dup 4 get exch 5 get cairo_store_point
      /cairo_font where { pop cairo_selectfont } if } bind def
/Tm { 2 copy 8 2 roll 6 array astore /cairo_font_matrix exch def
      cairo_store_point /cairo_font where { pop cairo_selectfont } if } bind def
/g { setgray } bind def
/rg { setrgbcolor } bind def
/d1 { setcachedevice } bind def
%%EndProlog
%%BeginSetup
%%EndSetup
%%Page: 1 1
%%BeginPageSetup
%%PageBoundingBox: 0 23 406 383
%%EndPageSetup
q 0 23 406 360 rectclip q
0 g
70.312 208.676 m 66.988 212.004 61.574 212.004 58.246 208.676 c 38.691 
189.117 l 19.133 208.676 l 15.805 212.004 10.395 212.004 7.066 208.676 c
 3.738 205.348 3.738 199.938 7.066 196.61 c 32.664 171.008 l 34.336 169.352
 36.523 168.516 38.707 168.516 c 40.891 168.516 43.074 169.352 44.715 171.008
 c 70.312 196.61 l 73.641 199.938 73.641 205.348 70.312 208.676 c h
70.312 208.676 m f
70.348 123.34 m 44.75 148.942 l 41.422 152.27 36.012 152.27 32.684 148.942
 c 7.082 123.34 l 3.754 120.012 3.754 114.602 7.082 111.274 c 10.41 107.945
 15.82 107.945 19.148 111.274 c 38.707 130.832 l 58.266 111.274 l 59.938
 109.617 62.121 108.781 64.309 108.781 c 66.492 108.781 68.676 109.617 70.348
 111.274 c 73.676 114.602 73.676 120.012 70.348 123.34 c h
70.348 123.34 m f
372.977 290.047 m 292.352 370.672 l 277.266 385.758 252.707 385.758 237.621
 370.672 c 231.73 364.781 228.148 357.461 226.852 349.832 c 211.797 359.969
 191.18 358.367 177.887 345.07 c 172.34 339.524 168.688 332.594 167.254 
325.051 c 152.523 338.434 128.07 337.918 113.902 323.738 c 108.238 318.07
 104.703 311.074 103.289 303.754 c 74.617 332.426 l 63.555 343.485 52.191
 349.781 40.805 351.164 c 29.766 352.496 19.27 348.875 11.348 340.957 c 
4.027 333.637 0 323.91 0 313.582 c 0 303.258 4.027 293.531 11.348 286.227
 c 152.66 144.914 l 72.156 99.121 l 51.285 87.961 41.641 62.77 49.75 40.516
 c 52.086 34.082 56.781 28.945 62.977 26.063 c 66.422 24.457 70.094 23.653
 73.777 23.653 c 76.645 23.653 79.531 24.149 82.312 25.121 c 214.527 65.418
 l 234.598 71.543 255.422 74.649 276.43 74.649 c 301.5 74.649 325.07 84.41
 342.801 102.145 c 372.973 132.317 l 394.035 153.379 405.641 181.383 405.641
 211.184 c 405.641 240.981 394.035 268.988 372.977 290.047 c h
360.891 144.383 m 330.719 114.211 l 316.211 99.703 296.926 91.715 276.41
 91.715 c 253.715 91.715 231.219 88.356 209.527 81.75 c 77.125 41.387 l 
76.988 41.352 76.832 41.301 76.699 41.25 c 74.547 40.465 72.242 40.567 70.18
 41.539 c 68.113 42.496 66.543 44.219 65.758 46.352 c 60.535 60.688 66.746
 76.903 80.387 84.192 c 170.805 135.613 l 173.125 136.926 174.695 139.266
 175.055 141.895 c 175.41 144.52 174.508 147.184 172.629 149.063 c 23.398
 298.293 l 14.969 306.723 14.969 320.461 23.398 328.891 c 27.051 332.543
 31.438 334.336 36.285 334.336 c 44.168 334.336 53.301 329.59 62.531 320.34
 c 160.668 222.207 l 163.996 218.879 169.406 218.879 172.734 222.207 c 174.387
 223.879 175.227 226.067 175.227 228.25 c 175.227 230.434 174.406 232.617
 172.734 234.293 c 125.953 281.07 l 117.523 289.504 117.523 303.242 125.953
 311.672 c 134.383 320.102 148.121 320.102 156.555 311.672 c 203.316 264.86
 l 206.645 261.531 212.055 261.531 215.383 264.86 c 217.039 266.531 217.875
 268.715 217.875 270.899 c 217.875 273.086 217.055 275.27 215.383 276.942
 c 189.938 302.387 l 181.504 310.82 181.504 324.559 189.938 332.988 c 198.367
 341.418 212.105 341.418 220.535 332.988 c 245.984 307.543 l 249.312 304.215
 254.723 304.215 258.051 307.543 c 259.703 309.215 260.543 311.399 260.543
 313.582 c 260.543 315.77 259.723 317.953 258.051 319.625 c 249.668 328.004
 l 241.238 336.438 241.238 350.176 249.668 358.606 c 258.102 367.039 271.84
 367.039 280.27 358.606 c 360.895 277.985 l 378.727 260.149 388.559 236.41
 388.559 211.184 c 388.559 185.957 378.727 162.219 360.891 144.383 c h
360.891 144.383 m f
Q Q
showpage
%%Trailer
end restore
%%EOF
