%!PS-Adobe-3.0 EPSF-3.0
%%Creator: cairo 1.14.2 (http://cairographics.org)
%%CreationDate: Tue Nov 21 08:22:16 2017
%%Pages: 1
%%DocumentData: Clean7Bit
%%LanguageLevel: 2
%%BoundingBox: 8 -1 402 410
%%EndComments
%%BeginProlog
save
50 dict begin
/q { gsave } bind def
/Q { grestore } bind def
/cm { 6 array astore concat } bind def
/w { setlinewidth } bind def
/J { setlinecap } bind def
/j { setlinejoin } bind def
/M { setmiterlimit } bind def
/d { setdash } bind def
/m { moveto } bind def
/l { lineto } bind def
/c { curveto } bind def
/h { closepath } bind def
/re { exch dup neg 3 1 roll 5 3 roll moveto 0 rlineto
      0 exch rlineto 0 rlineto closepath } bind def
/S { stroke } bind def
/f { fill } bind def
/f* { eofill } bind def
/n { newpath } bind def
/W { clip } bind def
/W* { eoclip } bind def
/BT { } bind def
/ET { } bind def
/pdfmark where { pop globaldict /?pdfmark /exec load put }
    { globaldict begin /?pdfmark /pop load def /pdfmark
    /cleartomark load def end } ifelse
/BDC { mark 3 1 roll /BDC pdfmark } bind def
/EMC { mark /EMC pdfmark } bind def
/cairo_store_point { /cairo_point_y exch def /cairo_point_x exch def } def
/Tj { show currentpoint cairo_store_point } bind def
/TJ {
  {
    dup
    type /stringtype eq
    { show } { -0.001 mul 0 cairo_font_matrix dtransform rmoveto } ifelse
  } forall
  currentpoint cairo_store_point
} bind def
/cairo_selectfont { cairo_font_matrix aload pop pop pop 0 0 6 array astore
    cairo_font exch selectfont cairo_point_x cairo_point_y moveto } bind def
/Tf { pop /cairo_font exch def /cairo_font_matrix where
      { pop cairo_selectfont } if } bind def
/Td { matrix translate cairo_font_matrix matrix concatmatrix dup
      /cairo_font_matrix exch def dup 4 get exch 5 get cairo_store_point
      /cairo_font where { pop cairo_selectfont } if } bind def
/Tm { 2 copy 8 2 roll 6 array astore /cairo_font_matrix exch def
      cairo_store_point /cairo_font where { pop cairo_selectfont } if } bind def
/g { setgray } bind def
/rg { setrgbcolor } bind def
/d1 { setcachedevice } bind def
%%EndProlog
%%BeginSetup
%%EndSetup
%%Page: 1 1
%%BeginPageSetup
%%PageBoundingBox: 8 -1 402 410
%%EndPageSetup
q 8 -1 394 411 rectclip q
0 g
162.168 342.48 m 161.609 347.198 157.207 350.402 152.648 349.921 c 33.527
 334.96 l 50.09 362.562 l 52.488 366.64 51.207 371.839 47.129 374.241 c 
43.129 376.64 37.848 375.359 35.449 371.359 c 9.848 328.722 l 9.129 327.601
 8.809 326.32 8.648 325.038 c 8.566 324.159 8.648 323.359 8.809 322.562 
c 8.887 322.32 8.887 322.081 8.969 321.921 c 8.969 321.839 9.047 321.761
 9.047 321.761 c 9.129 321.601 9.129 321.441 9.207 321.28 c 9.207 321.198
 9.289 321.12 9.289 321.038 c 9.527 320.562 l 9.527 320.48 9.609 320.402
 9.609 320.32 c 9.848 319.839 l 9.848 319.761 9.93 319.761 9.93 319.679 
c 10.008 319.519 10.168 319.359 10.328 319.198 c 10.406 319.12 l 10.566 
318.878 10.809 318.64 11.047 318.402 c 45.207 284.241 l 46.887 282.562 49.047
 281.761 51.289 281.761 c 53.527 281.761 55.688 282.562 57.367 284.241 c
 60.727 287.601 60.727 292.96 57.367 296.32 c 35.527 318.081 l 154.727 332.96
 l 159.367 333.519 162.727 337.839 162.168 342.48 c h
162.168 342.48 m f
401.129 367.999 m 401.047 368.722 400.887 369.359 400.566 370.081 c 400.566
 370.159 l 400.488 370.32 400.406 370.562 400.328 370.722 c 400.246 370.8
 400.246 370.878 400.168 370.96 c 400.09 371.12 400.008 371.198 399.93 371.359
 c 399.688 371.839 399.367 372.241 399.047 372.64 c 398.969 372.722 l 398.887
 372.878 398.727 372.96 398.648 373.12 c 364.488 407.28 l 361.129 410.64
 355.77 410.64 352.406 407.28 c 349.047 403.921 349.047 398.562 352.406 
395.198 c 374.09 373.519 l 246.488 358.48 l 241.77 357.921 238.488 353.679
 239.047 349.038 c 239.527 344.722 243.207 341.519 247.527 341.519 c 247.848
 341.519 248.246 341.519 248.566 341.601 c 376.328 356.64 l 359.688 328.878
 l 357.289 324.8 358.566 319.601 362.648 317.198 c 364.008 316.402 365.527
 315.999 367.047 315.999 c 369.93 315.999 372.727 317.441 374.328 320.159
 c 399.688 362.402 l 400.809 363.839 401.367 365.839 401.129 367.999 c h
401.129 367.999 m f
331.047 134.722 m 327.047 138.8 322.246 141.679 316.969 143.198 c 326.648
 155.999 325.688 174.32 313.93 186.081 c 310.008 190.081 305.129 192.878
 299.848 194.402 c 309.527 207.198 308.566 225.519 296.809 237.28 c 292.887
 241.198 288.168 243.999 283.047 245.519 c 313.289 275.761 l 326.008 288.48
 326.008 309.12 313.207 321.921 c 300.488 334.64 279.848 334.64 267.129 
321.921 c 150.969 205.679 l 140.168 274.562 l 137.527 293.198 121.367 307.28
 102.488 307.28 c 88.406 307.28 76.887 295.761 76.887 281.679 c 76.887 120.722
 l 76.887 95.601 86.648 72.081 104.406 54.32 c 131.207 27.441 l 148.887 
9.761 172.488 -0.001 197.527 -0.001 c 220.887 -0.001 243.367 8.64 260.648
 24.402 c 331.129 88.562 l 343.848 101.28 343.848 121.921 331.047 134.722
 c h
319.367 100.96 m 249.129 37.038 l 234.969 24.159 216.648 17.12 197.527 
17.12 c 177.047 17.12 157.77 25.12 143.289 39.601 c 116.488 66.48 l 102.008
 80.96 94.008 100.241 94.008 120.8 c 94.008 281.679 l 94.008 286.402 97.848
 290.241 102.566 290.241 c 112.969 290.241 121.848 282.48 123.367 272.081
 c 136.809 186.48 l 137.289 183.28 139.527 180.722 142.566 179.679 c 145.609
 178.64 148.969 179.519 151.289 181.761 c 279.367 309.839 l 285.449 315.921
 295.289 315.921 301.449 309.761 c 307.527 303.679 307.527 293.839 301.449
 287.761 c 215.93 202.402 l 212.566 199.038 212.566 193.679 215.93 190.32
 c 219.289 186.96 224.648 186.96 228.008 190.32 c 262.887 225.198 l 268.727
 231.038 278.887 231.12 284.969 225.12 c 291.047 219.038 291.047 209.198
 284.969 203.12 c 254.406 172.64 l 250.09 168.32 l 246.727 164.96 246.727
 159.601 250.09 156.241 c 253.449 152.878 258.809 152.878 262.168 156.241
 c 266.488 160.562 l 279.93 173.999 l 285.77 179.839 295.93 179.921 302.008
 173.921 c 308.09 167.839 308.09 157.999 302.008 151.921 c 288.488 138.48
 l 284.246 134.241 l 284.168 134.159 l 280.809 130.8 280.809 125.441 284.168
 122.081 c 287.527 118.722 292.887 118.722 296.246 122.081 c 296.969 122.8
 l 302.887 128.64 312.969 128.722 319.047 122.722 c 325.129 116.64 325.129
 106.8 319.367 100.96 c h
319.367 100.96 m f
Q Q
showpage
%%Trailer
end restore
%%EOF
