%!PS-Adobe-3.0 EPSF-3.0
%%Creator: cairo 1.14.2 (http://cairographics.org)
%%CreationDate: Tue Nov 21 08:22:16 2017
%%Pages: 1
%%DocumentData: Clean7Bit
%%LanguageLevel: 2
%%BoundingBox: 34 -1 342 376
%%EndComments
%%BeginProlog
save
50 dict begin
/q { gsave } bind def
/Q { grestore } bind def
/cm { 6 array astore concat } bind def
/w { setlinewidth } bind def
/J { setlinecap } bind def
/j { setlinejoin } bind def
/M { setmiterlimit } bind def
/d { setdash } bind def
/m { moveto } bind def
/l { lineto } bind def
/c { curveto } bind def
/h { closepath } bind def
/re { exch dup neg 3 1 roll 5 3 roll moveto 0 rlineto
      0 exch rlineto 0 rlineto closepath } bind def
/S { stroke } bind def
/f { fill } bind def
/f* { eofill } bind def
/n { newpath } bind def
/W { clip } bind def
/W* { eoclip } bind def
/BT { } bind def
/ET { } bind def
/pdfmark where { pop globaldict /?pdfmark /exec load put }
    { globaldict begin /?pdfmark /pop load def /pdfmark
    /cleartomark load def end } ifelse
/BDC { mark 3 1 roll /BDC pdfmark } bind def
/EMC { mark /EMC pdfmark } bind def
/cairo_store_point { /cairo_point_y exch def /cairo_point_x exch def } def
/Tj { show currentpoint cairo_store_point } bind def
/TJ {
  {
    dup
    type /stringtype eq
    { show } { -0.001 mul 0 cairo_font_matrix dtransform rmoveto } ifelse
  } forall
  currentpoint cairo_store_point
} bind def
/cairo_selectfont { cairo_font_matrix aload pop pop pop 0 0 6 array astore
    cairo_font exch selectfont cairo_point_x cairo_point_y moveto } bind def
/Tf { pop /cairo_font exch def /cairo_font_matrix where
      { pop cairo_selectfont } if } bind def
/Td { matrix translate cairo_font_matrix matrix concatmatrix dup
      /cairo_font_matrix exch def dup 4 get exch 5 get cairo_store_point
      /cairo_font where { pop cairo_selectfont } if } bind def
/Tm { 2 copy 8 2 roll 6 array astore /cairo_font_matrix exch def
      cairo_store_point /cairo_font where { pop cairo_selectfont } if } bind def
/g { setgray } bind def
/rg { setrgbcolor } bind def
/d1 { setcachedevice } bind def
%%EndProlog
%%BeginSetup
%%EndSetup
%%Page: 1 1
%%BeginPageSetup
%%PageBoundingBox: 34 -1 342 376
%%EndPageSetup
q 34 -1 308 377 rectclip q
0 g
338.824 236.423 m 202.293 372.959 l 198.965 376.287 193.555 376.287 190.227
 372.959 c 186.898 369.63 186.898 364.22 190.227 360.892 c 326.758 224.357
 l 328.43 222.701 330.613 221.865 332.801 221.865 c 334.984 221.865 337.168
 222.701 338.824 224.357 c 342.152 227.685 342.152 233.095 338.824 236.423
 c h
338.824 236.423 m f
332.801 290.134 m 328.09 290.134 324.266 286.31 324.266 281.599 c 324.266
 238.931 l 281.602 238.931 l 276.891 238.931 273.066 235.111 273.066 230.4
 c 273.066 225.689 276.891 221.865 281.602 221.865 c 332.801 221.865 l 337.512
 221.865 341.332 225.689 341.332 230.4 c 341.332 281.599 l 341.332 286.31
 337.512 290.134 332.801 290.134 c h
332.801 290.134 m f
247.465 375.466 m 196.266 375.466 l 191.555 375.466 187.734 371.642 187.734
 366.931 c 187.734 315.732 l 187.734 311.021 191.555 307.201 196.266 307.201
 c 200.977 307.201 204.801 311.021 204.801 315.732 c 204.801 358.4 l 247.465
 358.4 l 252.176 358.4 256 362.224 256 366.935 c 256 371.642 252.176 375.466
 247.465 375.466 c h
247.465 375.466 m f
254.328 161.517 m 242.039 177.92 219.035 181.861 201.949 170.494 c 187.734
 161.025 l 187.734 264.533 l 187.734 278.646 176.246 290.134 162.133 290.134
 c 148.02 290.134 136.531 278.646 136.531 264.533 c 136.531 237.482 l 133.871
 238.42 130.988 238.931 128 238.931 c 116.223 238.931 106.258 230.927 103.305
 220.076 c 100.367 221.216 97.195 221.865 93.867 221.865 c 82.09 221.865
 72.125 213.861 69.172 203.009 c 66.234 204.15 63.062 204.798 59.734 204.798
 c 45.621 204.798 34.133 193.314 34.133 179.201 c 34.133 110.935 l 34.133
 68.591 68.59 34.134 110.934 34.134 c 139.605 34.134 l 156.312 34.134 172.355
 41.201 183.656 53.486 c 252.723 128.853 l 261.035 137.951 261.719 151.67
 254.328 161.517 c h
240.129 140.408 m 171.059 65.041 l 163.004 56.236 151.535 51.201 139.605
 51.201 c 110.934 51.201 l 77.996 51.201 51.199 77.994 51.199 110.931 c 
51.199 179.201 l 51.199 183.908 55.023 187.732 59.734 187.732 c 64.445 187.732
 68.266 183.908 68.266 179.201 c 68.266 170.666 l 68.266 165.955 72.09 162.134
 76.801 162.134 c 81.512 162.134 85.336 165.955 85.336 170.666 c 85.336 
196.267 l 85.336 200.978 89.156 204.798 93.867 204.798 c 98.578 204.798 
102.398 200.978 102.398 196.267 c 102.398 170.666 l 102.398 165.955 106.223
 162.134 110.934 162.134 c 115.645 162.134 119.469 165.955 119.469 170.666
 c 119.469 213.334 l 119.469 218.045 123.289 221.865 128 221.865 c 132.711
 221.865 136.535 218.045 136.535 213.334 c 136.535 170.666 l 136.535 165.955
 140.359 162.134 145.066 162.134 c 149.777 162.134 153.602 165.955 153.602
 170.666 c 153.602 264.533 l 153.602 269.244 157.422 273.068 162.133 273.068
 c 166.844 273.068 170.668 269.244 170.668 264.533 c 170.668 145.068 l 170.668
 141.908 172.406 139.025 175.191 137.556 c 177.938 136.072 181.316 136.244
 183.945 137.982 c 211.422 156.314 l 220.961 162.646 233.812 160.459 240.676
 151.295 c 243.133 148.021 242.91 143.427 240.129 140.408 c h
240.129 140.408 m f
179.199 51.201 m 59.734 51.201 l 55.023 51.201 51.199 47.377 51.199 42.666
 c 51.199 8.533 l 51.199 3.822 55.023 -0.002 59.734 -0.002 c 64.445 -0.002
 68.266 3.822 68.266 8.533 c 68.266 34.134 l 170.668 34.134 l 170.668 8.533
 l 170.668 3.822 174.492 -0.002 179.199 -0.002 c 183.91 -0.002 187.734 3.822
 187.734 8.533 c 187.734 42.666 l 187.734 47.377 183.91 51.201 179.199 51.201
 c h
179.199 51.201 m f
Q Q
showpage
%%Trailer
end restore
%%EOF
