%!PS-Adobe-3.0 EPSF-3.0
%%Creator: cairo 1.14.2 (http://cairographics.org)
%%CreationDate: Tue Nov 21 08:22:16 2017
%%Pages: 1
%%DocumentData: Clean7Bit
%%LanguageLevel: 2
%%BoundingBox: 0 25 410 385
%%EndComments
%%BeginProlog
save
50 dict begin
/q { gsave } bind def
/Q { grestore } bind def
/cm { 6 array astore concat } bind def
/w { setlinewidth } bind def
/J { setlinecap } bind def
/j { setlinejoin } bind def
/M { setmiterlimit } bind def
/d { setdash } bind def
/m { moveto } bind def
/l { lineto } bind def
/c { curveto } bind def
/h { closepath } bind def
/re { exch dup neg 3 1 roll 5 3 roll moveto 0 rlineto
      0 exch rlineto 0 rlineto closepath } bind def
/S { stroke } bind def
/f { fill } bind def
/f* { eofill } bind def
/n { newpath } bind def
/W { clip } bind def
/W* { eoclip } bind def
/BT { } bind def
/ET { } bind def
/pdfmark where { pop globaldict /?pdfmark /exec load put }
    { globaldict begin /?pdfmark /pop load def /pdfmark
    /cleartomark load def end } ifelse
/BDC { mark 3 1 roll /BDC pdfmark } bind def
/EMC { mark /EMC pdfmark } bind def
/cairo_store_point { /cairo_point_y exch def /cairo_point_x exch def } def
/Tj { show currentpoint cairo_store_point } bind def
/TJ {
  {
    dup
    type /stringtype eq
    { show } { -0.001 mul 0 cairo_font_matrix dtransform rmoveto } ifelse
  } forall
  currentpoint cairo_store_point
} bind def
/cairo_selectfont { cairo_font_matrix aload pop pop pop 0 0 6 array astore
    cairo_font exch selectfont cairo_point_x cairo_point_y moveto } bind def
/Tf { pop /cairo_font exch def /cairo_font_matrix where
      { pop cairo_selectfont } if } bind def
/Td { matrix translate cairo_font_matrix matrix concatmatrix dup
      /cairo_font_matrix exch def dup 4 get exch 5 get cairo_store_point
      /cairo_font where { pop cairo_selectfont } if } bind def
/Tm { 2 copy 8 2 roll 6 array astore /cairo_font_matrix exch def
      cairo_store_point /cairo_font where { pop cairo_selectfont } if } bind def
/g { setgray } bind def
/rg { setrgbcolor } bind def
/d1 { setcachedevice } bind def
%%EndProlog
%%BeginSetup
%%EndSetup
%%Page: 1 1
%%BeginPageSetup
%%PageBoundingBox: 0 25 410 385
%%EndPageSetup
q 0 25 410 360 rectclip q
0 g
82.844 202.362 m 48.711 236.495 l 45.383 239.823 39.973 239.823 36.645 
236.495 c 2.512 202.362 l -0.816 199.034 -0.816 193.624 2.512 190.295 c 
5.84 186.967 11.25 186.967 14.578 190.295 c 42.672 218.385 l 70.762 190.28
 l 72.438 188.624 74.621 187.788 76.805 187.788 c 78.988 187.788 81.172 
188.604 82.848 190.295 c 86.172 193.624 86.172 199.034 82.844 202.362 c 
h
82.844 202.362 m f
82.828 151.143 m 79.5 154.471 74.09 154.471 70.762 151.143 c 42.672 123.053
 l 14.562 151.143 l 11.234 154.471 5.824 154.471 2.496 151.143 c -0.832 
147.815 -0.832 142.405 2.496 139.077 c 36.629 104.944 l 38.301 103.288 40.484
 102.452 42.672 102.452 c 44.855 102.452 47.039 103.272 48.695 104.944 c
 82.828 139.077 l 86.156 142.405 86.156 147.815 82.828 151.143 c h
82.828 151.143 m f
42.672 238.987 m 37.961 238.987 34.137 235.163 34.137 230.452 c 34.137 
110.987 l 34.137 106.276 37.961 102.452 42.672 102.452 c 47.383 102.452 
51.203 106.26 51.203 110.987 c 51.203 230.452 l 51.203 235.163 47.383 238.987
 42.672 238.987 c h
42.672 238.987 m f
376.957 292.045 m 296.332 372.651 l 281.246 387.741 256.688 387.741 241.602
 372.651 c 235.711 366.764 232.129 359.444 230.832 351.815 c 215.777 361.952
 195.145 360.331 181.867 347.053 c 176.305 341.506 172.652 334.561 171.219
 327.034 c 156.488 340.413 132.031 339.901 117.867 325.717 c 112.199 320.053
 108.668 313.057 107.254 305.733 c 78.578 334.405 l 67.52 345.467 56.152
 351.764 44.77 353.147 c 33.746 354.51 23.23 350.858 15.312 342.94 c 7.992
 335.635 3.965 325.909 3.965 315.565 c 3.965 305.241 7.992 295.51 15.312
 288.206 c 156.625 146.897 l 76.121 101.104 l 55.25 89.944 45.605 64.752
 53.711 42.499 c 56.051 36.065 60.742 30.928 66.938 28.042 c 70.387 26.44
 74.055 25.635 77.742 25.635 c 80.609 25.635 83.492 26.131 86.293 27.104
 c 218.492 67.397 l 238.562 73.526 259.398 76.631 280.391 76.631 c 305.465
 76.631 329.031 86.393 346.766 104.127 c 376.938 134.299 l 397.996 155.358
 409.602 183.366 409.602 213.163 c 409.605 242.963 398 270.987 376.957 292.045
 c h
364.871 146.35 m 334.699 116.174 l 320.211 101.67 300.906 93.682 280.395
 93.682 c 257.711 93.682 235.199 90.338 213.508 83.713 c 81.105 43.35 l 
80.969 43.319 80.816 43.268 80.68 43.213 c 78.547 42.432 76.227 42.534 74.16
 43.506 c 72.094 44.463 70.523 46.186 69.738 48.319 c 64.535 62.655 70.73
 78.87 84.367 86.155 c 174.785 137.596 l 177.105 138.909 178.676 141.245
 179.035 143.874 c 179.395 146.502 178.488 149.167 176.613 151.042 c 27.379
 300.272 l 23.281 304.35 21.031 309.795 21.031 315.565 c 21.031 321.35 23.281
 326.795 27.363 330.874 c 31.016 334.526 35.402 336.319 40.246 336.319 c
 48.133 336.319 57.262 331.573 66.496 322.323 c 164.629 224.19 l 167.957
 220.862 173.367 220.862 176.695 224.19 c 178.352 225.862 179.188 228.045
 179.188 230.233 c 179.188 232.417 178.371 234.6 176.695 236.272 c 129.918
 283.053 l 121.484 291.483 121.484 305.221 129.918 313.655 c 138.348 322.084
 152.086 322.084 160.52 313.655 c 207.312 266.858 l 210.641 263.53 216.055
 263.53 219.379 266.858 c 221.035 268.53 221.871 270.713 221.871 272.897
 c 221.871 275.084 221.035 277.268 219.379 278.924 c 193.934 304.37 l 185.504
 312.799 185.504 326.538 193.934 334.971 c 202.367 343.401 216.105 343.401
 224.535 334.971 c 249.98 309.526 l 253.309 306.198 258.719 306.198 262.047
 309.526 c 263.703 311.198 264.539 313.381 264.539 315.565 c 264.539 317.749
 263.703 319.936 262.031 321.608 c 253.652 329.987 l 245.219 338.417 245.219
 352.159 253.652 360.588 c 262.082 369.018 275.82 369.018 284.254 360.588
 c 364.875 279.983 l 382.711 262.131 392.539 238.409 392.539 213.167 c 392.539
 187.94 382.707 164.217 364.871 146.35 c h
364.871 146.35 m f
Q Q
showpage
%%Trailer
end restore
%%EOF
