%!PS-Adobe-3.0 EPSF-3.0
%%Creator: cairo 1.14.2 (http://cairographics.org)
%%CreationDate: Tue Nov 21 08:22:16 2017
%%Pages: 1
%%DocumentData: Clean7Bit
%%LanguageLevel: 2
%%BoundingBox: 17 -1 376 393
%%EndComments
%%BeginProlog
save
50 dict begin
/q { gsave } bind def
/Q { grestore } bind def
/cm { 6 array astore concat } bind def
/w { setlinewidth } bind def
/J { setlinecap } bind def
/j { setlinejoin } bind def
/M { setmiterlimit } bind def
/d { setdash } bind def
/m { moveto } bind def
/l { lineto } bind def
/c { curveto } bind def
/h { closepath } bind def
/re { exch dup neg 3 1 roll 5 3 roll moveto 0 rlineto
      0 exch rlineto 0 rlineto closepath } bind def
/S { stroke } bind def
/f { fill } bind def
/f* { eofill } bind def
/n { newpath } bind def
/W { clip } bind def
/W* { eoclip } bind def
/BT { } bind def
/ET { } bind def
/pdfmark where { pop globaldict /?pdfmark /exec load put }
    { globaldict begin /?pdfmark /pop load def /pdfmark
    /cleartomark load def end } ifelse
/BDC { mark 3 1 roll /BDC pdfmark } bind def
/EMC { mark /EMC pdfmark } bind def
/cairo_store_point { /cairo_point_y exch def /cairo_point_x exch def } def
/Tj { show currentpoint cairo_store_point } bind def
/TJ {
  {
    dup
    type /stringtype eq
    { show } { -0.001 mul 0 cairo_font_matrix dtransform rmoveto } ifelse
  } forall
  currentpoint cairo_store_point
} bind def
/cairo_selectfont { cairo_font_matrix aload pop pop pop 0 0 6 array astore
    cairo_font exch selectfont cairo_point_x cairo_point_y moveto } bind def
/Tf { pop /cairo_font exch def /cairo_font_matrix where
      { pop cairo_selectfont } if } bind def
/Td { matrix translate cairo_font_matrix matrix concatmatrix dup
      /cairo_font_matrix exch def dup 4 get exch 5 get cairo_store_point
      /cairo_font where { pop cairo_selectfont } if } bind def
/Tm { 2 copy 8 2 roll 6 array astore /cairo_font_matrix exch def
      cairo_store_point /cairo_font where { pop cairo_selectfont } if } bind def
/g { setgray } bind def
/rg { setrgbcolor } bind def
/d1 { setcachedevice } bind def
%%EndProlog
%%BeginSetup
%%EndSetup
%%Page: 1 1
%%BeginPageSetup
%%PageBoundingBox: 17 -1 376 393
%%EndPageSetup
q 17 -1 359 394 rectclip q
0 g
59.641 392.56 m 36.121 392.56 17 373.439 17 349.919 c 17 326.4 36.121 307.279
 59.641 307.279 c 83.238 307.279 102.281 326.4 102.281 349.919 c 102.281
 373.439 83.16 392.56 59.641 392.56 c h
59.641 324.322 m 45.559 324.322 34.039 335.841 34.039 349.919 c 34.039 
364.001 45.559 375.521 59.641 375.521 c 73.801 375.521 85.238 364.001 85.238
 349.919 c 85.238 335.841 73.719 324.322 59.641 324.322 c h
59.641 324.322 m f
59.641 256.001 m 36.121 256.001 17 236.88 17 213.361 c 17 189.841 36.121
 170.72 59.641 170.72 c 83.238 170.72 102.281 189.841 102.281 213.361 c 
102.281 236.88 83.16 256.001 59.641 256.001 c h
59.641 187.759 m 45.559 187.759 34.039 199.279 34.039 213.361 c 34.039 
227.439 45.559 238.958 59.641 238.958 c 73.801 238.958 85.238 227.521 85.238
 213.361 c 85.238 199.279 73.719 187.759 59.641 187.759 c h
59.641 187.759 m f
59.641 119.521 m 36.121 119.521 17 100.322 17 76.798 c 17 53.279 36.121
 34.162 59.641 34.162 c 83.238 34.162 102.281 53.361 102.281 76.88 c 102.281
 100.4 83.16 119.521 59.641 119.521 c h
59.641 51.279 m 45.559 51.279 34.039 62.798 34.039 76.88 c 34.039 90.958
 45.559 102.482 59.641 102.482 c 73.801 102.482 85.238 90.958 85.238 76.88
 c 85.238 62.798 73.719 51.279 59.641 51.279 c h
59.641 51.279 m f
196.199 392.56 m 172.68 392.56 153.559 373.439 153.559 349.919 c 153.559
 326.4 172.68 307.279 196.199 307.279 c 219.719 307.279 238.84 326.4 238.84
 349.919 c 238.84 373.439 219.719 392.56 196.199 392.56 c h
196.199 324.322 m 182.121 324.322 170.602 335.841 170.602 349.919 c 170.602
 364.001 182.121 375.521 196.199 375.521 c 210.281 375.521 221.801 364.001
 221.801 349.919 c 221.801 335.841 210.281 324.322 196.199 324.322 c h
196.199 324.322 m f
332.762 392.56 m 309.238 392.56 290.121 373.439 290.121 349.919 c 290.121
 326.4 309.238 307.279 332.762 307.279 c 356.281 307.279 375.398 326.4 375.398
 349.919 c 375.398 373.439 356.281 392.56 332.762 392.56 c h
332.762 324.322 m 318.68 324.322 307.16 335.841 307.16 349.919 c 307.16
 364.001 318.68 375.521 332.762 375.521 c 346.84 375.521 358.359 364.001
 358.359 349.919 c 358.359 335.841 346.84 324.322 332.762 324.322 c h
332.762 324.322 m f
59.641 324.322 m 54.922 324.322 51.078 320.482 51.078 315.759 c 51.078 
247.521 l 51.078 242.798 54.922 238.958 59.641 238.958 c 64.359 238.958 
68.199 242.798 68.199 247.521 c 68.199 315.759 l 68.199 320.482 64.359 324.322
 59.641 324.322 c h
59.641 324.322 m f
59.641 187.841 m 54.922 187.841 51.078 184.001 51.078 179.279 c 51.078 
111.04 l 51.078 106.322 54.922 102.482 59.641 102.482 c 64.359 102.482 68.199
 106.24 68.199 111.04 c 68.199 179.279 l 68.199 184.001 64.359 187.841 59.641
 187.841 c h
59.641 187.841 m f
176.602 193.841 m 173.238 197.201 167.879 197.201 164.52 193.841 c 79.16
 108.482 l 75.801 105.119 75.801 99.759 79.16 96.4 c 80.84 94.72 83.078 
93.919 85.238 93.919 c 87.48 93.919 89.641 94.72 91.32 96.4 c 176.602 181.759
 l 179.961 185.119 179.961 190.482 176.602 193.841 c h
176.602 193.841 m f
196.199 256.001 m 172.68 256.001 153.559 236.88 153.559 213.361 c 153.559
 189.841 172.68 170.72 196.199 170.72 c 200.922 170.72 204.762 174.482 204.762
 179.201 c 204.762 183.919 200.922 187.759 196.199 187.759 c 182.121 187.759
 170.602 199.279 170.602 213.361 c 170.602 227.439 182.121 238.958 196.199
 238.958 c 210.281 238.958 221.801 227.439 221.801 213.361 c 221.801 209.841
 221 206.24 219.48 202.88 c 217.559 198.56 219.398 193.521 223.719 191.599
 c 228.039 189.681 233.078 191.521 235 195.841 c 237.559 201.439 238.84 
207.361 238.84 213.361 c 238.84 236.88 219.719 256.001 196.199 256.001 c
 h
196.199 256.001 m f
332.762 119.599 m 328.039 119.599 324.199 115.759 324.199 111.04 c 324.199
 106.322 328.039 102.482 332.762 102.482 c 346.84 102.482 358.359 90.958
 358.359 76.88 c 358.359 59.119 339.16 45.759 322.039 53.759 c 317.719 55.681
 312.68 53.919 310.68 49.599 c 308.68 45.279 310.52 40.24 314.84 38.24 c
 320.602 35.521 326.602 34.162 332.762 34.162 c 356.281 34.162 375.398 53.439
 375.398 76.958 c 375.398 100.482 356.281 119.599 332.762 119.599 c h
332.762 119.599 m f
332.762 256.08 m 309.238 256.08 290.121 236.958 290.121 213.439 c 290.121
 205.361 292.359 197.759 296.359 191.279 c 292.441 185.919 290.121 179.279
 290.121 172.162 c 290.121 148.638 l 224.84 213.919 l 214.762 224.001 197.238
 224.001 187.16 213.919 c 176.762 203.521 176.762 186.638 187.16 176.24 
c 202.441 160.958 l 199.559 159.681 196.84 157.841 194.441 155.439 c 189.398
 150.4 186.68 143.681 186.68 136.56 c 186.68 135.279 186.762 134.08 186.922
 132.798 c 181.879 131.841 177 129.439 173.16 125.521 c 165.719 118.08 163.641
 107.279 166.84 97.919 c 162.922 96.638 159.238 94.482 156.121 91.361 c 
145.719 80.958 145.719 64.08 156.121 53.681 c 182.602 27.201 l 200.199 9.599
 223.559 0.001 248.359 0.001 c 299.641 0.001 341.398 41.759 341.398 92.958
 c 341.398 171.521 l 360.84 175.521 375.559 192.72 375.559 213.361 c 375.398
 236.88 356.281 256.08 332.762 256.08 c h
324.281 171.599 m 324.281 93.119 l 324.199 93.119 l 324.199 51.201 290.121
 17.201 248.281 17.201 c 228.039 17.201 208.922 25.119 194.602 39.439 c 
168.121 65.919 l 164.359 69.681 164.359 75.681 168.121 79.439 c 169.961 
81.279 172.441 82.24 174.84 82.24 c 177.32 82.24 179.719 81.279 181.641 
79.439 c 185 76.08 190.359 76.08 193.719 79.439 c 195.398 81.119 196.199
 83.279 196.199 85.521 c 196.199 87.759 195.398 89.919 193.719 91.521 c 
185.16 100.08 l 181.398 103.841 181.398 109.841 185.16 113.599 c 188.762
 117.201 195.078 117.201 198.68 113.599 c 207.238 105.04 l 210.602 101.681
 215.961 101.681 219.32 105.04 c 221 106.72 221.801 108.88 221.801 111.119
 c 221.801 113.361 221 115.521 219.32 117.201 c 206.52 130.001 l 204.762
 131.759 203.719 134.24 203.719 136.72 c 203.719 139.279 204.762 141.681
 206.52 143.439 c 210.039 147.04 216.281 147.04 219.879 143.599 c 241.398
 122.08 l 244.762 118.72 250.121 118.72 253.48 122.08 c 256.84 125.439 256.84
 130.798 253.48 134.162 c 232.121 155.521 l 231.879 155.759 l 199.238 188.322
 l 195.48 192.08 195.48 198.08 199.238 201.841 c 202.84 205.439 209.16 205.439
 212.762 201.841 c 292.602 122.001 l 295.078 119.521 298.762 118.798 301.879
 120.162 c 305.078 121.439 307.16 124.56 307.16 128.08 c 307.16 172.162 
l 307.16 174.4 307.641 176.482 308.441 178.4 c 310.84 183.919 316.359 187.841
 322.84 187.841 c 323.641 187.841 324.281 187.201 324.281 186.4 c h
341.078 189.201 m 339.719 198.08 332.039 204.88 322.84 204.88 c 318.199
 204.88 313.801 203.919 309.801 202.162 c 308.121 205.599 307.16 209.361
 307.16 213.439 c 307.16 227.521 318.68 239.04 332.762 239.04 c 346.84 239.04
 358.359 227.521 358.359 213.439 c 358.359 202.162 351.078 192.638 341.078
 189.201 c h
341.078 189.201 m f
Q Q
showpage
%%Trailer
end restore
%%EOF
