%!PS-Adobe-3.0 EPSF-3.0
%%Creator: cairo 1.14.2 (http://cairographics.org)
%%CreationDate: Tue Nov 21 08:22:16 2017
%%Pages: 1
%%DocumentData: Clean7Bit
%%LanguageLevel: 2
%%BoundingBox: 0 10 406 396
%%EndComments
%%BeginProlog
save
50 dict begin
/q { gsave } bind def
/Q { grestore } bind def
/cm { 6 array astore concat } bind def
/w { setlinewidth } bind def
/J { setlinecap } bind def
/j { setlinejoin } bind def
/M { setmiterlimit } bind def
/d { setdash } bind def
/m { moveto } bind def
/l { lineto } bind def
/c { curveto } bind def
/h { closepath } bind def
/re { exch dup neg 3 1 roll 5 3 roll moveto 0 rlineto
      0 exch rlineto 0 rlineto closepath } bind def
/S { stroke } bind def
/f { fill } bind def
/f* { eofill } bind def
/n { newpath } bind def
/W { clip } bind def
/W* { eoclip } bind def
/BT { } bind def
/ET { } bind def
/pdfmark where { pop globaldict /?pdfmark /exec load put }
    { globaldict begin /?pdfmark /pop load def /pdfmark
    /cleartomark load def end } ifelse
/BDC { mark 3 1 roll /BDC pdfmark } bind def
/EMC { mark /EMC pdfmark } bind def
/cairo_store_point { /cairo_point_y exch def /cairo_point_x exch def } def
/Tj { show currentpoint cairo_store_point } bind def
/TJ {
  {
    dup
    type /stringtype eq
    { show } { -0.001 mul 0 cairo_font_matrix dtransform rmoveto } ifelse
  } forall
  currentpoint cairo_store_point
} bind def
/cairo_selectfont { cairo_font_matrix aload pop pop pop 0 0 6 array astore
    cairo_font exch selectfont cairo_point_x cairo_point_y moveto } bind def
/Tf { pop /cairo_font exch def /cairo_font_matrix where
      { pop cairo_selectfont } if } bind def
/Td { matrix translate cairo_font_matrix matrix concatmatrix dup
      /cairo_font_matrix exch def dup 4 get exch 5 get cairo_store_point
      /cairo_font where { pop cairo_selectfont } if } bind def
/Tm { 2 copy 8 2 roll 6 array astore /cairo_font_matrix exch def
      cairo_store_point /cairo_font where { pop cairo_selectfont } if } bind def
/g { setgray } bind def
/rg { setrgbcolor } bind def
/d1 { setcachedevice } bind def
%%EndProlog
%%BeginSetup
%%EndSetup
%%Page: 1 1
%%BeginPageSetup
%%PageBoundingBox: 0 10 406 396
%%EndPageSetup
q 0 10 406 386 rectclip q
0 g
397.105 130.219 m 260.574 130.219 l 255.863 130.219 252.039 126.395 252.039
 121.684 c 252.039 19.285 l 252.039 14.574 255.863 10.75 260.574 10.75 c
 397.105 10.75 l 401.816 10.75 405.641 14.574 405.641 19.285 c 405.641 121.684
 l 405.641 126.395 401.816 130.219 397.105 130.219 c h
388.574 27.82 m 269.105 27.82 l 269.105 113.153 l 388.574 113.153 l h
388.574 27.82 m f
328.84 87.551 m 324.129 87.551 320.309 83.731 320.309 79.02 c 320.309 53.418
 l 320.309 48.707 324.129 44.883 328.84 44.883 c 333.551 44.883 337.375 
48.707 337.375 53.418 c 337.375 79.02 l 337.375 83.731 333.551 87.551 328.84
 87.551 c h
328.84 87.551 m f
345.906 79.02 m 345.906 69.594 338.266 61.953 328.84 61.953 c 319.414 61.953
 311.773 69.594 311.773 79.02 c 311.773 88.445 319.414 96.086 328.84 96.086
 c 338.266 96.086 345.906 88.445 345.906 79.02 c h
345.906 79.02 m f
328.84 198.485 m 295.902 198.485 269.105 171.692 269.105 138.75 c 269.105
 121.684 l 269.105 116.977 272.93 113.153 277.641 113.153 c 282.352 113.153
 286.176 116.977 286.176 121.684 c 286.176 138.75 l 286.176 162.27 305.324
 181.418 328.84 181.418 c 352.359 181.418 371.508 162.27 371.508 138.75 
c 371.508 121.684 l 371.508 116.977 375.332 113.153 380.039 113.153 c 384.75
 113.153 388.574 116.977 388.574 121.684 c 388.574 138.75 l 388.574 171.692
 361.777 198.485 328.84 198.485 c h
328.84 198.485 m f
372.977 302.949 m 292.352 383.574 l 277.266 398.66 252.707 398.66 237.621
 383.574 c 231.73 377.684 228.148 370.363 226.852 362.735 c 211.797 372.871
 191.164 371.27 177.887 357.973 c 172.34 352.426 168.688 345.481 167.254
 337.953 c 152.523 351.336 128.07 350.82 113.902 336.641 c 108.238 330.973
 104.703 323.977 103.289 316.656 c 74.617 345.328 l 63.555 356.387 52.191
 362.684 40.805 364.067 c 29.766 365.399 19.285 361.778 11.348 353.86 c 
4.027 346.555 0 336.813 0 326.485 c 0 316.16 4.027 306.434 11.348 299.129
 c 152.66 157.817 l 72.156 112.028 l 51.285 100.863 41.641 75.672 49.75 
53.418 c 52.086 46.985 56.781 41.848 62.977 38.965 c 66.473 37.324 70.211
 36.524 73.879 36.524 c 76.715 36.524 79.512 37.016 82.09 37.973 c 214.477
 78.317 l 219.066 79.719 223.691 80.914 228.352 81.988 c 232.961 83.047 
235.809 87.637 234.734 92.227 c 233.695 96.836 229.086 99.703 224.496 98.61
 c 219.477 97.449 214.492 96.153 209.527 94.653 c 76.715 54.137 l 74.562
 53.352 72.242 53.453 70.195 54.426 c 68.129 55.383 66.559 57.106 65.773
 59.238 c 60.555 73.574 66.766 89.789 80.402 97.074 c 170.82 148.496 l 173.141
 149.813 174.711 152.149 175.07 154.778 c 175.43 157.406 174.523 160.07 
172.648 161.945 c 23.414 311.176 l 14.984 319.61 14.984 333.348 23.414 341.778
 c 32.988 351.352 47.617 348.16 62.547 333.242 c 160.684 235.11 l 164.012
 231.781 169.422 231.781 172.75 235.11 c 174.402 236.781 175.242 238.969
 175.242 241.153 c 175.242 243.336 174.422 245.52 172.75 247.195 c 125.953
 293.973 l 117.52 302.406 117.52 316.145 125.953 324.574 c 134.383 333.004
 148.121 333.004 156.555 324.574 c 203.348 277.778 l 206.676 274.449 212.09
 274.449 215.414 277.778 c 217.07 279.449 217.906 281.633 217.906 283.82
 c 217.906 286.004 217.09 288.188 215.414 289.86 c 189.969 315.289 l 181.539
 323.723 181.539 337.461 189.969 345.891 c 198.402 354.32 212.141 354.32
 220.57 345.891 c 246.016 320.445 l 249.344 317.117 254.754 317.117 258.082
 320.445 c 259.738 322.117 260.574 324.301 260.574 326.485 c 260.574 328.672
 259.758 330.856 258.082 332.528 c 249.688 340.906 l 241.254 349.34 241.254
 363.078 249.688 371.508 c 258.117 379.942 271.855 379.942 280.289 371.508
 c 360.91 290.887 l 378.746 273.051 388.574 249.328 388.574 224.086 c 388.574
 215.91 387.414 207.516 385.109 199.153 c 383.863 194.594 386.543 189.903
 391.086 188.656 c 395.656 187.477 400.336 190.09 401.578 194.629 c 404.277
 204.477 405.641 214.395 405.641 224.086 c 405.641 253.883 394.035 281.891
 372.977 302.949 c h
372.977 302.949 m f
Q Q
showpage
%%Trailer
end restore
%%EOF
