%!PS-Adobe-3.0 EPSF-3.0
%%Creator: cairo 1.14.2 (http://cairographics.org)
%%CreationDate: Tue Nov 21 08:22:16 2017
%%Pages: 1
%%DocumentData: Clean7Bit
%%LanguageLevel: 2
%%BoundingBox: 59 -1 350 410
%%EndComments
%%BeginProlog
save
50 dict begin
/q { gsave } bind def
/Q { grestore } bind def
/cm { 6 array astore concat } bind def
/w { setlinewidth } bind def
/J { setlinecap } bind def
/j { setlinejoin } bind def
/M { setmiterlimit } bind def
/d { setdash } bind def
/m { moveto } bind def
/l { lineto } bind def
/c { curveto } bind def
/h { closepath } bind def
/re { exch dup neg 3 1 roll 5 3 roll moveto 0 rlineto
      0 exch rlineto 0 rlineto closepath } bind def
/S { stroke } bind def
/f { fill } bind def
/f* { eofill } bind def
/n { newpath } bind def
/W { clip } bind def
/W* { eoclip } bind def
/BT { } bind def
/ET { } bind def
/pdfmark where { pop globaldict /?pdfmark /exec load put }
    { globaldict begin /?pdfmark /pop load def /pdfmark
    /cleartomark load def end } ifelse
/BDC { mark 3 1 roll /BDC pdfmark } bind def
/EMC { mark /EMC pdfmark } bind def
/cairo_store_point { /cairo_point_y exch def /cairo_point_x exch def } def
/Tj { show currentpoint cairo_store_point } bind def
/TJ {
  {
    dup
    type /stringtype eq
    { show } { -0.001 mul 0 cairo_font_matrix dtransform rmoveto } ifelse
  } forall
  currentpoint cairo_store_point
} bind def
/cairo_selectfont { cairo_font_matrix aload pop pop pop 0 0 6 array astore
    cairo_font exch selectfont cairo_point_x cairo_point_y moveto } bind def
/Tf { pop /cairo_font exch def /cairo_font_matrix where
      { pop cairo_selectfont } if } bind def
/Td { matrix translate cairo_font_matrix matrix concatmatrix dup
      /cairo_font_matrix exch def dup 4 get exch 5 get cairo_store_point
      /cairo_font where { pop cairo_selectfont } if } bind def
/Tm { 2 copy 8 2 roll 6 array astore /cairo_font_matrix exch def
      cairo_store_point /cairo_font where { pop cairo_selectfont } if } bind def
/g { setgray } bind def
/rg { setrgbcolor } bind def
/d1 { setcachedevice } bind def
%%EndProlog
%%BeginSetup
%%EndSetup
%%Page: 1 1
%%BeginPageSetup
%%PageBoundingBox: 59 -1 350 410
%%EndPageSetup
q 59 -1 291 411 rectclip q
0 g
204.801 409.6 m 200.09 409.6 196.266 405.776 196.266 401.065 c 196.266 
366.932 l 196.266 362.225 200.09 358.401 204.801 358.401 c 209.512 358.401
 213.332 362.225 213.332 366.932 c 213.332 401.065 l 213.332 405.776 209.512
 409.6 204.801 409.6 c h
204.801 409.6 m f
341.332 273.065 m 307.199 273.065 l 302.488 273.065 298.668 269.245 298.668
 264.534 c 298.668 259.823 302.488 255.998 307.199 255.998 c 341.332 255.998
 l 346.043 255.998 349.867 259.823 349.867 264.534 c 349.867 269.245 346.043
 273.065 341.332 273.065 c h
341.332 273.065 m f
102.398 273.065 m 68.266 273.065 l 63.555 273.065 59.734 269.245 59.734
 264.534 c 59.734 259.823 63.555 255.998 68.266 255.998 c 102.398 255.998
 l 107.109 255.998 110.934 259.823 110.934 264.534 c 110.934 269.245 107.109
 273.065 102.398 273.065 c h
102.398 273.065 m f
307.371 367.104 m 304.043 370.432 298.633 370.432 295.305 367.104 c 271.172
 342.971 l 267.844 339.643 267.844 334.233 271.172 330.905 c 272.844 329.252
 275.027 328.413 277.215 328.413 c 279.398 328.413 281.582 329.248 283.238
 330.905 c 307.371 355.038 l 310.699 358.366 310.699 363.776 307.371 367.104
 c h
307.371 367.104 m f
138.43 342.971 m 114.297 367.104 l 110.969 370.432 105.559 370.432 102.23
 367.104 c 98.902 363.776 98.902 358.366 102.23 355.038 c 126.344 330.905
 l 128.016 329.252 130.199 328.413 132.387 328.413 c 134.57 328.413 136.754
 329.248 138.426 330.905 c 141.758 334.233 141.758 339.643 138.43 342.971
 c h
138.43 342.971 m f
296.996 161.518 m 284.707 177.92 261.699 181.862 244.617 170.495 c 230.398
 161.026 l 230.398 264.534 l 230.398 278.647 218.914 290.135 204.801 290.135
 c 190.688 290.135 179.199 278.647 179.199 264.534 c 179.199 237.483 l 176.539
 238.42 173.652 238.932 170.668 238.932 c 158.891 238.932 148.922 230.928
 145.973 220.077 c 143.035 221.217 139.863 221.866 136.535 221.866 c 124.758
 221.866 114.789 213.862 111.84 203.01 c 108.902 204.151 105.727 204.799
 102.398 204.799 c 88.285 204.799 76.801 193.315 76.801 179.202 c 76.801
 110.932 l 76.801 68.592 111.258 34.135 153.602 34.135 c 182.273 34.135 
l 198.98 34.135 215.023 41.198 226.32 53.487 c 295.391 128.854 l 303.703
 137.948 304.383 151.67 296.996 161.518 c h
282.793 140.409 m 213.727 65.041 l 205.672 56.233 194.203 51.202 182.273
 51.202 c 153.602 51.202 l 120.66 51.202 93.867 77.995 93.867 110.932 c 
93.867 179.202 l 93.867 183.909 97.691 187.733 102.398 187.733 c 107.109
 187.733 110.934 183.909 110.934 179.202 c 110.934 170.666 l 110.934 165.955
 114.758 162.131 119.469 162.131 c 124.176 162.131 128 165.955 128 170.666
 c 128 196.268 l 128 200.975 131.824 204.799 136.535 204.799 c 141.242 204.799
 145.066 200.975 145.066 196.268 c 145.066 170.666 l 145.066 165.955 148.891
 162.131 153.602 162.131 c 158.312 162.131 162.133 165.955 162.133 170.666
 c 162.133 213.334 l 162.133 218.041 165.957 221.866 170.668 221.866 c 175.379
 221.866 179.199 218.045 179.199 213.334 c 179.199 170.666 l 179.199 165.955
 183.023 162.135 187.734 162.135 c 192.445 162.135 196.266 165.955 196.266
 170.666 c 196.266 264.534 l 196.266 269.245 200.09 273.069 204.801 273.069
 c 209.512 273.069 213.336 269.245 213.336 264.534 c 213.336 145.069 l 213.336
 141.909 215.094 139.041 217.855 137.557 c 220.621 136.073 224 136.245 226.613
 137.983 c 254.09 156.315 l 263.629 162.647 276.465 160.459 283.34 151.295
 c 285.797 148.018 285.578 143.428 282.793 140.409 c h
282.793 140.409 m f
221.867 51.202 m 102.398 51.202 l 97.691 51.202 93.867 47.377 93.867 42.666
 c 93.867 8.534 l 93.867 3.823 97.691 -0.002 102.398 -0.002 c 107.109 -0.002
 110.934 3.823 110.934 8.534 c 110.934 34.131 l 213.332 34.131 l 213.332
 8.534 l 213.332 3.823 217.156 -0.002 221.867 -0.002 c 226.578 -0.002 230.398
 3.823 230.398 8.534 c 230.398 42.666 l 230.398 47.377 226.578 51.202 221.867
 51.202 c h
221.867 51.202 m f
204.801 324.268 m 171.863 324.268 145.066 297.471 145.066 264.534 c 145.066
 259.823 148.891 255.998 153.602 255.998 c 158.309 255.998 162.133 259.823
 162.133 264.534 c 162.133 288.053 181.281 307.202 204.801 307.202 c 228.316
 307.202 247.465 288.053 247.465 264.534 c 247.465 259.823 251.289 255.998
 256 255.998 c 260.711 255.998 264.535 259.823 264.535 264.534 c 264.535
 297.471 237.738 324.268 204.801 324.268 c h
204.801 324.268 m f
Q Q
showpage
%%Trailer
end restore
%%EOF
