%!PS-Adobe-3.0 EPSF-3.0
%%Creator: cairo 1.14.2 (http://cairographics.org)
%%CreationDate: Tue Nov 21 08:22:16 2017
%%Pages: 1
%%DocumentData: Clean7Bit
%%LanguageLevel: 2
%%BoundingBox: 0 -1 410 410
%%EndComments
%%BeginProlog
save
50 dict begin
/q { gsave } bind def
/Q { grestore } bind def
/cm { 6 array astore concat } bind def
/w { setlinewidth } bind def
/J { setlinecap } bind def
/j { setlinejoin } bind def
/M { setmiterlimit } bind def
/d { setdash } bind def
/m { moveto } bind def
/l { lineto } bind def
/c { curveto } bind def
/h { closepath } bind def
/re { exch dup neg 3 1 roll 5 3 roll moveto 0 rlineto
      0 exch rlineto 0 rlineto closepath } bind def
/S { stroke } bind def
/f { fill } bind def
/f* { eofill } bind def
/n { newpath } bind def
/W { clip } bind def
/W* { eoclip } bind def
/BT { } bind def
/ET { } bind def
/pdfmark where { pop globaldict /?pdfmark /exec load put }
    { globaldict begin /?pdfmark /pop load def /pdfmark
    /cleartomark load def end } ifelse
/BDC { mark 3 1 roll /BDC pdfmark } bind def
/EMC { mark /EMC pdfmark } bind def
/cairo_store_point { /cairo_point_y exch def /cairo_point_x exch def } def
/Tj { show currentpoint cairo_store_point } bind def
/TJ {
  {
    dup
    type /stringtype eq
    { show } { -0.001 mul 0 cairo_font_matrix dtransform rmoveto } ifelse
  } forall
  currentpoint cairo_store_point
} bind def
/cairo_selectfont { cairo_font_matrix aload pop pop pop 0 0 6 array astore
    cairo_font exch selectfont cairo_point_x cairo_point_y moveto } bind def
/Tf { pop /cairo_font exch def /cairo_font_matrix where
      { pop cairo_selectfont } if } bind def
/Td { matrix translate cairo_font_matrix matrix concatmatrix dup
      /cairo_font_matrix exch def dup 4 get exch 5 get cairo_store_point
      /cairo_font where { pop cairo_selectfont } if } bind def
/Tm { 2 copy 8 2 roll 6 array astore /cairo_font_matrix exch def
      cairo_store_point /cairo_font where { pop cairo_selectfont } if } bind def
/g { setgray } bind def
/rg { setrgbcolor } bind def
/d1 { setcachedevice } bind def
%%EndProlog
%%BeginSetup
%%EndSetup
%%Page: 1 1
%%BeginPageSetup
%%PageBoundingBox: 0 -1 410 410
%%EndPageSetup
q 0 -1 410 411 rectclip q
0 g
382.344 158.807 m 355.891 185.26 l 345.516 195.635 328.602 195.635 318.227
 185.26 c 315.117 182.135 312.934 178.432 311.688 174.506 c 302.352 177.748
 291.551 175.651 284.09 168.194 c 280.184 164.284 277.758 159.455 276.785
 154.405 c 268.629 155.565 260.145 152.78 254.223 146.862 c 251.836 144.487
 250.008 141.756 248.711 138.838 c 233.418 154.131 l 223.348 164.182 205.805
 164.182 195.754 154.131 c 190.719 149.096 187.938 142.405 187.938 135.288
 c 187.938 128.17 190.719 121.483 195.754 116.448 c 261 51.202 l 247.469
 51.202 l 223.949 51.202 204.801 32.053 204.801 8.534 c 204.801 3.823 208.625
 -0.002 213.332 -0.002 c 316.586 -0.002 l 367.871 -0.002 409.602 41.729 
409.602 93.014 c 409.602 117.846 399.922 141.209 382.344 158.807 c h
316.586 17.065 m 223.316 17.065 l 226.852 26.998 236.34 34.131 247.469 
34.131 c 281.602 34.131 l 285.047 34.131 288.172 36.213 289.484 39.405 c
 290.816 42.596 290.082 46.268 287.641 48.709 c 207.836 128.51 l 206.027
 130.303 205.023 132.729 205.023 135.272 c 205.023 137.815 206.027 140.221
 207.836 142.03 c 211.457 145.631 217.77 145.631 221.371 142.03 c 275.574
 87.827 l 278.902 84.498 284.312 84.498 287.641 87.827 c 289.297 89.498 
290.133 91.682 290.133 93.866 c 290.133 96.053 289.297 98.237 287.641 99.909
 c 266.309 121.241 l 264.5 123.034 263.508 125.455 263.508 127.998 c 263.508
 130.541 264.5 132.948 266.309 134.76 c 269.926 138.377 276.223 138.377 
279.84 134.76 c 292.641 121.959 l 295.969 118.631 301.379 118.631 304.707
 121.959 c 306.363 123.631 307.199 125.815 307.199 127.998 c 307.199 130.186
 306.363 132.37 304.707 134.041 c 296.176 142.577 l 294.367 144.366 293.375
 146.791 293.375 149.334 c 293.375 151.877 294.363 154.284 296.176 156.092
 c 299.91 159.83 305.969 159.83 309.707 156.092 c 318.242 147.557 l 321.57
 144.229 326.98 144.229 330.309 147.557 c 331.965 149.233 332.801 151.416
 332.801 153.6 c 332.801 155.784 331.965 157.967 330.309 159.623 c 326.57
 163.362 326.57 169.42 330.309 173.159 c 334.047 176.897 340.105 176.897
 343.84 173.159 c 370.297 146.705 l 384.633 132.37 392.531 113.288 392.531
 93.014 c 392.535 51.131 358.469 17.065 316.586 17.065 c h
316.586 17.065 m f
247.465 409.6 m 42.668 409.6 l 19.148 409.6 0 390.452 0 366.932 c 0 42.666
 l 0 19.147 19.148 -0.002 42.668 -0.002 c 179.199 -0.002 l 183.91 -0.002
 187.734 3.823 187.734 8.534 c 187.734 13.245 183.91 17.069 179.199 17.069
 c 42.668 17.069 l 28.551 17.069 17.066 28.553 17.066 42.666 c 17.066 366.932
 l 17.066 381.049 28.551 392.534 42.668 392.534 c 247.465 392.534 l 261.582
 392.534 273.066 381.049 273.066 366.932 c 273.066 196.268 l 273.066 191.557
 276.891 187.733 281.602 187.733 c 286.309 187.733 290.133 191.557 290.133
 196.268 c 290.133 366.932 l 290.133 390.452 270.984 409.6 247.465 409.6
 c h
247.465 409.6 m f
196.266 85.334 m 8.535 85.334 l 3.824 85.334 0 81.51 0 76.799 c 0 72.088
 3.824 68.268 8.535 68.268 c 196.266 68.268 l 200.977 68.268 204.801 72.088
 204.801 76.799 c 204.801 81.51 200.977 85.334 196.266 85.334 c h
196.266 85.334 m f
162.133 51.202 m 128 51.202 l 123.289 51.202 119.465 47.377 119.465 42.666
 c 119.465 37.955 123.289 34.131 128 34.131 c 162.133 34.131 l 166.844 34.131
 170.668 37.955 170.668 42.666 c 170.668 47.377 166.844 51.202 162.133 51.202
 c h
162.133 51.202 m f
51.199 366.932 m 51.199 362.221 47.379 358.401 42.668 358.401 c 37.953 
358.401 34.133 362.221 34.133 366.932 c 34.133 371.647 37.953 375.467 42.668
 375.467 c 47.379 375.467 51.199 371.647 51.199 366.932 c h
51.199 366.932 m f
Q Q
showpage
%%Trailer
end restore
%%EOF
