%!PS-Adobe-3.0 EPSF-3.0
%%Creator: cairo 1.14.2 (http://cairographics.org)
%%CreationDate: Tue Nov 21 08:22:16 2017
%%Pages: 1
%%DocumentData: Clean7Bit
%%LanguageLevel: 2
%%BoundingBox: 56 -1 354 410
%%EndComments
%%BeginProlog
save
50 dict begin
/q { gsave } bind def
/Q { grestore } bind def
/cm { 6 array astore concat } bind def
/w { setlinewidth } bind def
/J { setlinecap } bind def
/j { setlinejoin } bind def
/M { setmiterlimit } bind def
/d { setdash } bind def
/m { moveto } bind def
/l { lineto } bind def
/c { curveto } bind def
/h { closepath } bind def
/re { exch dup neg 3 1 roll 5 3 roll moveto 0 rlineto
      0 exch rlineto 0 rlineto closepath } bind def
/S { stroke } bind def
/f { fill } bind def
/f* { eofill } bind def
/n { newpath } bind def
/W { clip } bind def
/W* { eoclip } bind def
/BT { } bind def
/ET { } bind def
/pdfmark where { pop globaldict /?pdfmark /exec load put }
    { globaldict begin /?pdfmark /pop load def /pdfmark
    /cleartomark load def end } ifelse
/BDC { mark 3 1 roll /BDC pdfmark } bind def
/EMC { mark /EMC pdfmark } bind def
/cairo_store_point { /cairo_point_y exch def /cairo_point_x exch def } def
/Tj { show currentpoint cairo_store_point } bind def
/TJ {
  {
    dup
    type /stringtype eq
    { show } { -0.001 mul 0 cairo_font_matrix dtransform rmoveto } ifelse
  } forall
  currentpoint cairo_store_point
} bind def
/cairo_selectfont { cairo_font_matrix aload pop pop pop 0 0 6 array astore
    cairo_font exch selectfont cairo_point_x cairo_point_y moveto } bind def
/Tf { pop /cairo_font exch def /cairo_font_matrix where
      { pop cairo_selectfont } if } bind def
/Td { matrix translate cairo_font_matrix matrix concatmatrix dup
      /cairo_font_matrix exch def dup 4 get exch 5 get cairo_store_point
      /cairo_font where { pop cairo_selectfont } if } bind def
/Tm { 2 copy 8 2 roll 6 array astore /cairo_font_matrix exch def
      cairo_store_point /cairo_font where { pop cairo_selectfont } if } bind def
/g { setgray } bind def
/rg { setrgbcolor } bind def
/d1 { setcachedevice } bind def
%%EndProlog
%%BeginSetup
%%EndSetup
%%Page: 1 1
%%BeginPageSetup
%%PageBoundingBox: 56 -1 354 410
%%EndPageSetup
q 56 -1 298 411 rectclip q
0 g
286.609 375.466 m 115.941 375.466 l 111.23 375.466 107.41 371.642 107.41
 366.931 c 107.41 362.224 111.23 358.4 115.941 358.4 c 286.609 358.4 l 291.336
 358.4 295.141 362.224 295.141 366.931 c 295.141 371.642 291.32 375.466 
286.609 375.466 c h
286.609 375.466 m f
128.008 366.935 m 156.117 395.025 l 159.445 398.353 159.445 403.763 156.117
 407.091 c 152.789 410.419 147.379 410.419 144.051 407.091 c 109.918 372.958
 l 106.59 369.63 106.59 364.22 109.918 360.892 c 144.051 326.759 l 145.723
 325.103 147.891 324.267 150.074 324.267 c 152.262 324.267 154.445 325.103
 156.102 326.775 c 159.43 330.103 159.43 335.513 156.102 338.841 c h
128.008 366.935 m f
343.746 304.693 m 332.09 316.349 313.746 317.337 300.98 307.591 c 299.496
 312.798 296.711 317.712 292.598 321.81 c 279.887 334.525 259.219 334.525
 246.504 321.81 c 130.312 205.618 l 119.492 274.533 l 116.832 293.154 100.652
 307.2 81.828 307.2 c 67.711 307.2 56.227 295.716 56.227 281.599 c 56.227
 120.677 l 56.227 95.607 65.988 72.04 83.723 54.306 c 110.566 27.462 l 128.266
 9.747 151.816 0.001 176.855 0.001 c 200.234 0.001 222.645 8.669 239.949
 24.388 c 310.469 88.56 l 323.164 101.275 323.164 121.958 310.367 134.759
 c 306.305 138.822 301.441 141.583 296.25 143.017 c 306.031 155.783 305.059
 174.2 293.297 185.958 c 289.32 189.935 284.559 192.665 279.527 194.15 c
 343.848 258.493 l 356.547 271.208 356.547 291.892 343.746 304.693 c h
331.801 270.591 m 229.402 168.193 l 227.746 166.521 226.91 164.333 226.91
 162.15 c 226.91 159.966 227.73 157.783 229.402 156.111 c 232.73 152.783
 238.141 152.783 241.469 156.111 c 259.27 173.911 l 265.328 179.95 275.176
 179.966 281.336 173.806 c 287.395 167.747 287.395 157.9 281.336 151.841
 c 263.535 134.04 l 263.535 134.025 263.5 134.009 263.484 133.99 c 260.207
 130.646 260.223 125.286 263.535 121.974 c 266.863 118.646 272.273 118.646
 275.602 121.974 c 276.336 122.708 l 282.207 128.579 292.344 128.665 298.402
 122.607 c 304.461 116.548 304.461 106.7 298.691 100.915 c 228.465 37.017
 l 214.316 24.165 195.984 17.064 176.855 17.064 c 156.375 17.064 137.105
 25.036 122.617 39.525 c 95.77 66.372 l 81.266 80.876 73.277 100.161 73.277
 120.677 c 73.277 281.599 l 73.277 286.31 77.102 290.134 81.809 290.134 
c 92.188 290.134 101.113 282.384 102.598 271.993 c 116.078 186.454 l 116.574
 183.279 118.809 180.669 121.867 179.661 c 124.902 178.673 128.266 179.49
 130.535 181.743 c 258.586 309.794 l 264.645 315.837 274.492 315.853 280.652
 309.693 c 286.711 303.634 286.711 293.786 280.652 287.728 c 195.27 202.341
 l 193.613 200.669 192.777 198.486 192.777 196.302 c 192.777 194.115 193.594
 191.931 195.27 190.259 c 198.598 186.931 204.008 186.931 207.336 190.259
 c 309.734 292.658 l 315.793 298.716 325.641 298.716 331.801 292.556 c 337.859
 286.497 337.859 276.65 331.801 270.591 c h
331.801 270.591 m f
Q Q
showpage
%%Trailer
end restore
%%EOF
