%!PS-Adobe-3.0 EPSF-3.0
%%Creator: cairo 1.14.2 (http://cairographics.org)
%%CreationDate: Tue Nov 21 08:22:16 2017
%%Pages: 1
%%DocumentData: Clean7Bit
%%LanguageLevel: 2
%%BoundingBox: 8 -1 402 410
%%EndComments
%%BeginProlog
save
50 dict begin
/q { gsave } bind def
/Q { grestore } bind def
/cm { 6 array astore concat } bind def
/w { setlinewidth } bind def
/J { setlinecap } bind def
/j { setlinejoin } bind def
/M { setmiterlimit } bind def
/d { setdash } bind def
/m { moveto } bind def
/l { lineto } bind def
/c { curveto } bind def
/h { closepath } bind def
/re { exch dup neg 3 1 roll 5 3 roll moveto 0 rlineto
      0 exch rlineto 0 rlineto closepath } bind def
/S { stroke } bind def
/f { fill } bind def
/f* { eofill } bind def
/n { newpath } bind def
/W { clip } bind def
/W* { eoclip } bind def
/BT { } bind def
/ET { } bind def
/pdfmark where { pop globaldict /?pdfmark /exec load put }
    { globaldict begin /?pdfmark /pop load def /pdfmark
    /cleartomark load def end } ifelse
/BDC { mark 3 1 roll /BDC pdfmark } bind def
/EMC { mark /EMC pdfmark } bind def
/cairo_store_point { /cairo_point_y exch def /cairo_point_x exch def } def
/Tj { show currentpoint cairo_store_point } bind def
/TJ {
  {
    dup
    type /stringtype eq
    { show } { -0.001 mul 0 cairo_font_matrix dtransform rmoveto } ifelse
  } forall
  currentpoint cairo_store_point
} bind def
/cairo_selectfont { cairo_font_matrix aload pop pop pop 0 0 6 array astore
    cairo_font exch selectfont cairo_point_x cairo_point_y moveto } bind def
/Tf { pop /cairo_font exch def /cairo_font_matrix where
      { pop cairo_selectfont } if } bind def
/Td { matrix translate cairo_font_matrix matrix concatmatrix dup
      /cairo_font_matrix exch def dup 4 get exch 5 get cairo_store_point
      /cairo_font where { pop cairo_selectfont } if } bind def
/Tm { 2 copy 8 2 roll 6 array astore /cairo_font_matrix exch def
      cairo_store_point /cairo_font where { pop cairo_selectfont } if } bind def
/g { setgray } bind def
/rg { setrgbcolor } bind def
/d1 { setcachedevice } bind def
%%EndProlog
%%BeginSetup
%%EndSetup
%%Page: 1 1
%%BeginPageSetup
%%PageBoundingBox: 8 -1 402 410
%%EndPageSetup
q 8 -1 394 411 rectclip q
0 g
29.125 366.935 m 57.219 395.025 l 60.547 398.353 60.547 403.763 57.219 
407.091 c 53.891 410.419 48.48 410.419 45.152 407.091 c 11.02 372.958 l 
7.691 369.63 7.691 364.22 11.02 360.892 c 45.152 326.759 l 46.824 325.103
 49.008 324.267 51.195 324.267 c 53.379 324.267 55.562 325.103 57.219 326.775
 c 60.547 330.103 60.547 335.513 57.219 338.841 c h
29.125 366.935 m f
398.57 372.958 m 364.434 407.091 l 361.105 410.419 355.695 410.419 352.367
 407.091 c 349.039 403.763 349.039 398.353 352.367 395.025 c 380.461 366.931
 l 352.352 338.825 l 349.023 335.497 349.023 330.087 352.352 326.759 c 354.023
 325.103 356.207 324.267 358.395 324.267 c 360.578 324.267 362.762 325.103
 364.434 326.759 c 398.57 360.892 l 401.898 364.22 401.898 369.63 398.57
 372.958 c h
398.57 372.958 m f
392.527 375.466 m 290.129 375.466 l 285.418 375.466 281.594 371.642 281.594
 366.931 c 281.594 362.224 285.418 358.4 290.129 358.4 c 392.527 358.4 l
 397.238 358.4 401.062 362.224 401.062 366.931 c 401.062 371.642 397.238
 375.466 392.527 375.466 c h
392.527 375.466 m f
119.461 375.466 m 17.059 375.466 l 12.348 375.466 8.527 371.642 8.527 366.931
 c 8.527 362.224 12.348 358.4 17.059 358.4 c 119.461 358.4 l 124.172 358.4
 127.992 362.224 127.992 366.931 c 127.992 371.642 124.172 375.466 119.461
 375.466 c h
119.461 375.466 m f
332.793 221.865 m 325.777 221.865 319.242 219.732 313.816 216.099 c 309.141
 229.376 296.457 238.931 281.594 238.931 c 275.383 238.931 269.543 237.259
 264.527 234.341 c 264.527 324.267 l 264.527 343.091 249.219 358.4 230.395
 358.4 c 215.527 358.4 202.848 348.841 198.172 335.564 c 192.746 339.2 186.227
 341.333 179.195 341.333 c 160.367 341.333 145.059 326.025 145.059 307.2
 c 145.059 162.134 l 115.398 184.372 l 97.801 197.564 72.781 195.806 57.219
 180.24 c 47.234 170.255 47.234 154.025 57.219 144.044 c 178.766 22.493 
l 193.273 7.986 212.559 0.001 233.074 0.001 c 273.062 0.001 l 324.824 0.001
 366.926 42.103 366.926 93.865 c 366.926 187.732 l 366.926 206.556 351.617
 221.865 332.793 221.865 c h
349.859 93.865 m 349.859 51.525 315.402 17.068 273.059 17.068 c 233.074
 17.068 l 217.113 17.068 202.113 23.279 190.848 34.56 c 69.301 156.111 l
 65.973 159.435 65.973 164.849 69.301 168.177 c 74.594 173.466 81.641 176.161
 88.742 176.161 c 94.508 176.161 100.297 174.368 105.176 170.72 c 148.473
 138.24 l 151.051 136.294 154.531 135.99 157.418 137.439 c 160.301 138.888
 162.129 141.841 162.129 145.068 c 162.129 307.2 l 162.129 316.603 169.793
 324.267 179.195 324.267 c 188.598 324.267 196.262 316.603 196.262 307.2
 c 196.262 179.2 l 196.262 174.49 200.086 170.665 204.793 170.665 c 209.504
 170.665 213.328 174.49 213.328 179.2 c 213.328 324.267 l 213.328 333.669
 220.992 341.333 230.395 341.333 c 239.797 341.333 247.461 333.669 247.461
 324.267 c 247.461 179.2 l 247.461 174.49 251.285 170.665 255.996 170.665
 c 260.703 170.665 264.527 174.49 264.527 179.2 c 264.527 204.798 l 264.527
 214.204 272.191 221.865 281.594 221.865 c 290.996 221.865 298.66 214.204
 298.66 204.798 c 298.66 179.2 l 298.66 174.49 302.484 170.665 307.195 170.665
 c 311.906 170.665 315.727 174.49 315.727 179.2 c 315.727 187.732 l 315.727
 197.138 323.391 204.798 332.793 204.798 c 342.199 204.798 349.859 197.138
 349.859 187.732 c h
349.859 93.865 m f
Q Q
showpage
%%Trailer
end restore
%%EOF
