%!PS-Adobe-3.0 EPSF-3.0
%%Creator: cairo 1.14.2 (http://cairographics.org)
%%CreationDate: Tue Nov 21 08:22:16 2017
%%Pages: 1
%%DocumentData: Clean7Bit
%%LanguageLevel: 2
%%BoundingBox: 0 -1 410 410
%%EndComments
%%BeginProlog
save
50 dict begin
/q { gsave } bind def
/Q { grestore } bind def
/cm { 6 array astore concat } bind def
/w { setlinewidth } bind def
/J { setlinecap } bind def
/j { setlinejoin } bind def
/M { setmiterlimit } bind def
/d { setdash } bind def
/m { moveto } bind def
/l { lineto } bind def
/c { curveto } bind def
/h { closepath } bind def
/re { exch dup neg 3 1 roll 5 3 roll moveto 0 rlineto
      0 exch rlineto 0 rlineto closepath } bind def
/S { stroke } bind def
/f { fill } bind def
/f* { eofill } bind def
/n { newpath } bind def
/W { clip } bind def
/W* { eoclip } bind def
/BT { } bind def
/ET { } bind def
/pdfmark where { pop globaldict /?pdfmark /exec load put }
    { globaldict begin /?pdfmark /pop load def /pdfmark
    /cleartomark load def end } ifelse
/BDC { mark 3 1 roll /BDC pdfmark } bind def
/EMC { mark /EMC pdfmark } bind def
/cairo_store_point { /cairo_point_y exch def /cairo_point_x exch def } def
/Tj { show currentpoint cairo_store_point } bind def
/TJ {
  {
    dup
    type /stringtype eq
    { show } { -0.001 mul 0 cairo_font_matrix dtransform rmoveto } ifelse
  } forall
  currentpoint cairo_store_point
} bind def
/cairo_selectfont { cairo_font_matrix aload pop pop pop 0 0 6 array astore
    cairo_font exch selectfont cairo_point_x cairo_point_y moveto } bind def
/Tf { pop /cairo_font exch def /cairo_font_matrix where
      { pop cairo_selectfont } if } bind def
/Td { matrix translate cairo_font_matrix matrix concatmatrix dup
      /cairo_font_matrix exch def dup 4 get exch 5 get cairo_store_point
      /cairo_font where { pop cairo_selectfont } if } bind def
/Tm { 2 copy 8 2 roll 6 array astore /cairo_font_matrix exch def
      cairo_store_point /cairo_font where { pop cairo_selectfont } if } bind def
/g { setgray } bind def
/rg { setrgbcolor } bind def
/d1 { setcachedevice } bind def
%%EndProlog
%%BeginSetup
%%EndSetup
%%Page: 1 1
%%BeginPageSetup
%%PageBoundingBox: 0 -1 410 410
%%EndPageSetup
q 0 -1 410 411 rectclip q
0 g
316.492 409.498 m 222.473 409.498 l 212.676 409.498 204.691 401.529 204.691
 391.716 c 204.691 373.283 219.691 358.298 238.125 358.298 c 260.891 358.298
 l 195.66 293.052 l 185.285 282.673 185.285 265.779 195.66 255.384 c 205.73
 245.318 223.258 245.318 233.328 255.384 c 248.621 270.677 l 249.898 267.759
 251.727 265.044 254.113 262.658 c 260.258 256.544 268.707 254.037 276.66
 255.146 c 277.633 250.076 280.074 245.232 283.98 241.322 c 291.441 233.88
 302.242 231.798 311.578 235.009 c 312.809 231.084 314.992 227.38 318.113
 224.255 c 323.32 219.068 330.148 216.474 336.957 216.474 c 343.785 216.474
 350.594 219.068 355.781 224.255 c 382.254 250.709 l 399.832 268.287 409.492
 291.634 409.492 316.486 c 409.488 367.771 367.777 409.498 316.492 409.498
 c h
370.203 262.775 m 343.73 236.322 l 339.992 232.599 333.934 232.599 330.199
 236.322 c 326.461 240.06 326.461 246.119 330.199 249.857 c 331.852 251.529
 332.691 253.712 332.691 255.896 c 332.691 258.084 331.855 260.267 330.215
 261.904 c 326.887 265.232 321.477 265.232 318.148 261.904 c 309.613 253.369
 l 305.879 249.65 299.82 249.65 296.082 253.369 c 294.289 255.162 293.281
 257.587 293.281 260.13 c 293.281 262.673 294.289 265.08 296.082 266.888
 c 304.613 275.419 l 306.27 277.095 307.105 279.279 307.105 281.462 c 307.105
 283.646 306.289 285.83 304.613 287.505 c 301.289 290.834 295.875 290.834
 292.547 287.505 c 279.75 274.705 l 276.012 270.982 269.953 270.982 266.215
 274.705 c 264.422 276.498 263.414 278.904 263.414 281.462 c 263.414 283.919
 264.32 286.24 265.992 288.017 c 287.547 309.572 l 290.875 312.9 290.875
 318.31 287.547 321.638 c 284.219 324.966 278.809 324.966 275.48 321.638
 c 254.148 300.302 l 253.789 299.947 l 221.277 267.416 l 217.676 263.798
 211.344 263.798 207.742 267.416 c 204.008 271.154 204.008 277.212 207.742
 280.951 c 287.547 360.771 l 289.973 363.212 290.707 366.88 289.391 370.072
 c 288.078 373.263 284.953 375.345 281.508 375.345 c 238.141 375.345 l 229.129
 375.345 221.773 382.685 221.773 391.697 c 221.773 392.087 222.113 392.412
 222.488 392.412 c 316.508 392.412 l 358.375 392.412 392.438 358.349 392.438
 316.466 c 392.438 296.193 384.539 277.111 370.203 262.775 c h
370.203 262.775 m f
185.25 91.408 m 182.129 94.517 178.426 96.701 174.5 97.947 c 177.742 107.298
 175.641 118.084 168.184 125.541 c 164.277 129.451 159.445 131.873 154.395
 132.845 c 154.566 134.076 154.652 135.306 154.652 136.568 c 154.652 143.685
 151.887 150.392 146.852 155.408 c 144.461 157.798 141.746 159.626 138.828
 160.923 c 154.121 176.212 l 164.5 186.607 164.5 203.505 154.121 213.88 
c 144.051 223.951 126.523 223.951 116.457 213.88 c 51.207 148.634 l 51.207
 171.4 l 51.207 189.834 36.223 204.818 17.793 204.818 c 7.996 204.818 0.008
 196.83 0.008 187.033 c 0.008 93.013 l 0.008 41.728 41.738 0.001 93.023 
0.001 c 117.855 0.001 141.203 9.677 158.797 27.291 c 185.25 53.744 l 195.625
 64.119 195.625 81.033 185.25 91.408 c h
173.148 65.74 m 146.695 39.287 l 132.359 24.951 113.277 17.048 93.004 17.048
 c 51.121 17.048 17.059 51.115 17.059 92.998 c 17.059 187.017 l 17.773 187.732
 l 26.801 187.732 34.125 180.396 34.125 171.4 c 34.125 128.017 l 34.125 
124.572 36.207 121.447 39.398 120.134 c 42.57 118.787 46.242 119.537 48.699
 121.974 c 128.52 201.779 l 132.156 205.4 138.418 205.4 142.055 201.779 
c 145.793 198.041 145.793 191.986 142.055 188.248 c 109.422 155.615 l 109.336
 155.548 109.254 155.462 109.168 155.376 c 87.832 134.041 l 84.504 130.712
 84.504 125.302 87.832 121.974 c 91.16 118.65 96.57 118.65 99.898 121.974
 c 121.387 143.462 l 125.039 146.912 131.199 146.876 134.766 143.31 c 136.559
 141.501 137.547 139.076 137.547 136.533 c 137.547 133.99 136.539 131.584
 134.75 129.775 c 121.949 116.974 l 120.293 115.302 119.457 113.119 119.457
 110.935 c 119.457 108.751 120.277 106.564 121.949 104.892 c 125.277 101.564
 130.688 101.564 134.016 104.892 c 142.547 113.427 l 146.148 117.044 152.48
 117.044 156.082 113.427 c 159.82 109.689 159.82 103.63 156.082 99.892 c
 147.547 91.361 l 145.895 89.685 145.059 87.501 145.059 85.318 c 145.059
 83.134 145.875 80.951 147.547 79.275 c 150.875 75.947 156.289 75.947 159.613
 79.275 c 163.352 83.013 169.41 83.013 173.148 79.275 c 176.887 75.537 176.887
 69.478 173.148 65.74 c h
173.148 65.74 m f
119.578 324.166 m 100.754 324.166 85.445 308.857 85.445 290.029 c 85.445
 271.205 100.754 255.896 119.578 255.896 c 138.402 255.896 153.711 271.205
 153.711 290.033 c 153.711 308.857 138.402 324.166 119.578 324.166 c h
119.578 272.962 m 110.156 272.962 102.512 280.626 102.512 290.029 c 102.512
 299.435 110.156 307.095 119.578 307.095 c 129 307.095 136.645 299.435 136.645
 290.029 c 136.645 280.626 129 272.962 119.578 272.962 c h
119.578 272.962 m f
93.977 238.83 m 68.379 238.83 l 68.379 264.431 l 68.379 269.142 64.555 
272.966 59.844 272.966 c 55.133 272.966 51.309 269.142 51.309 264.431 c 
51.309 230.298 l 51.309 225.587 55.133 221.763 59.844 221.763 c 93.977 221.763
 l 98.703 221.763 102.512 225.587 102.512 230.298 c 102.512 235.009 98.688
 238.83 93.977 238.83 c h
93.977 238.83 m f
179.312 358.298 m 145.176 358.298 l 140.469 358.298 136.645 354.474 136.645
 349.763 c 136.645 345.052 140.469 341.232 145.176 341.232 c 170.777 341.232
 l 170.777 315.63 l 170.777 310.919 174.602 307.095 179.312 307.095 c 184.039
 307.095 187.844 310.904 187.844 315.63 c 187.844 349.763 l 187.844 354.474
 184.023 358.298 179.312 358.298 c h
179.312 358.298 m f
107.512 277.966 m 104.184 281.294 98.773 281.294 95.445 277.966 c 53.801
 236.322 l 50.473 232.994 50.473 227.584 53.801 224.255 c 55.477 222.599
 57.66 221.763 59.844 221.763 c 62.027 221.763 64.211 222.599 65.867 224.255
 c 107.512 265.9 l 110.84 269.228 110.84 274.638 107.512 277.966 c h
107.512 277.966 m f
185.336 355.791 m 182.008 359.119 176.598 359.119 173.27 355.791 c 131.625
 314.146 l 128.297 310.818 128.297 305.408 131.625 302.08 c 133.301 300.423
 135.484 299.587 137.668 299.587 c 139.852 299.587 142.035 300.423 143.691
 302.08 c 185.336 343.724 l 188.664 347.052 188.664 352.462 185.336 355.791
 c h
185.336 355.791 m f
Q Q
showpage
%%Trailer
end restore
%%EOF
