%!PS-Adobe-3.0 EPSF-3.0
%%Creator: cairo 1.14.2 (http://cairographics.org)
%%CreationDate: Tue Nov 21 08:22:16 2017
%%Pages: 1
%%DocumentData: Clean7Bit
%%LanguageLevel: 2
%%BoundingBox: 17 -1 376 393
%%EndComments
%%BeginProlog
save
50 dict begin
/q { gsave } bind def
/Q { grestore } bind def
/cm { 6 array astore concat } bind def
/w { setlinewidth } bind def
/J { setlinecap } bind def
/j { setlinejoin } bind def
/M { setmiterlimit } bind def
/d { setdash } bind def
/m { moveto } bind def
/l { lineto } bind def
/c { curveto } bind def
/h { closepath } bind def
/re { exch dup neg 3 1 roll 5 3 roll moveto 0 rlineto
      0 exch rlineto 0 rlineto closepath } bind def
/S { stroke } bind def
/f { fill } bind def
/f* { eofill } bind def
/n { newpath } bind def
/W { clip } bind def
/W* { eoclip } bind def
/BT { } bind def
/ET { } bind def
/pdfmark where { pop globaldict /?pdfmark /exec load put }
    { globaldict begin /?pdfmark /pop load def /pdfmark
    /cleartomark load def end } ifelse
/BDC { mark 3 1 roll /BDC pdfmark } bind def
/EMC { mark /EMC pdfmark } bind def
/cairo_store_point { /cairo_point_y exch def /cairo_point_x exch def } def
/Tj { show currentpoint cairo_store_point } bind def
/TJ {
  {
    dup
    type /stringtype eq
    { show } { -0.001 mul 0 cairo_font_matrix dtransform rmoveto } ifelse
  } forall
  currentpoint cairo_store_point
} bind def
/cairo_selectfont { cairo_font_matrix aload pop pop pop 0 0 6 array astore
    cairo_font exch selectfont cairo_point_x cairo_point_y moveto } bind def
/Tf { pop /cairo_font exch def /cairo_font_matrix where
      { pop cairo_selectfont } if } bind def
/Td { matrix translate cairo_font_matrix matrix concatmatrix dup
      /cairo_font_matrix exch def dup 4 get exch 5 get cairo_store_point
      /cairo_font where { pop cairo_selectfont } if } bind def
/Tm { 2 copy 8 2 roll 6 array astore /cairo_font_matrix exch def
      cairo_store_point /cairo_font where { pop cairo_selectfont } if } bind def
/g { setgray } bind def
/rg { setrgbcolor } bind def
/d1 { setcachedevice } bind def
%%EndProlog
%%BeginSetup
%%EndSetup
%%Page: 1 1
%%BeginPageSetup
%%PageBoundingBox: 17 -1 376 393
%%EndPageSetup
q 17 -1 359 394 rectclip q
0 g
349.863 358.4 m 247.461 358.4 l 242.754 358.4 238.93 354.576 238.93 349.865
 c 238.93 345.158 242.754 341.333 247.461 341.333 c 349.863 341.333 l 354.574
 341.333 358.395 345.158 358.395 349.865 c 358.395 354.576 354.574 358.4
 349.863 358.4 c h
349.863 358.4 m f
355.902 355.892 m 321.77 390.025 l 318.441 393.353 313.031 393.353 309.703
 390.025 c 306.375 386.697 306.375 381.286 309.703 377.958 c 337.797 349.865
 l 309.688 321.759 l 306.359 318.431 306.359 313.021 309.688 309.693 c 311.359
 308.036 313.543 307.201 315.73 307.201 c 317.914 307.201 320.098 308.036
 321.77 309.693 c 355.902 343.826 l 359.23 347.154 359.23 352.564 355.902
 355.892 c h
355.902 355.892 m f
127.996 358.4 m 25.598 358.4 l 20.887 358.4 17.062 354.576 17.062 349.865
 c 17.062 345.158 20.887 341.333 25.598 341.333 c 127.996 341.333 l 132.707
 341.333 136.531 345.158 136.531 349.865 c 136.531 354.576 132.707 358.4
 127.996 358.4 c h
127.996 358.4 m f
37.66 349.868 m 65.754 377.958 l 69.082 381.286 69.082 386.697 65.754 390.025
 c 62.426 393.353 57.016 393.353 53.688 390.025 c 19.555 355.892 l 16.227
 352.564 16.227 347.154 19.555 343.826 c 53.688 309.693 l 55.359 308.036
 57.543 307.201 59.73 307.201 c 61.914 307.201 64.098 308.036 65.754 309.708
 c 69.082 313.036 69.082 318.447 65.754 321.775 c h
37.66 349.868 m f
341.328 221.868 m 334.312 221.868 327.777 219.732 322.352 216.099 c 317.676
 229.376 304.992 238.935 290.129 238.935 c 283.113 238.935 276.578 236.798
 271.152 233.165 c 266.473 246.443 253.793 256.001 238.93 256.001 c 232.719
 256.001 226.879 254.326 221.863 251.408 c 221.863 307.201 l 221.863 326.025
 206.555 341.333 187.73 341.333 c 168.902 341.333 153.594 326.025 153.594
 307.201 c 153.594 162.134 l 123.934 184.372 l 106.355 197.564 81.336 195.806
 65.754 180.24 c 55.77 170.255 55.77 154.025 65.754 144.044 c 187.285 22.493
 l 201.793 7.986 221.094 0.001 241.609 0.001 c 281.598 0.001 l 333.344 0.001
 375.461 42.103 375.461 93.865 c 375.461 187.732 l 375.461 206.56 360.152
 221.868 341.328 221.868 c h
358.395 93.868 m 358.395 51.525 323.938 17.068 281.598 17.068 c 241.609
 17.068 l 225.633 17.068 210.633 23.279 199.352 34.56 c 77.82 156.111 l 
74.492 159.435 74.492 164.849 77.82 168.177 c 83.109 173.451 90.176 176.161
 97.277 176.161 c 103.043 176.161 108.848 174.368 113.711 170.72 c 157.008
 138.24 l 159.605 136.294 163.086 136.005 165.953 137.439 c 168.836 138.888
 170.664 141.841 170.664 145.068 c 170.664 307.201 l 170.664 316.603 178.309
 324.267 187.73 324.267 c 197.152 324.267 204.797 316.603 204.797 307.201
 c 204.797 179.201 l 204.797 174.49 208.621 170.665 213.328 170.665 c 218.039
 170.665 221.863 174.49 221.863 179.201 c 221.863 221.865 l 221.863 231.271
 229.508 238.931 238.93 238.931 c 248.352 238.931 255.996 231.271 255.996
 221.865 c 255.996 179.201 l 255.996 174.49 259.82 170.665 264.531 170.665
 c 269.238 170.665 273.062 174.49 273.062 179.201 c 273.062 204.798 l 273.062
 214.204 280.707 221.865 290.129 221.865 c 299.551 221.865 307.195 214.204
 307.195 204.798 c 307.195 179.201 l 307.195 174.49 311.02 170.665 315.73
 170.665 c 320.441 170.665 324.262 174.49 324.262 179.201 c 324.262 187.732
 l 324.262 197.138 331.91 204.798 341.328 204.798 c 350.75 204.798 358.395
 197.138 358.395 187.732 c h
358.395 93.868 m f
Q Q
showpage
%%Trailer
end restore
%%EOF
