%!PS-Adobe-3.0 EPSF-3.0
%%Creator: cairo 1.14.2 (http://cairographics.org)
%%CreationDate: Tue Nov 21 08:22:16 2017
%%Pages: 1
%%DocumentData: Clean7Bit
%%LanguageLevel: 2
%%BoundingBox: 34 -1 376 410
%%EndComments
%%BeginProlog
save
50 dict begin
/q { gsave } bind def
/Q { grestore } bind def
/cm { 6 array astore concat } bind def
/w { setlinewidth } bind def
/J { setlinecap } bind def
/j { setlinejoin } bind def
/M { setmiterlimit } bind def
/d { setdash } bind def
/m { moveto } bind def
/l { lineto } bind def
/c { curveto } bind def
/h { closepath } bind def
/re { exch dup neg 3 1 roll 5 3 roll moveto 0 rlineto
      0 exch rlineto 0 rlineto closepath } bind def
/S { stroke } bind def
/f { fill } bind def
/f* { eofill } bind def
/n { newpath } bind def
/W { clip } bind def
/W* { eoclip } bind def
/BT { } bind def
/ET { } bind def
/pdfmark where { pop globaldict /?pdfmark /exec load put }
    { globaldict begin /?pdfmark /pop load def /pdfmark
    /cleartomark load def end } ifelse
/BDC { mark 3 1 roll /BDC pdfmark } bind def
/EMC { mark /EMC pdfmark } bind def
/cairo_store_point { /cairo_point_y exch def /cairo_point_x exch def } def
/Tj { show currentpoint cairo_store_point } bind def
/TJ {
  {
    dup
    type /stringtype eq
    { show } { -0.001 mul 0 cairo_font_matrix dtransform rmoveto } ifelse
  } forall
  currentpoint cairo_store_point
} bind def
/cairo_selectfont { cairo_font_matrix aload pop pop pop 0 0 6 array astore
    cairo_font exch selectfont cairo_point_x cairo_point_y moveto } bind def
/Tf { pop /cairo_font exch def /cairo_font_matrix where
      { pop cairo_selectfont } if } bind def
/Td { matrix translate cairo_font_matrix matrix concatmatrix dup
      /cairo_font_matrix exch def dup 4 get exch 5 get cairo_store_point
      /cairo_font where { pop cairo_selectfont } if } bind def
/Tm { 2 copy 8 2 roll 6 array astore /cairo_font_matrix exch def
      cairo_store_point /cairo_font where { pop cairo_selectfont } if } bind def
/g { setgray } bind def
/rg { setrgbcolor } bind def
/d1 { setcachedevice } bind def
%%EndProlog
%%BeginSetup
%%EndSetup
%%Page: 1 1
%%BeginPageSetup
%%PageBoundingBox: 34 -1 376 410
%%EndPageSetup
q 34 -1 342 411 rectclip q
0 g
76.793 409.6 m 72.082 409.6 68.262 405.776 68.262 401.065 c 68.262 264.534
 l 68.262 259.823 72.082 255.998 76.793 255.998 c 81.504 255.998 85.328 
259.823 85.328 264.534 c 85.328 401.065 l 85.328 405.776 81.504 409.6 76.793
 409.6 c h
76.793 409.6 m f
116.969 372.959 m 82.836 407.092 l 79.508 410.42 74.098 410.42 70.77 407.092
 c 36.637 372.959 l 33.309 369.631 33.309 364.221 36.637 360.893 c 39.965
 357.565 45.375 357.565 48.703 360.893 c 76.793 388.998 l 104.887 360.893
 l 106.559 359.237 108.742 358.401 110.93 358.401 c 113.113 358.401 115.297
 359.237 116.969 360.893 c 120.297 364.221 120.297 369.631 116.969 372.959
 c h
116.969 372.959 m f
341.328 221.866 m 334.312 221.866 327.777 219.733 322.348 216.096 c 317.672
 229.373 304.992 238.932 290.129 238.932 c 283.914 238.932 278.078 237.26
 273.062 234.342 c 273.062 324.268 l 273.062 343.092 257.754 358.401 238.926
 358.401 c 224.062 358.401 211.383 348.842 206.707 335.565 c 201.277 339.202
 194.742 341.334 187.727 341.334 c 168.902 341.334 153.594 326.026 153.594
 307.202 c 153.594 162.135 l 123.934 184.37 l 106.355 197.565 81.332 195.807
 65.754 180.241 c 55.77 170.256 55.77 154.026 65.754 144.041 c 187.285 22.495
 l 201.789 7.987 221.094 -0.002 241.605 -0.002 c 281.594 -0.002 l 333.34
 -0.002 375.461 42.104 375.461 93.866 c 375.461 187.733 l 375.461 206.557
 360.152 221.866 341.328 221.866 c h
358.395 93.866 m 358.395 51.526 323.938 17.065 281.594 17.065 c 241.605
 17.065 l 225.648 17.065 210.648 23.28 199.348 34.561 c 77.816 156.108 l
 74.488 159.436 74.488 164.846 77.816 168.174 c 83.109 173.448 90.172 176.163
 97.273 176.163 c 103.043 176.163 108.844 174.37 113.707 170.717 c 157.008
 138.241 l 159.602 136.295 163.082 135.987 165.949 137.44 c 168.836 138.889
 170.66 141.842 170.66 145.069 c 170.66 307.202 l 170.66 316.604 178.305
 324.268 187.727 324.268 c 197.148 324.268 204.793 316.604 204.793 307.202
 c 204.793 179.202 l 204.793 174.491 208.617 170.666 213.328 170.666 c 218.039
 170.666 221.859 174.491 221.859 179.202 c 221.859 324.268 l 221.859 333.67
 229.508 341.334 238.926 341.334 c 248.348 341.334 255.992 333.67 255.992
 324.268 c 255.992 179.202 l 255.992 174.491 259.816 170.666 264.527 170.666
 c 269.238 170.666 273.062 174.491 273.062 179.202 c 273.062 204.799 l 273.062
 214.205 280.707 221.866 290.129 221.866 c 299.547 221.866 307.195 214.202
 307.195 204.799 c 307.195 179.202 l 307.195 174.491 311.016 170.666 315.727
 170.666 c 320.438 170.666 324.262 174.491 324.262 179.202 c 324.262 187.733
 l 324.262 197.139 331.906 204.799 341.328 204.799 c 350.746 204.799 358.395
 197.135 358.395 187.733 c h
358.395 93.866 m f
Q Q
showpage
%%Trailer
end restore
%%EOF
