%!PS-Adobe-3.0 EPSF-3.0
%%Creator: cairo 1.14.2 (http://cairographics.org)
%%CreationDate: Tue Nov 21 08:22:16 2017
%%Pages: 1
%%DocumentData: Clean7Bit
%%LanguageLevel: 2
%%BoundingBox: 34 -1 376 410
%%EndComments
%%BeginProlog
save
50 dict begin
/q { gsave } bind def
/Q { grestore } bind def
/cm { 6 array astore concat } bind def
/w { setlinewidth } bind def
/J { setlinecap } bind def
/j { setlinejoin } bind def
/M { setmiterlimit } bind def
/d { setdash } bind def
/m { moveto } bind def
/l { lineto } bind def
/c { curveto } bind def
/h { closepath } bind def
/re { exch dup neg 3 1 roll 5 3 roll moveto 0 rlineto
      0 exch rlineto 0 rlineto closepath } bind def
/S { stroke } bind def
/f { fill } bind def
/f* { eofill } bind def
/n { newpath } bind def
/W { clip } bind def
/W* { eoclip } bind def
/BT { } bind def
/ET { } bind def
/pdfmark where { pop globaldict /?pdfmark /exec load put }
    { globaldict begin /?pdfmark /pop load def /pdfmark
    /cleartomark load def end } ifelse
/BDC { mark 3 1 roll /BDC pdfmark } bind def
/EMC { mark /EMC pdfmark } bind def
/cairo_store_point { /cairo_point_y exch def /cairo_point_x exch def } def
/Tj { show currentpoint cairo_store_point } bind def
/TJ {
  {
    dup
    type /stringtype eq
    { show } { -0.001 mul 0 cairo_font_matrix dtransform rmoveto } ifelse
  } forall
  currentpoint cairo_store_point
} bind def
/cairo_selectfont { cairo_font_matrix aload pop pop pop 0 0 6 array astore
    cairo_font exch selectfont cairo_point_x cairo_point_y moveto } bind def
/Tf { pop /cairo_font exch def /cairo_font_matrix where
      { pop cairo_selectfont } if } bind def
/Td { matrix translate cairo_font_matrix matrix concatmatrix dup
      /cairo_font_matrix exch def dup 4 get exch 5 get cairo_store_point
      /cairo_font where { pop cairo_selectfont } if } bind def
/Tm { 2 copy 8 2 roll 6 array astore /cairo_font_matrix exch def
      cairo_store_point /cairo_font where { pop cairo_selectfont } if } bind def
/g { setgray } bind def
/rg { setrgbcolor } bind def
/d1 { setcachedevice } bind def
%%EndProlog
%%BeginSetup
%%EndSetup
%%Page: 1 1
%%BeginPageSetup
%%PageBoundingBox: 34 -1 376 410
%%EndPageSetup
q 34 -1 342 411 rectclip q
0 g
76.801 409.6 m 72.094 409.6 68.27 405.776 68.27 401.065 c 68.27 264.534
 l 68.27 259.823 72.094 255.998 76.801 255.998 c 81.512 255.998 85.336 259.823
 85.336 264.534 c 85.336 401.065 l 85.336 405.776 81.512 409.6 76.801 409.6
 c h
76.801 409.6 m f
116.961 304.69 m 113.633 308.018 108.223 308.018 104.895 304.69 c 76.801
 276.6 l 48.691 304.69 l 45.363 308.018 39.953 308.018 36.625 304.69 c 33.297
 301.362 33.297 295.952 36.625 292.623 c 70.762 258.491 l 72.434 256.834
 74.617 255.998 76.801 255.998 c 78.988 255.998 81.172 256.834 82.828 258.491
 c 116.961 292.623 l 120.289 295.952 120.289 301.362 116.961 304.69 c h
116.961 304.69 m f
341.336 221.866 m 334.32 221.866 327.785 219.733 322.355 216.096 c 317.68
 229.373 305 238.932 290.137 238.932 c 283.922 238.932 278.086 237.26 273.07
 234.342 c 273.07 324.268 l 273.07 343.092 257.762 358.401 238.934 358.401
 c 224.07 358.401 211.391 348.842 206.715 335.565 c 201.285 339.202 194.75
 341.334 187.734 341.334 c 168.91 341.334 153.602 326.026 153.602 307.202
 c 153.602 162.135 l 123.941 184.37 l 106.363 197.565 81.34 195.807 65.762
 180.241 c 55.777 170.256 55.777 154.026 65.762 144.041 c 187.293 22.495
 l 201.797 7.987 221.102 -0.002 241.613 -0.002 c 281.602 -0.002 l 333.348
 -0.002 375.469 42.104 375.469 93.866 c 375.469 187.733 l 375.469 206.557
 360.16 221.866 341.336 221.866 c h
358.402 93.866 m 358.402 51.526 323.945 17.065 281.602 17.065 c 241.613
 17.065 l 225.656 17.065 210.656 23.28 199.359 34.561 c 77.828 156.108 l
 74.5 159.436 74.5 164.846 77.828 168.174 c 83.117 173.448 90.184 176.163
 97.281 176.163 c 103.051 176.163 108.855 174.37 113.719 170.717 c 157.016
 138.241 l 159.609 136.295 163.094 135.987 165.961 137.44 c 168.844 138.889
 170.668 141.842 170.668 145.069 c 170.668 307.202 l 170.668 316.604 178.316
 324.268 187.734 324.268 c 197.156 324.268 204.801 316.604 204.801 307.202
 c 204.801 179.202 l 204.801 174.491 208.625 170.666 213.336 170.666 c 218.047
 170.666 221.871 174.491 221.871 179.202 c 221.871 324.268 l 221.871 333.67
 229.516 341.334 238.938 341.334 c 248.355 341.334 256.004 333.67 256.004
 324.268 c 256.004 179.202 l 256.004 174.491 259.824 170.666 264.535 170.666
 c 269.246 170.666 273.07 174.491 273.07 179.202 c 273.07 204.799 l 273.07
 214.205 280.715 221.866 290.137 221.866 c 299.559 221.866 307.203 214.202
 307.203 204.799 c 307.203 179.202 l 307.203 174.491 311.027 170.666 315.734
 170.666 c 320.445 170.666 324.27 174.491 324.27 179.202 c 324.27 187.733
 l 324.27 197.139 331.914 204.799 341.336 204.799 c 350.758 204.799 358.402
 197.135 358.402 187.733 c h
358.402 93.866 m f
Q Q
showpage
%%Trailer
end restore
%%EOF
