%!PS-Adobe-3.0 EPSF-3.0
%%Creator: cairo 1.14.2 (http://cairographics.org)
%%CreationDate: Tue Nov 21 08:22:16 2017
%%Pages: 1
%%DocumentData: Clean7Bit
%%LanguageLevel: 2
%%BoundingBox: 45 -1 364 409
%%EndComments
%%BeginProlog
save
50 dict begin
/q { gsave } bind def
/Q { grestore } bind def
/cm { 6 array astore concat } bind def
/w { setlinewidth } bind def
/J { setlinecap } bind def
/j { setlinejoin } bind def
/M { setmiterlimit } bind def
/d { setdash } bind def
/m { moveto } bind def
/l { lineto } bind def
/c { curveto } bind def
/h { closepath } bind def
/re { exch dup neg 3 1 roll 5 3 roll moveto 0 rlineto
      0 exch rlineto 0 rlineto closepath } bind def
/S { stroke } bind def
/f { fill } bind def
/f* { eofill } bind def
/n { newpath } bind def
/W { clip } bind def
/W* { eoclip } bind def
/BT { } bind def
/ET { } bind def
/pdfmark where { pop globaldict /?pdfmark /exec load put }
    { globaldict begin /?pdfmark /pop load def /pdfmark
    /cleartomark load def end } ifelse
/BDC { mark 3 1 roll /BDC pdfmark } bind def
/EMC { mark /EMC pdfmark } bind def
/cairo_store_point { /cairo_point_y exch def /cairo_point_x exch def } def
/Tj { show currentpoint cairo_store_point } bind def
/TJ {
  {
    dup
    type /stringtype eq
    { show } { -0.001 mul 0 cairo_font_matrix dtransform rmoveto } ifelse
  } forall
  currentpoint cairo_store_point
} bind def
/cairo_selectfont { cairo_font_matrix aload pop pop pop 0 0 6 array astore
    cairo_font exch selectfont cairo_point_x cairo_point_y moveto } bind def
/Tf { pop /cairo_font exch def /cairo_font_matrix where
      { pop cairo_selectfont } if } bind def
/Td { matrix translate cairo_font_matrix matrix concatmatrix dup
      /cairo_font_matrix exch def dup 4 get exch 5 get cairo_store_point
      /cairo_font where { pop cairo_selectfont } if } bind def
/Tm { 2 copy 8 2 roll 6 array astore /cairo_font_matrix exch def
      cairo_store_point /cairo_font where { pop cairo_selectfont } if } bind def
/g { setgray } bind def
/rg { setrgbcolor } bind def
/d1 { setcachedevice } bind def
%%EndProlog
%%BeginSetup
%%EndSetup
%%Page: 1 1
%%BeginPageSetup
%%PageBoundingBox: 45 -1 364 409
%%EndPageSetup
q 45 -1 319 410 rectclip q
0 g
55.879 366.935 m 55.879 350.705 75.848 337.631 112.098 330.174 c 116.652
 329.252 121.227 332.17 122.164 336.81 c 123.105 341.42 120.152 345.924 
115.527 346.881 c 83.355 353.486 72.945 363.232 72.945 366.916 c 72.945 
375.943 111.824 392.517 175.344 392.517 c 238.867 392.517 277.746 375.943
 277.746 366.916 c 277.746 363.232 267.336 353.502 235.164 346.881 c 230.539
 345.943 227.57 341.435 228.523 336.81 c 229.344 332.783 232.91 330.002 
236.852 330.002 c 237.434 330.002 237.996 330.068 238.594 330.174 c 274.844
 337.631 294.812 350.685 294.812 366.935 c 294.812 422.947 55.879 422.947
 55.879 366.935 c h
55.879 366.935 m f
122.098 340.498 m 115.371 368.896 l 114.262 373.486 109.691 376.353 105.098
 375.228 c 100.523 374.154 97.691 369.545 98.766 364.971 c 104.383 341.318
 l 84.105 321.896 l 80.711 318.635 80.59 313.244 83.852 309.83 c 85.523 
308.088 87.758 307.201 90.012 307.201 c 92.129 307.201 94.262 307.986 95.898
 309.572 c 119.691 332.373 l 121.875 334.455 122.797 337.56 122.098 340.498
 c h
122.098 340.498 m f
328.93 221.869 m 321.914 221.869 315.375 219.732 309.949 216.099 c 305.273
 229.377 292.594 238.935 277.727 238.935 c 270.715 238.935 264.176 236.799
 258.75 233.166 c 254.074 246.443 241.395 256.002 226.527 256.002 c 220.316
 256.002 214.48 254.326 209.461 251.408 c 209.461 307.201 l 209.461 326.025
 194.152 341.334 175.328 341.334 c 156.504 341.334 141.195 326.025 141.195
 307.201 c 141.195 162.135 l 111.551 184.373 l 93.973 197.564 68.953 195.806
 53.371 180.24 c 43.387 170.256 43.387 154.025 53.371 144.041 c 174.902 
22.494 l 189.406 7.986 208.711 0.002 229.227 0.002 c 269.211 0.002 l 320.957
 0.002 363.078 42.103 363.062 93.865 c 363.062 187.732 l 363.062 206.556
 347.754 221.869 328.93 221.869 c h
346.012 93.869 m 346.012 51.525 311.555 17.068 269.211 17.068 c 229.227
 17.068 l 213.25 17.068 198.25 23.279 186.969 34.56 c 65.438 156.107 l 62.109
 159.435 62.109 164.846 65.438 168.174 c 70.727 173.447 77.793 176.162 84.891
 176.162 c 90.66 176.162 96.465 174.369 101.344 170.717 c 144.641 138.24
 l 147.219 136.295 150.684 136.006 153.566 137.439 c 156.453 138.889 158.277
 141.842 158.277 145.068 c 158.277 307.201 l 158.277 316.603 165.926 324.267
 175.344 324.267 c 184.766 324.267 192.41 316.603 192.41 307.201 c 192.41
 179.201 l 192.41 174.49 196.234 170.666 200.945 170.666 c 205.656 170.666
 209.477 174.49 209.477 179.201 c 209.477 221.865 l 209.477 231.271 217.125
 238.931 226.543 238.931 c 235.965 238.931 243.609 231.271 243.609 221.865
 c 243.609 179.201 l 243.609 174.49 247.434 170.666 252.145 170.666 c 256.855
 170.666 260.68 174.49 260.68 179.201 c 260.68 204.799 l 260.68 214.205 
268.324 221.865 277.746 221.865 c 287.164 221.865 294.812 214.205 294.812
 204.799 c 294.812 179.201 l 294.812 174.49 298.633 170.666 303.344 170.666
 c 308.055 170.666 311.879 174.49 311.879 179.201 c 311.879 187.732 l 311.879
 197.139 319.523 204.799 328.945 204.799 c 338.367 204.799 346.012 197.139
 346.012 187.732 c h
346.012 93.869 m f
Q Q
showpage
%%Trailer
end restore
%%EOF
