%!PS-Adobe-3.0 EPSF-3.0
%%Creator: cairo 1.14.2 (http://cairographics.org)
%%CreationDate: Tue Nov 21 08:22:16 2017
%%Pages: 1
%%DocumentData: Clean7Bit
%%LanguageLevel: 2
%%BoundingBox: 17 -1 402 419
%%EndComments
%%BeginProlog
save
50 dict begin
/q { gsave } bind def
/Q { grestore } bind def
/cm { 6 array astore concat } bind def
/w { setlinewidth } bind def
/J { setlinecap } bind def
/j { setlinejoin } bind def
/M { setmiterlimit } bind def
/d { setdash } bind def
/m { moveto } bind def
/l { lineto } bind def
/c { curveto } bind def
/h { closepath } bind def
/re { exch dup neg 3 1 roll 5 3 roll moveto 0 rlineto
      0 exch rlineto 0 rlineto closepath } bind def
/S { stroke } bind def
/f { fill } bind def
/f* { eofill } bind def
/n { newpath } bind def
/W { clip } bind def
/W* { eoclip } bind def
/BT { } bind def
/ET { } bind def
/pdfmark where { pop globaldict /?pdfmark /exec load put }
    { globaldict begin /?pdfmark /pop load def /pdfmark
    /cleartomark load def end } ifelse
/BDC { mark 3 1 roll /BDC pdfmark } bind def
/EMC { mark /EMC pdfmark } bind def
/cairo_store_point { /cairo_point_y exch def /cairo_point_x exch def } def
/Tj { show currentpoint cairo_store_point } bind def
/TJ {
  {
    dup
    type /stringtype eq
    { show } { -0.001 mul 0 cairo_font_matrix dtransform rmoveto } ifelse
  } forall
  currentpoint cairo_store_point
} bind def
/cairo_selectfont { cairo_font_matrix aload pop pop pop 0 0 6 array astore
    cairo_font exch selectfont cairo_point_x cairo_point_y moveto } bind def
/Tf { pop /cairo_font exch def /cairo_font_matrix where
      { pop cairo_selectfont } if } bind def
/Td { matrix translate cairo_font_matrix matrix concatmatrix dup
      /cairo_font_matrix exch def dup 4 get exch 5 get cairo_store_point
      /cairo_font where { pop cairo_selectfont } if } bind def
/Tm { 2 copy 8 2 roll 6 array astore /cairo_font_matrix exch def
      cairo_store_point /cairo_font where { pop cairo_selectfont } if } bind def
/g { setgray } bind def
/rg { setrgbcolor } bind def
/d1 { setcachedevice } bind def
%%EndProlog
%%BeginSetup
%%EndSetup
%%Page: 1 1
%%BeginPageSetup
%%PageBoundingBox: 17 -1 402 419
%%EndPageSetup
q 17 -1 385 420 rectclip q
0 g
392.496 366.934 m 387.785 366.934 383.961 363.11 383.961 358.399 c 383.961
 315.735 l 341.297 315.735 l 336.586 315.735 332.762 311.911 332.762 307.2
 c 332.762 302.489 336.586 298.665 341.297 298.665 c 392.496 298.665 l 397.223
 298.665 401.031 302.489 401.031 307.2 c 401.031 358.399 l 401.031 363.11
 397.207 366.934 392.496 366.934 c h
392.496 366.934 m f
258.504 410.059 m 238.402 415.419 217.441 418.134 196.23 418.134 c 139.125
 418.134 96.969 405.88 70.961 381.712 c 67.512 378.505 67.309 373.11 70.516
 369.665 c 72.188 367.856 74.477 366.934 76.762 366.934 c 78.844 366.934
 80.926 367.684 82.547 369.204 c 105.297 390.333 143.543 401.048 196.211
 401.048 c 215.961 401.048 235.434 398.54 254.121 393.559 c 258.66 392.364
 263.352 395.044 264.566 399.614 c 265.777 404.173 263.062 408.848 258.504
 410.059 c h
258.504 410.059 m f
399.648 311.895 m 399.188 312.595 387.922 329.626 365.922 349.954 c 362.441
 353.161 357.066 352.938 353.855 349.473 c 350.664 346.009 350.871 340.618
 354.336 337.407 c 374.676 318.602 385.277 302.661 385.379 302.505 c 387.016
 300.013 389.73 298.665 392.512 298.665 c 394.117 298.665 395.738 299.126
 397.188 300.083 c 401.133 302.677 402.223 307.95 399.648 311.895 c h
399.648 311.895 m f
364.098 168.02 m 358.348 173.774 351.109 177.477 343.258 178.809 c 353.363
 193.86 351.773 214.477 338.496 227.755 c 332.953 233.321 326.004 236.97
 318.477 238.403 c 332.234 253.575 331.789 277.11 317.164 291.755 c 311.633
 297.286 304.707 300.938 297.195 302.388 c 325.852 331.044 l 336.91 342.102
 343.207 353.47 344.59 364.852 c 345.938 375.911 342.305 386.391 334.387
 394.309 c 319.777 408.919 294.262 408.919 279.652 394.309 c 138.305 252.962
 l 92.551 333.481 l 81.406 354.356 56.23 363.981 33.926 355.907 c 20.766
 351.095 13.891 336.52 18.547 323.329 c 58.844 191.114 l 64.969 171.044 
68.074 150.223 68.074 129.212 c 68.074 104.141 77.84 80.571 95.57 62.841
 c 125.742 32.669 l 146.82 11.606 174.828 0.001 204.625 0.001 c 234.406 
0.001 262.414 11.606 283.473 32.669 c 364.098 113.29 l 379.184 128.376 379.184
 152.934 364.098 168.02 c h
352.047 125.356 m 271.426 44.731 l 253.59 26.899 229.867 17.067 204.625
 17.067 c 179.387 17.067 155.664 26.899 137.809 44.731 c 107.637 74.907 
l 93.129 89.411 85.145 108.696 85.145 129.212 c 85.145 151.911 81.797 174.403
 75.176 196.095 c 34.812 328.501 l 34.762 328.638 34.727 328.79 34.676 328.907
 c 33.07 333.345 35.359 338.263 39.777 339.864 c 43.191 341.095 46.707 341.692
 50.191 341.692 c 61.316 341.692 72.051 335.634 77.582 325.274 c 128.988
 234.821 l 130.301 232.501 132.621 230.93 135.266 230.571 c 137.895 230.212
 140.559 231.118 142.434 232.993 c 291.699 382.259 l 300.133 390.692 313.871
 390.692 322.301 382.259 c 331.895 372.669 328.703 358.059 313.77 343.126
 c 215.633 244.993 l 213.98 243.321 213.141 241.134 213.141 238.95 c 213.141
 236.766 213.961 234.583 215.633 232.907 c 218.961 229.579 224.371 229.579
 227.699 232.907 c 274.547 279.759 l 282.707 287.88 296.922 287.864 305.098
 279.704 c 313.531 271.274 313.531 257.536 305.098 249.106 c 258.32 202.325
 l 256.664 200.653 255.828 198.47 255.828 196.282 c 255.828 194.098 256.645
 191.915 258.32 190.243 c 261.645 186.915 267.059 186.915 270.387 190.243
 c 295.883 215.739 l 304.039 223.88 318.273 223.864 326.449 215.704 c 334.879
 207.274 334.879 193.536 326.449 185.102 c 301.004 159.657 l 299.348 157.985
 298.512 155.802 298.512 153.614 c 298.512 151.43 299.328 149.247 301.004
 147.575 c 304.332 144.247 309.742 144.247 313.07 147.575 c 321.5 156.005
 l 329.656 164.13 343.875 164.11 352.051 155.954 c 360.48 147.524 360.48
 133.786 352.047 125.356 c h
352.047 125.356 m f
Q Q
showpage
%%Trailer
end restore
%%EOF
