%!PS-Adobe-3.0 EPSF-3.0
%%Creator: cairo 1.14.2 (http://cairographics.org)
%%CreationDate: Tue Nov 21 08:22:16 2017
%%Pages: 1
%%DocumentData: Clean7Bit
%%LanguageLevel: 2
%%BoundingBox: 11 -1 364 376
%%EndComments
%%BeginProlog
save
50 dict begin
/q { gsave } bind def
/Q { grestore } bind def
/cm { 6 array astore concat } bind def
/w { setlinewidth } bind def
/J { setlinecap } bind def
/j { setlinejoin } bind def
/M { setmiterlimit } bind def
/d { setdash } bind def
/m { moveto } bind def
/l { lineto } bind def
/c { curveto } bind def
/h { closepath } bind def
/re { exch dup neg 3 1 roll 5 3 roll moveto 0 rlineto
      0 exch rlineto 0 rlineto closepath } bind def
/S { stroke } bind def
/f { fill } bind def
/f* { eofill } bind def
/n { newpath } bind def
/W { clip } bind def
/W* { eoclip } bind def
/BT { } bind def
/ET { } bind def
/pdfmark where { pop globaldict /?pdfmark /exec load put }
    { globaldict begin /?pdfmark /pop load def /pdfmark
    /cleartomark load def end } ifelse
/BDC { mark 3 1 roll /BDC pdfmark } bind def
/EMC { mark /EMC pdfmark } bind def
/cairo_store_point { /cairo_point_y exch def /cairo_point_x exch def } def
/Tj { show currentpoint cairo_store_point } bind def
/TJ {
  {
    dup
    type /stringtype eq
    { show } { -0.001 mul 0 cairo_font_matrix dtransform rmoveto } ifelse
  } forall
  currentpoint cairo_store_point
} bind def
/cairo_selectfont { cairo_font_matrix aload pop pop pop 0 0 6 array astore
    cairo_font exch selectfont cairo_point_x cairo_point_y moveto } bind def
/Tf { pop /cairo_font exch def /cairo_font_matrix where
      { pop cairo_selectfont } if } bind def
/Td { matrix translate cairo_font_matrix matrix concatmatrix dup
      /cairo_font_matrix exch def dup 4 get exch 5 get cairo_store_point
      /cairo_font where { pop cairo_selectfont } if } bind def
/Tm { 2 copy 8 2 roll 6 array astore /cairo_font_matrix exch def
      cairo_store_point /cairo_font where { pop cairo_selectfont } if } bind def
/g { setgray } bind def
/rg { setrgbcolor } bind def
/d1 { setcachedevice } bind def
%%EndProlog
%%BeginSetup
%%EndSetup
%%Page: 1 1
%%BeginPageSetup
%%PageBoundingBox: 11 -1 364 376
%%EndPageSetup
q 11 -1 353 377 rectclip q
0 g
303.766 315.478 m 223.895 395.334 94 395.334 14.129 315.478 c 10.801 312.15
 10.801 306.74 14.129 303.412 c 17.457 300.084 22.867 300.084 26.195 303.412
 c 99.395 376.591 218.5 376.591 291.699 303.412 c 293.371 301.756 295.559
 300.92 297.742 300.92 c 299.926 300.92 302.109 301.74 303.766 303.412 c
 307.094 306.74 307.094 312.15 303.766 315.478 c h
303.766 315.478 m f
304.023 358.4 m 299.312 358.4 295.488 354.576 295.488 349.865 c 295.488
 307.201 l 252.82 307.201 l 248.109 307.201 244.289 303.377 244.289 298.666
 c 244.289 293.955 248.109 290.134 252.82 290.134 c 304.023 290.134 l 308.73
 290.134 312.555 293.939 312.555 298.666 c 312.555 349.865 l 312.555 354.576
 308.73 358.4 304.023 358.4 c h
304.023 358.4 m f
339.332 183.74 m 275.145 254.244 l 262.84 266.58 241.473 266.666 228.945
 254.138 c 224.898 250.095 222.137 245.232 220.703 240.045 c 208.242 249.599
 189.23 248.541 177.746 237.072 c 173.699 233.029 170.934 228.166 169.469
 222.994 c 157.043 232.552 138.012 231.459 126.543 220.006 c 122.586 216.029
 119.855 211.267 118.371 206.236 c 88.129 236.478 l 75.43 249.158 54.762
 249.193 41.93 236.373 c 29.215 223.677 29.215 202.994 41.93 190.279 c 158.117
 74.088 l 89.238 63.267 l 70.602 60.607 56.555 44.427 56.555 25.603 c 56.555
 11.486 68.039 0.002 82.156 0.002 c 243.074 0.002 l 268.129 0.002 291.699
 9.763 309.449 27.513 c 336.277 54.357 l 353.992 72.056 363.738 95.607 363.738
 120.646 c 363.738 144.025 355.066 166.435 339.332 183.74 c h
229.855 207.134 m 229.852 207.134 229.848 207.138 229.848 207.138 c 229.848
 207.138 229.855 207.134 229.855 207.134 c h
324.227 66.408 m 297.383 39.56 l 282.859 25.056 263.555 17.068 243.059 
17.068 c 82.137 17.068 l 77.445 17.068 73.605 20.892 73.605 25.599 c 73.605
 35.978 81.371 44.904 91.746 46.388 c 177.336 59.838 l 180.508 60.334 183.121
 62.568 184.129 65.623 c 185.117 68.662 184.316 72.021 182.047 74.291 c 
53.996 202.341 l 47.953 208.4 47.953 218.248 54.098 224.408 c 57.133 227.431
 61.109 228.951 65.09 228.951 c 69.066 228.951 73.039 227.431 76.062 224.408
 c 126.188 174.201 l 126.305 174.064 126.461 173.927 126.598 173.791 c 161.48
 138.923 l 164.809 135.595 170.219 135.595 173.547 138.923 c 176.875 142.252
 176.875 147.662 173.547 150.99 c 138.371 186.162 l 132.621 192.24 132.723
 201.881 138.766 207.939 c 144.637 213.775 154.84 213.81 160.711 207.939
 c 177.488 191.162 l 177.594 191.06 177.676 190.959 177.781 190.873 c 195.598
 173.072 l 198.926 169.744 204.336 169.744 207.664 173.072 c 210.992 176.4
 210.992 181.81 207.664 185.138 c 189.641 203.142 l 183.82 209.22 183.891
 218.931 189.965 225.025 c 195.836 230.861 206.043 230.896 211.914 225.025
 c 229.73 207.224 l 229.746 207.205 229.746 207.189 229.766 207.189 c 229.781
 207.17 l 229.801 207.162 229.805 207.158 229.816 207.15 c 229.82 207.134
 229.832 207.123 229.832 207.138 c 229.844 207.138 l 229.848 207.134 229.855
 207.131 229.859 207.131 c 229.859 207.127 229.859 207.119 229.867 207.119
 c 229.887 207.103 229.887 207.119 229.887 207.103 c 229.887 207.088 229.902
 207.088 229.902 207.088 c 229.934 207.088 l 233.312 203.947 238.57 204.033
 241.812 207.306 c 245.125 210.634 245.125 216.029 241.797 219.357 c 240.773
 220.381 l 235.004 226.459 235.09 236.115 241.148 242.173 c 247 248.013 
257.496 247.756 262.824 242.466 c 326.719 172.236 l 339.605 158.072 346.688
 139.759 346.688 120.627 c 346.688 100.166 338.719 80.896 324.227 66.408
 c h
324.227 66.408 m f
Q Q
showpage
%%Trailer
end restore
%%EOF
