%!PS-Adobe-3.0 EPSF-3.0
%%Creator: cairo 1.14.2 (http://cairographics.org)
%%CreationDate: Tue Nov 21 08:22:16 2017
%%Pages: 1
%%DocumentData: Clean7Bit
%%LanguageLevel: 2
%%BoundingBox: 0 16 410 393
%%EndComments
%%BeginProlog
save
50 dict begin
/q { gsave } bind def
/Q { grestore } bind def
/cm { 6 array astore concat } bind def
/w { setlinewidth } bind def
/J { setlinecap } bind def
/j { setlinejoin } bind def
/M { setmiterlimit } bind def
/d { setdash } bind def
/m { moveto } bind def
/l { lineto } bind def
/c { curveto } bind def
/h { closepath } bind def
/re { exch dup neg 3 1 roll 5 3 roll moveto 0 rlineto
      0 exch rlineto 0 rlineto closepath } bind def
/S { stroke } bind def
/f { fill } bind def
/f* { eofill } bind def
/n { newpath } bind def
/W { clip } bind def
/W* { eoclip } bind def
/BT { } bind def
/ET { } bind def
/pdfmark where { pop globaldict /?pdfmark /exec load put }
    { globaldict begin /?pdfmark /pop load def /pdfmark
    /cleartomark load def end } ifelse
/BDC { mark 3 1 roll /BDC pdfmark } bind def
/EMC { mark /EMC pdfmark } bind def
/cairo_store_point { /cairo_point_y exch def /cairo_point_x exch def } def
/Tj { show currentpoint cairo_store_point } bind def
/TJ {
  {
    dup
    type /stringtype eq
    { show } { -0.001 mul 0 cairo_font_matrix dtransform rmoveto } ifelse
  } forall
  currentpoint cairo_store_point
} bind def
/cairo_selectfont { cairo_font_matrix aload pop pop pop 0 0 6 array astore
    cairo_font exch selectfont cairo_point_x cairo_point_y moveto } bind def
/Tf { pop /cairo_font exch def /cairo_font_matrix where
      { pop cairo_selectfont } if } bind def
/Td { matrix translate cairo_font_matrix matrix concatmatrix dup
      /cairo_font_matrix exch def dup 4 get exch 5 get cairo_store_point
      /cairo_font where { pop cairo_selectfont } if } bind def
/Tm { 2 copy 8 2 roll 6 array astore /cairo_font_matrix exch def
      cairo_store_point /cairo_font where { pop cairo_selectfont } if } bind def
/g { setgray } bind def
/rg { setrgbcolor } bind def
/d1 { setcachedevice } bind def
%%EndProlog
%%BeginSetup
%%EndSetup
%%Page: 1 1
%%BeginPageSetup
%%PageBoundingBox: 0 16 410 393
%%EndPageSetup
q 0 16 410 377 rectclip q
0 g
298.41 332.592 m 218.555 412.448 88.629 412.448 8.773 332.592 c 5.445 329.264
 5.445 323.854 8.773 320.526 c 12.102 317.198 17.512 317.198 20.84 320.526
 c 94.039 393.709 213.145 393.709 286.344 320.526 c 288.02 318.87 290.203
 318.034 292.387 318.034 c 294.57 318.034 296.754 318.854 298.41 320.526
 c 301.738 323.854 301.738 329.264 298.41 332.592 c h
298.41 332.592 m f
59.734 324.315 m 17.066 324.315 l 17.066 366.983 l 17.066 371.694 13.242
 375.514 8.531 375.514 c 3.824 375.514 0 371.694 0 366.983 c 0 315.784 l
 0 311.073 3.824 307.248 8.535 307.248 c 59.734 307.248 l 64.445 307.248
 68.266 311.073 68.266 315.784 c 68.266 320.495 64.445 324.315 59.734 324.315
 c h
59.734 324.315 m f
385.195 200.838 m 321.023 271.358 l 308.309 284.057 287.625 284.057 274.824
 271.256 c 270.762 267.194 268 262.33 266.566 257.139 c 253.801 266.92 235.383
 265.948 223.625 254.19 c 219.578 250.127 216.816 245.264 215.348 240.092
 c 202.562 249.834 184.168 248.897 172.426 237.123 c 168.449 233.143 165.719
 228.381 164.234 223.35 c 133.992 253.592 l 121.293 266.288 100.609 266.307
 87.793 253.491 c 75.078 240.791 75.078 220.108 87.793 207.393 c 203.98 
91.202 l 135.066 80.381 l 116.445 77.721 102.398 61.541 102.398 42.717 c
 102.398 28.6 113.887 17.116 128 17.116 c 288.922 17.116 l 313.992 17.116
 337.562 26.877 355.293 44.612 c 382.141 71.455 l 399.855 89.155 409.602
 112.705 409.602 137.745 c 409.602 161.123 400.93 183.534 385.195 200.838
 c h
370.074 83.522 m 343.227 56.678 l 328.723 42.17 309.438 34.182 288.922 
34.182 c 128 34.182 l 123.289 34.182 119.465 38.006 119.465 42.717 c 119.465
 53.092 127.215 62.018 137.59 63.502 c 223.18 76.952 l 226.355 77.448 228.965
 79.682 229.973 82.737 c 230.965 85.776 230.16 89.139 227.891 91.409 c 99.84
 219.459 l 93.781 225.518 93.781 235.366 99.941 241.526 c 102.98 244.545
 106.957 246.065 110.934 246.065 c 114.91 246.065 118.887 244.545 121.926
 241.526 c 207.309 156.139 l 210.637 152.811 216.047 152.811 219.375 156.139
 c 221.031 157.815 221.867 159.998 221.867 162.182 c 221.867 164.366 221.031
 166.553 219.375 168.205 c 184.508 203.073 l 178.449 209.131 178.449 218.979
 184.609 225.143 c 190.652 231.182 200.535 231.182 206.574 225.143 c 241.441
 190.276 l 244.77 186.948 250.18 186.948 253.508 190.276 c 255.164 191.948
 256 194.131 256 196.315 c 256 198.502 255.164 200.686 253.578 202.272 c
 235.777 220.073 l 229.719 226.131 229.719 235.979 235.879 242.139 c 241.922
 248.182 251.805 248.182 257.844 242.139 c 275.645 224.338 l 275.664 224.323
 l 275.68 224.307 l 275.695 224.288 l 275.711 224.272 l 275.73 224.272 l
 275.746 224.272 275.746 224.256 275.746 224.256 c 279.09 221.08 284.363
 221.147 287.641 224.424 c 290.969 227.752 290.969 233.163 287.641 236.491
 c 286.906 237.225 l 283.973 240.163 282.352 244.069 282.352 248.217 c 282.352
 252.366 283.957 256.256 286.992 259.291 c 293.051 265.334 302.898 265.319
 308.688 259.584 c 372.582 189.354 l 385.434 175.205 392.535 156.877 392.535
 137.745 c 392.535 117.264 384.562 98.01 370.074 83.522 c h
370.074 83.522 m f
Q Q
showpage
%%Trailer
end restore
%%EOF
