%!PS-Adobe-3.0 EPSF-3.0
%%Creator: cairo 1.14.2 (http://cairographics.org)
%%CreationDate: Tue Nov 21 08:22:16 2017
%%Pages: 1
%%DocumentData: Clean7Bit
%%LanguageLevel: 2
%%BoundingBox: 42 -1 350 393
%%EndComments
%%BeginProlog
save
50 dict begin
/q { gsave } bind def
/Q { grestore } bind def
/cm { 6 array astore concat } bind def
/w { setlinewidth } bind def
/J { setlinecap } bind def
/j { setlinejoin } bind def
/M { setmiterlimit } bind def
/d { setdash } bind def
/m { moveto } bind def
/l { lineto } bind def
/c { curveto } bind def
/h { closepath } bind def
/re { exch dup neg 3 1 roll 5 3 roll moveto 0 rlineto
      0 exch rlineto 0 rlineto closepath } bind def
/S { stroke } bind def
/f { fill } bind def
/f* { eofill } bind def
/n { newpath } bind def
/W { clip } bind def
/W* { eoclip } bind def
/BT { } bind def
/ET { } bind def
/pdfmark where { pop globaldict /?pdfmark /exec load put }
    { globaldict begin /?pdfmark /pop load def /pdfmark
    /cleartomark load def end } ifelse
/BDC { mark 3 1 roll /BDC pdfmark } bind def
/EMC { mark /EMC pdfmark } bind def
/cairo_store_point { /cairo_point_y exch def /cairo_point_x exch def } def
/Tj { show currentpoint cairo_store_point } bind def
/TJ {
  {
    dup
    type /stringtype eq
    { show } { -0.001 mul 0 cairo_font_matrix dtransform rmoveto } ifelse
  } forall
  currentpoint cairo_store_point
} bind def
/cairo_selectfont { cairo_font_matrix aload pop pop pop 0 0 6 array astore
    cairo_font exch selectfont cairo_point_x cairo_point_y moveto } bind def
/Tf { pop /cairo_font exch def /cairo_font_matrix where
      { pop cairo_selectfont } if } bind def
/Td { matrix translate cairo_font_matrix matrix concatmatrix dup
      /cairo_font_matrix exch def dup 4 get exch 5 get cairo_store_point
      /cairo_font where { pop cairo_selectfont } if } bind def
/Tm { 2 copy 8 2 roll 6 array astore /cairo_font_matrix exch def
      cairo_store_point /cairo_font where { pop cairo_selectfont } if } bind def
/g { setgray } bind def
/rg { setrgbcolor } bind def
/d1 { setcachedevice } bind def
%%EndProlog
%%BeginSetup
%%EndSetup
%%Page: 1 1
%%BeginPageSetup
%%PageBoundingBox: 42 -1 350 393
%%EndPageSetup
q 42 -1 308 394 rectclip q
0 g
347.363 253.509 m 344.035 256.837 338.625 256.837 335.297 253.509 c 315.551
 233.763 l 313.777 301.654 258.977 356.454 191.086 358.228 c 210.812 377.958
 l 214.141 381.286 214.141 386.697 210.812 390.025 c 207.484 393.353 202.074
 393.353 198.746 390.025 c 164.613 355.892 l 161.285 352.564 161.285 347.154
 164.613 343.826 c 198.746 309.693 l 200.418 308.036 202.602 307.201 204.789
 307.201 c 206.973 307.201 209.156 308.036 210.828 309.693 c 214.156 313.021
 214.156 318.431 210.828 321.759 c 191.461 341.13 l 249.656 339.185 296.539
 292.302 298.484 234.103 c 279.113 253.474 l 275.785 256.802 270.375 256.802
 267.047 253.474 c 263.719 250.146 263.719 244.736 267.047 241.408 c 301.18
 207.275 l 302.855 205.603 305.039 204.783 307.223 204.783 c 309.406 204.783
 311.594 205.618 313.266 207.275 c 347.398 241.408 l 350.691 244.771 350.691
 250.161 347.363 253.509 c h
347.363 253.509 m f
261.23 128.853 m 269.539 137.931 270.223 151.673 262.832 161.521 c 250.562
 177.919 227.555 181.861 210.473 170.497 c 196.254 161.025 l 196.254 264.533
 l 196.254 278.65 184.77 290.134 170.656 290.134 c 156.539 290.134 145.055
 278.65 145.055 264.533 c 145.055 237.482 l 142.395 238.423 139.508 238.935
 136.523 238.935 c 124.746 238.935 114.777 230.931 111.828 220.076 c 108.891
 221.22 105.719 221.868 102.391 221.868 c 90.613 221.868 80.645 213.865 
77.695 203.009 c 74.758 204.154 71.586 204.802 68.258 204.802 c 54.141 204.802
 42.656 193.314 42.656 179.201 c 42.656 110.935 l 42.656 86.681 54.176 65.283
 71.773 51.201 c 68.258 51.201 l 63.547 51.201 59.723 47.376 59.723 42.665
 c 59.723 8.533 l 59.723 3.822 63.547 0.001 68.258 0.001 c 72.965 0.001 
76.789 3.822 76.789 8.533 c 76.789 34.134 l 179.191 34.134 l 179.191 8.533
 l 179.191 3.822 183.012 0.001 187.723 0.001 c 192.434 0.001 196.258 3.822
 196.258 8.533 c 196.258 42.665 l 196.258 46.849 193.203 50.177 189.227 
50.892 c 190.18 51.798 191.273 52.517 192.16 53.49 c h
179.582 65.025 m 171.527 56.236 160.059 51.201 148.129 51.201 c 119.457
 51.201 l 86.52 51.201 59.723 77.993 59.723 110.935 c 59.723 179.201 l 59.723
 183.911 63.547 187.732 68.258 187.732 c 72.965 187.732 76.789 183.911 76.789
 179.201 c 76.789 170.665 l 76.789 165.954 80.613 162.134 85.324 162.134
 c 90.035 162.134 93.855 165.954 93.855 170.665 c 93.855 196.267 l 93.855
 200.978 97.68 204.798 102.391 204.798 c 107.102 204.798 110.926 200.978
 110.926 196.267 c 110.926 170.665 l 110.926 165.954 114.746 162.134 119.457
 162.134 c 124.168 162.134 127.992 165.954 127.992 170.665 c 127.992 213.333
 l 127.992 218.044 131.812 221.865 136.523 221.865 c 141.234 221.865 145.059
 218.044 145.059 213.333 c 145.059 170.665 l 145.059 165.954 148.883 162.134
 153.594 162.134 c 158.301 162.134 162.125 165.954 162.125 170.665 c 162.125
 264.533 l 162.125 269.243 165.949 273.068 170.66 273.068 c 175.371 273.068
 179.191 269.243 179.191 264.533 c 179.191 145.068 l 179.191 141.911 180.934
 139.025 183.699 137.54 c 186.465 136.056 189.824 136.228 192.453 137.966
 c 219.93 156.298 l 229.473 162.63 242.324 160.443 249.184 151.279 c 251.656
 148.001 251.438 143.411 248.656 140.392 c h
179.582 65.025 m f
Q Q
showpage
%%Trailer
end restore
%%EOF
