%!PS-Adobe-3.0 EPSF-3.0
%%Creator: cairo 1.14.2 (http://cairographics.org)
%%CreationDate: Tue Nov 21 08:22:16 2017
%%Pages: 1
%%DocumentData: Clean7Bit
%%LanguageLevel: 2
%%BoundingBox: 0 46 359 312
%%EndComments
%%BeginProlog
save
50 dict begin
/q { gsave } bind def
/Q { grestore } bind def
/cm { 6 array astore concat } bind def
/w { setlinewidth } bind def
/J { setlinecap } bind def
/j { setlinejoin } bind def
/M { setmiterlimit } bind def
/d { setdash } bind def
/m { moveto } bind def
/l { lineto } bind def
/c { curveto } bind def
/h { closepath } bind def
/re { exch dup neg 3 1 roll 5 3 roll moveto 0 rlineto
      0 exch rlineto 0 rlineto closepath } bind def
/S { stroke } bind def
/f { fill } bind def
/f* { eofill } bind def
/n { newpath } bind def
/W { clip } bind def
/W* { eoclip } bind def
/BT { } bind def
/ET { } bind def
/pdfmark where { pop globaldict /?pdfmark /exec load put }
    { globaldict begin /?pdfmark /pop load def /pdfmark
    /cleartomark load def end } ifelse
/BDC { mark 3 1 roll /BDC pdfmark } bind def
/EMC { mark /EMC pdfmark } bind def
/cairo_store_point { /cairo_point_y exch def /cairo_point_x exch def } def
/Tj { show currentpoint cairo_store_point } bind def
/TJ {
  {
    dup
    type /stringtype eq
    { show } { -0.001 mul 0 cairo_font_matrix dtransform rmoveto } ifelse
  } forall
  currentpoint cairo_store_point
} bind def
/cairo_selectfont { cairo_font_matrix aload pop pop pop 0 0 6 array astore
    cairo_font exch selectfont cairo_point_x cairo_point_y moveto } bind def
/Tf { pop /cairo_font exch def /cairo_font_matrix where
      { pop cairo_selectfont } if } bind def
/Td { matrix translate cairo_font_matrix matrix concatmatrix dup
      /cairo_font_matrix exch def dup 4 get exch 5 get cairo_store_point
      /cairo_font where { pop cairo_selectfont } if } bind def
/Tm { 2 copy 8 2 roll 6 array astore /cairo_font_matrix exch def
      cairo_store_point /cairo_font where { pop cairo_selectfont } if } bind def
/g { setgray } bind def
/rg { setrgbcolor } bind def
/d1 { setcachedevice } bind def
%%EndProlog
%%BeginSetup
%%EndSetup
%%Page: 1 1
%%BeginPageSetup
%%PageBoundingBox: 0 46 359 312
%%EndPageSetup
q 0 46 359 266 rectclip q
0 g
324.266 268.943 m 216.867 268.943 l 201.234 284.576 l 165.562 320.263 107.504
 320.263 71.832 284.576 c 34.32 247.045 l 12.188 224.912 0 195.49 0 164.205
 c 0 99.607 52.547 47.06 117.145 47.06 c 221.867 47.06 l 240.691 47.06 256
 62.369 256 81.209 c 256 88.224 253.867 94.759 250.215 100.189 c 263.508
 104.865 273.066 117.545 273.066 132.408 c 273.066 139.423 270.934 145.962
 267.281 151.388 c 280.574 156.064 290.133 168.744 290.133 183.611 c 290.133
 189.822 288.461 195.658 285.543 200.677 c 324.266 200.677 l 343.09 200.677
 358.398 215.986 358.398 234.81 c 358.398 253.634 343.09 268.943 324.266
 268.943 c h
324.266 217.724 m 213.332 217.724 l 208.625 217.724 204.801 213.904 204.801
 209.193 c 204.801 204.482 208.625 200.658 213.332 200.658 c 256 200.658
 l 265.422 200.658 273.066 192.994 273.066 183.591 c 273.066 174.189 265.422
 166.525 256 166.525 c 230.398 166.525 l 225.691 166.525 221.867 162.701
 221.867 157.994 c 221.867 153.283 225.691 149.459 230.398 149.459 c 238.934
 149.459 l 248.355 149.459 256 141.795 256 132.392 c 256 122.99 248.355 
115.326 238.934 115.326 c 221.867 115.326 l 217.156 115.326 213.332 111.502
 213.332 106.791 c 213.332 102.08 217.156 98.259 221.867 98.259 c 231.289
 98.259 238.934 90.595 238.934 81.193 c 238.934 71.791 231.289 64.127 221.867
 64.127 c 117.145 64.127 l 61.969 64.127 17.066 109.029 17.066 164.205 c
 17.066 190.931 27.477 216.052 46.387 234.962 c 83.898 272.494 l 98.426 
286.998 117.469 294.252 136.535 294.252 c 155.598 294.252 174.645 286.998
 189.168 272.494 c 192.734 268.927 l 145.066 268.927 l 140.355 268.927 136.535
 265.103 136.535 260.392 c 136.535 255.681 140.355 251.857 145.066 251.857
 c 324.266 251.857 l 333.688 251.857 341.332 244.197 341.332 234.791 c 341.332
 225.388 333.688 217.724 324.266 217.724 c h
324.266 217.724 m f
Q Q
showpage
%%Trailer
end restore
%%EOF
