%!PS-Adobe-3.0 EPSF-3.0
%%Creator: cairo 1.14.2 (http://cairographics.org)
%%CreationDate: Tue Nov 21 08:22:16 2017
%%Pages: 1
%%DocumentData: Clean7Bit
%%LanguageLevel: 2
%%BoundingBox: 62 -1 348 410
%%EndComments
%%BeginProlog
save
50 dict begin
/q { gsave } bind def
/Q { grestore } bind def
/cm { 6 array astore concat } bind def
/w { setlinewidth } bind def
/J { setlinecap } bind def
/j { setlinejoin } bind def
/M { setmiterlimit } bind def
/d { setdash } bind def
/m { moveto } bind def
/l { lineto } bind def
/c { curveto } bind def
/h { closepath } bind def
/re { exch dup neg 3 1 roll 5 3 roll moveto 0 rlineto
      0 exch rlineto 0 rlineto closepath } bind def
/S { stroke } bind def
/f { fill } bind def
/f* { eofill } bind def
/n { newpath } bind def
/W { clip } bind def
/W* { eoclip } bind def
/BT { } bind def
/ET { } bind def
/pdfmark where { pop globaldict /?pdfmark /exec load put }
    { globaldict begin /?pdfmark /pop load def /pdfmark
    /cleartomark load def end } ifelse
/BDC { mark 3 1 roll /BDC pdfmark } bind def
/EMC { mark /EMC pdfmark } bind def
/cairo_store_point { /cairo_point_y exch def /cairo_point_x exch def } def
/Tj { show currentpoint cairo_store_point } bind def
/TJ {
  {
    dup
    type /stringtype eq
    { show } { -0.001 mul 0 cairo_font_matrix dtransform rmoveto } ifelse
  } forall
  currentpoint cairo_store_point
} bind def
/cairo_selectfont { cairo_font_matrix aload pop pop pop 0 0 6 array astore
    cairo_font exch selectfont cairo_point_x cairo_point_y moveto } bind def
/Tf { pop /cairo_font exch def /cairo_font_matrix where
      { pop cairo_selectfont } if } bind def
/Td { matrix translate cairo_font_matrix matrix concatmatrix dup
      /cairo_font_matrix exch def dup 4 get exch 5 get cairo_store_point
      /cairo_font where { pop cairo_selectfont } if } bind def
/Tm { 2 copy 8 2 roll 6 array astore /cairo_font_matrix exch def
      cairo_store_point /cairo_font where { pop cairo_selectfont } if } bind def
/g { setgray } bind def
/rg { setrgbcolor } bind def
/d1 { setcachedevice } bind def
%%EndProlog
%%BeginSetup
%%EndSetup
%%Page: 1 1
%%BeginPageSetup
%%PageBoundingBox: 62 -1 348 410
%%EndPageSetup
q 62 -1 286 411 rectclip q
0 g
313.273 273.065 m 294.445 273.065 279.137 257.756 279.137 238.932 c 279.137
 179.202 l 279.137 160.373 294.445 145.065 313.273 145.065 c 319.484 145.065
 325.32 146.741 330.34 149.659 c 330.34 116.975 l 330.34 61.885 285.539 
17.069 230.43 17.069 c 192.695 17.069 l 177.984 17.069 163.273 20.549 150.113
 27.135 c 123.473 40.467 104.395 65.913 99.066 95.233 c 91.883 134.604 l
 91.574 136.397 91.406 138.225 91.406 140.049 c 91.406 154.112 100.965 166.198
 114.652 169.405 c 222.035 194.663 l 223.332 187.596 222.461 180.311 219.438
 173.584 c 215.445 164.608 208.141 157.815 198.906 154.452 c 162.129 141.073
 l 156.309 138.955 151.668 134.452 149.363 128.698 c 147.078 122.948 147.367
 116.498 150.133 110.967 c 160.578 90.061 l 162.691 85.827 167.797 84.155
 172.027 86.237 c 176.242 88.354 177.953 93.475 175.852 97.69 c 165.406 
118.612 l 164.59 120.217 164.945 121.67 165.238 122.385 c 165.508 123.12
 166.242 124.416 167.969 125.049 c 204.746 138.428 l 218.348 143.377 229.102
 153.377 235.023 166.604 c 240.945 179.83 241.234 194.526 235.859 207.975
 c 234.289 211.901 230.105 214.034 225.992 213.112 c 110.758 185.991 l 89.305
 180.959 74.34 162.065 74.34 140.03 c 74.34 137.213 74.609 134.401 75.09
 131.565 c 82.273 92.143 l 88.555 57.58 111.066 27.545 142.484 11.842 c 
157.98 4.096 175.34 -0.002 192.68 -0.002 c 230.414 -0.002 l 294.926 -0.002
 347.406 52.479 347.406 116.975 c 347.406 238.932 l 347.406 257.756 332.098
 273.065 313.273 273.065 c h
330.34 179.202 m 330.34 169.795 322.695 162.135 313.273 162.135 c 303.852
 162.135 296.207 169.795 296.207 179.202 c 296.207 238.932 l 296.207 248.338
 303.852 255.998 313.273 255.998 c 322.695 255.998 330.34 248.338 330.34
 238.932 c h
330.34 179.202 m f
296.207 238.932 m 296.207 273.069 l 296.207 291.893 280.898 307.202 262.07
 307.202 c 243.246 307.202 227.938 291.893 227.938 273.069 c 227.938 187.733
 l 227.938 168.909 243.246 153.6 262.07 153.6 c 280.879 153.6 296.207 168.909
 296.207 187.733 c 296.207 221.866 l 296.207 226.577 292.383 230.401 287.672
 230.401 c 282.961 230.401 279.137 226.577 279.137 221.866 c 279.137 187.733
 l 279.137 178.33 271.492 170.666 262.07 170.666 c 252.652 170.666 245.004
 178.33 245.004 187.733 c 245.004 273.065 l 245.004 282.471 252.652 290.131
 262.07 290.131 c 271.492 290.131 279.137 282.471 279.137 273.065 c 279.137
 238.932 l 279.137 234.221 282.961 230.401 287.672 230.401 c 292.383 230.401
 296.207 234.225 296.207 238.932 c h
296.207 238.932 m f
209.594 409.6 m 191.312 409.6 176.176 395.897 174.316 377.19 c 169.57 250.35
 l 128.047 343.448 l 124.105 352.479 116.441 359.409 107.039 362.409 c 97.637
 365.397 87.363 364.221 78.914 359.135 c 65.207 350.924 58.996 334.557 63.809
 319.319 c 108.867 176.639 l 110.027 172.987 113.371 170.666 117.008 170.666
 c 117.859 170.666 118.73 170.784 119.582 171.057 c 124.07 172.475 126.562
 177.272 125.148 181.76 c 80.074 324.455 l 77.652 332.116 80.793 340.362
 87.668 344.506 c 91.934 347.069 97.125 347.666 101.836 346.147 c 106.578
 344.627 110.438 341.163 112.434 336.553 c 160.32 229.19 l 162.883 223.436
 168.941 220.33 175.188 221.475 c 181.383 222.686 185.82 227.924 186.059
 234.19 c 191.348 376.03 l 192.285 385.432 200.121 392.534 209.594 392.534
 c 219.711 392.534 227.938 384.307 227.938 374.186 c 227.938 273.065 l 227.938
 268.354 231.762 264.534 236.473 264.534 c 241.184 264.534 245.004 268.354
 245.004 273.065 c 245.004 374.186 l 245.004 393.709 229.133 409.6 209.594
 409.6 c h
209.594 409.6 m f
Q Q
showpage
%%Trailer
end restore
%%EOF
