%!PS-Adobe-3.0 EPSF-3.0
%%Creator: cairo 1.14.2 (http://cairographics.org)
%%CreationDate: Tue Nov 21 08:22:16 2017
%%Pages: 1
%%DocumentData: Clean7Bit
%%LanguageLevel: 2
%%BoundingBox: 0 0 410 409
%%EndComments
%%BeginProlog
save
50 dict begin
/q { gsave } bind def
/Q { grestore } bind def
/cm { 6 array astore concat } bind def
/w { setlinewidth } bind def
/J { setlinecap } bind def
/j { setlinejoin } bind def
/M { setmiterlimit } bind def
/d { setdash } bind def
/m { moveto } bind def
/l { lineto } bind def
/c { curveto } bind def
/h { closepath } bind def
/re { exch dup neg 3 1 roll 5 3 roll moveto 0 rlineto
      0 exch rlineto 0 rlineto closepath } bind def
/S { stroke } bind def
/f { fill } bind def
/f* { eofill } bind def
/n { newpath } bind def
/W { clip } bind def
/W* { eoclip } bind def
/BT { } bind def
/ET { } bind def
/pdfmark where { pop globaldict /?pdfmark /exec load put }
    { globaldict begin /?pdfmark /pop load def /pdfmark
    /cleartomark load def end } ifelse
/BDC { mark 3 1 roll /BDC pdfmark } bind def
/EMC { mark /EMC pdfmark } bind def
/cairo_store_point { /cairo_point_y exch def /cairo_point_x exch def } def
/Tj { show currentpoint cairo_store_point } bind def
/TJ {
  {
    dup
    type /stringtype eq
    { show } { -0.001 mul 0 cairo_font_matrix dtransform rmoveto } ifelse
  } forall
  currentpoint cairo_store_point
} bind def
/cairo_selectfont { cairo_font_matrix aload pop pop pop 0 0 6 array astore
    cairo_font exch selectfont cairo_point_x cairo_point_y moveto } bind def
/Tf { pop /cairo_font exch def /cairo_font_matrix where
      { pop cairo_selectfont } if } bind def
/Td { matrix translate cairo_font_matrix matrix concatmatrix dup
      /cairo_font_matrix exch def dup 4 get exch 5 get cairo_store_point
      /cairo_font where { pop cairo_selectfont } if } bind def
/Tm { 2 copy 8 2 roll 6 array astore /cairo_font_matrix exch def
      cairo_store_point /cairo_font where { pop cairo_selectfont } if } bind def
/g { setgray } bind def
/rg { setrgbcolor } bind def
/d1 { setcachedevice } bind def
%%EndProlog
%%BeginSetup
%%EndSetup
%%Page: 1 1
%%BeginPageSetup
%%PageBoundingBox: 0 0 410 409
%%EndPageSetup
q 0 0 410 409 rectclip q
0 g
331.145 159.838 m 304.691 186.291 l 294.312 196.666 277.402 196.666 267.023
 186.291 c 263.918 183.166 261.734 179.463 260.488 175.538 c 251.137 178.799
 240.348 176.682 232.891 169.225 c 228.984 165.315 226.559 160.487 225.586
 155.436 c 217.43 156.596 208.945 153.811 203.023 147.893 c 200.633 145.518
 198.809 142.788 197.512 139.87 c 182.219 155.163 l 172.148 165.233 154.605
 165.198 144.555 155.163 c 139.52 150.127 136.734 143.436 136.734 136.319
 c 136.734 129.202 139.52 122.514 144.555 117.479 c 209.797 52.233 l 196.266
 52.233 l 172.746 52.233 153.598 33.084 153.598 9.565 c 153.598 4.858 157.422
 1.034 162.133 1.034 c 265.387 1.034 l 316.672 1.034 358.398 42.76 358.398
 94.045 c 358.398 118.893 348.723 142.241 331.145 159.838 c h
265.387 18.1 m 172.117 18.1 l 175.652 28.03 185.141 35.166 196.25 35.182
 c 230.383 35.182 l 233.832 35.182 236.953 37.264 238.27 40.455 c 239.598
 43.647 238.867 47.319 236.426 49.756 c 156.621 129.561 l 154.812 131.354
 153.805 133.776 153.805 136.319 c 153.805 138.862 154.812 141.268 156.621
 143.077 c 160.238 146.678 166.535 146.698 170.156 143.077 c 224.375 88.858
 l 227.703 85.53 233.113 85.53 236.441 88.858 c 238.098 90.53 238.934 92.713
 238.934 94.901 c 238.934 97.084 238.098 99.268 236.441 100.94 c 215.109
 122.276 l 213.301 124.065 212.309 126.491 212.309 129.034 c 212.309 131.577
 213.297 133.983 215.109 135.791 c 218.727 139.409 225.023 139.409 228.641
 135.791 c 241.441 122.991 l 244.77 119.663 250.18 119.663 253.508 122.991
 c 255.164 124.663 256 126.846 256 129.034 c 256 131.217 255.164 133.401
 253.508 135.057 c 244.973 143.592 l 243.164 145.381 242.176 147.807 242.176
 150.35 c 242.176 152.893 243.164 155.299 244.973 157.108 c 248.711 160.846
 254.77 160.846 258.508 157.108 c 267.043 148.573 l 270.371 145.245 275.781
 145.245 279.109 148.573 c 280.762 150.248 281.602 152.432 281.602 154.616
 c 281.602 156.799 280.781 158.987 279.109 160.659 c 275.371 164.397 275.371
 170.455 279.109 174.19 c 282.844 177.928 288.902 177.928 292.641 174.19
 c 319.094 147.737 l 333.43 133.401 341.332 114.323 341.332 94.045 c 341.332
 52.163 307.27 18.1 265.387 18.1 c h
265.387 18.1 m f
59.734 180.233 m 26.793 180.233 0 153.436 0 120.498 c 0 87.561 26.793 60.764
 59.734 60.764 c 92.672 60.764 119.469 87.561 119.469 120.498 c 119.465 
153.436 92.672 180.233 59.734 180.233 c h
59.734 77.83 m 36.215 77.83 17.066 96.979 17.066 120.498 c 17.066 144.014
 36.215 163.166 59.734 163.166 c 83.25 163.166 102.398 144.014 102.398 120.498
 c 102.398 96.979 83.25 77.83 59.734 77.83 c h
59.734 77.83 m f
332.133 312.088 m 327.801 314.053 323.855 316.733 320.41 320.026 c 317.012
 323.303 311.602 323.166 308.344 319.752 c 305.082 316.338 305.203 310.928
 308.617 307.686 c 313.445 303.061 318.977 299.323 325.016 296.557 c 326.176
 296.045 327.391 295.791 328.566 295.791 c 331.809 295.791 334.914 297.635
 336.348 300.772 c 338.297 305.073 336.418 310.127 332.133 312.088 c h
332.133 312.088 m f
327.645 406.346 m 321.484 403.873 315.785 400.409 310.75 396.041 c 307.199
 392.967 306.809 387.577 309.895 384.026 c 311.586 382.08 313.957 381.073
 316.348 381.073 c 318.328 381.073 320.324 381.756 321.91 383.135 c 325.531
 386.26 329.59 388.752 334.012 390.526 c 338.379 392.268 340.496 397.252
 338.738 401.62 c 336.98 405.971 332.016 408.104 327.645 406.346 c h
327.645 406.346 m f
307.625 344.838 m 307.336 346.803 307.199 348.815 307.199 350.897 c 307.199
 353.663 307.473 356.362 307.969 358.987 c 308.855 363.631 305.836 368.1
 301.211 368.991 c 296.535 369.858 292.098 366.838 291.207 362.229 c 290.492
 358.561 290.133 354.791 290.133 350.932 c 290.133 348.03 290.32 345.198
 290.715 342.416 c 291.344 338.166 294.98 335.096 299.16 335.096 c 299.57
 335.096 299.98 335.127 300.391 335.178 c 305.066 335.846 308.293 340.182
 307.625 344.838 c h
307.625 344.838 m f
384.547 399.538 m 379.121 403.428 373.113 406.346 366.711 408.225 c 362.207
 409.541 357.445 406.963 356.113 402.44 c 354.781 397.901 357.375 393.174
 361.898 391.842 c 366.457 390.51 370.738 388.428 374.613 385.663 c 376.113
 384.588 377.84 384.077 379.562 384.077 c 382.227 384.077 384.836 385.323
 386.527 387.643 c 389.273 391.467 388.387 396.791 384.547 399.538 c h
384.547 399.538 m f
372.941 315.006 m 368.945 312.432 364.562 310.553 359.938 309.428 c 355.363
 308.319 352.547 303.709 353.656 299.12 c 354.594 295.209 358.094 292.6 
361.934 292.6 c 362.598 292.6 363.281 292.666 363.965 292.838 c 370.449 
294.424 376.574 297.053 382.176 300.655 c 386.152 303.198 387.277 308.491
 384.734 312.448 c 382.191 316.424 376.918 317.534 372.941 315.006 c h
372.941 315.006 m f
407.211 367.725 m 405.879 372.233 401.188 374.791 396.613 373.51 c 392.09
 372.163 389.496 367.436 390.828 362.913 c 391.969 359.038 392.531 354.995
 392.531 350.897 c 392.531 346.12 391.746 341.409 390.195 336.936 c 388.66
 332.483 391.012 327.62 395.469 326.084 c 396.406 325.776 397.344 325.623
 398.266 325.623 c 401.801 325.623 405.109 327.842 406.34 331.358 c 408.508
 337.62 409.602 344.19 409.602 350.881 c 409.602 356.6 408.797 362.264 407.211
 367.725 c h
407.211 367.725 m f
153.531 270.498 m 149.094 266.709 144.762 262.854 140.527 258.959 c 137.062
 255.768 136.824 250.358 140.016 246.893 c 141.688 245.053 143.992 244.131
 146.297 244.131 c 148.359 244.131 150.426 244.862 152.082 246.366 c 156.145
 250.12 160.359 253.842 164.625 257.526 c 168.211 260.6 168.637 265.991 
165.562 269.561 c 162.492 273.159 157.117 273.534 153.531 270.498 c h
153.531 270.498 m f
115.797 234.366 m 111.684 229.913 107.809 225.475 104.227 221.108 c 101.238
 217.455 101.77 212.077 105.422 209.092 c 106.992 207.795 108.918 207.163
 110.812 207.163 c 113.289 207.163 115.73 208.237 117.434 210.288 c 120.812
 214.416 124.449 218.58 128.34 222.78 c 131.531 226.245 131.328 231.635 
127.863 234.846 c 124.383 238.038 119.004 237.83 115.797 234.366 c h
115.797 234.366 m f
95.488 195.096 m 91.305 197.28 86.152 195.659 83.969 191.479 c 80.691 185.182
 78.352 179.205 77.023 173.694 c 75.91 169.104 78.727 164.495 83.32 163.405
 c 84 163.233 84.668 163.166 85.332 163.166 c 89.191 163.166 92.688 165.791
 93.609 169.702 c 94.617 173.85 96.461 178.526 99.105 183.577 c 101.273 
187.76 99.668 192.913 95.488 195.096 c h
95.488 195.096 m f
298.785 343.03 m 297.984 347.69 293.582 350.76 288.938 350.03 c 283.578
 349.108 277.555 347.467 271.035 345.131 c 266.598 343.526 264.293 338.643
 265.883 334.205 c 267.145 330.725 270.422 328.557 273.922 328.557 c 274.875
 328.557 275.848 328.713 276.805 329.053 c 282.367 331.049 287.418 332.448
 291.789 333.186 c 296.449 333.987 299.57 338.389 298.785 343.03 c h
298.785 343.03 m f
238.848 330.299 m 233.883 327.62 228.812 324.702 223.676 321.577 c 219.648
 319.12 218.352 313.881 220.793 309.854 c 222.395 307.209 225.211 305.741
 228.098 305.741 c 229.598 305.741 231.117 306.151 232.516 306.987 c 237.434
 309.955 242.262 312.737 246.988 315.299 c 251.137 317.549 252.672 322.721
 250.422 326.87 c 248.168 330.998 242.996 332.553 238.848 330.299 c h
238.848 330.299 m f
194.609 302.498 m 189.918 299.17 185.242 295.756 180.598 292.241 c 176.828
 289.409 176.078 284.049 178.926 280.295 c 180.598 278.057 183.16 276.897
 185.734 276.897 c 187.527 276.897 189.336 277.463 190.871 278.623 c 195.379
 282.038 199.918 285.346 204.457 288.557 c 208.312 291.288 209.234 296.612
 206.504 300.452 c 203.777 304.307 198.469 305.229 194.609 302.498 c h
194.609 302.498 m f
Q Q
showpage
%%Trailer
end restore
%%EOF
