%!PS-Adobe-3.0 EPSF-3.0
%%Creator: cairo 1.14.2 (http://cairographics.org)
%%CreationDate: Tue Nov 21 08:22:16 2017
%%Pages: 1
%%DocumentData: Clean7Bit
%%LanguageLevel: 2
%%BoundingBox: 68 -1 342 410
%%EndComments
%%BeginProlog
save
50 dict begin
/q { gsave } bind def
/Q { grestore } bind def
/cm { 6 array astore concat } bind def
/w { setlinewidth } bind def
/J { setlinecap } bind def
/j { setlinejoin } bind def
/M { setmiterlimit } bind def
/d { setdash } bind def
/m { moveto } bind def
/l { lineto } bind def
/c { curveto } bind def
/h { closepath } bind def
/re { exch dup neg 3 1 roll 5 3 roll moveto 0 rlineto
      0 exch rlineto 0 rlineto closepath } bind def
/S { stroke } bind def
/f { fill } bind def
/f* { eofill } bind def
/n { newpath } bind def
/W { clip } bind def
/W* { eoclip } bind def
/BT { } bind def
/ET { } bind def
/pdfmark where { pop globaldict /?pdfmark /exec load put }
    { globaldict begin /?pdfmark /pop load def /pdfmark
    /cleartomark load def end } ifelse
/BDC { mark 3 1 roll /BDC pdfmark } bind def
/EMC { mark /EMC pdfmark } bind def
/cairo_store_point { /cairo_point_y exch def /cairo_point_x exch def } def
/Tj { show currentpoint cairo_store_point } bind def
/TJ {
  {
    dup
    type /stringtype eq
    { show } { -0.001 mul 0 cairo_font_matrix dtransform rmoveto } ifelse
  } forall
  currentpoint cairo_store_point
} bind def
/cairo_selectfont { cairo_font_matrix aload pop pop pop 0 0 6 array astore
    cairo_font exch selectfont cairo_point_x cairo_point_y moveto } bind def
/Tf { pop /cairo_font exch def /cairo_font_matrix where
      { pop cairo_selectfont } if } bind def
/Td { matrix translate cairo_font_matrix matrix concatmatrix dup
      /cairo_font_matrix exch def dup 4 get exch 5 get cairo_store_point
      /cairo_font where { pop cairo_selectfont } if } bind def
/Tm { 2 copy 8 2 roll 6 array astore /cairo_font_matrix exch def
      cairo_store_point /cairo_font where { pop cairo_selectfont } if } bind def
/g { setgray } bind def
/rg { setrgbcolor } bind def
/d1 { setcachedevice } bind def
%%EndProlog
%%BeginSetup
%%EndSetup
%%Page: 1 1
%%BeginPageSetup
%%PageBoundingBox: 68 -1 342 410
%%EndPageSetup
q 68 -1 274 411 rectclip q
0 g
307.199 341.334 m 300.988 341.334 295.152 339.663 290.133 336.741 c 290.133
 341.334 l 290.133 360.159 274.824 375.467 256 375.467 c 249.789 375.467
 243.953 373.795 238.934 370.877 c 238.934 375.467 l 238.934 394.291 223.625
 409.6 204.801 409.6 c 185.977 409.6 170.668 394.291 170.668 375.467 c 170.668
 370.873 l 165.648 373.795 159.812 375.467 153.602 375.467 c 134.773 375.467
 119.465 360.159 119.465 341.334 c 119.465 247.448 l 112.332 252.807 103.477
 255.998 93.867 255.998 c 79.754 255.998 68.266 244.514 68.266 230.401 c
 68.266 153.413 l 68.266 112.741 84.105 74.495 112.863 45.737 c 141.09 17.491
 l 152.219 6.381 167.594 -0.002 183.328 -0.002 c 247.465 -0.002 l 299.211
 -0.002 341.332 42.1 341.332 93.866 c 341.332 307.202 l 341.332 326.026 
326.023 341.334 307.199 341.334 c h
324.266 93.866 m 324.266 51.526 289.809 17.065 247.465 17.065 c 183.328
 17.065 l 172.102 17.065 161.094 21.623 153.156 29.577 c 124.93 57.803 l
 99.395 83.354 85.332 117.299 85.332 153.413 c 85.332 230.401 l 85.332 235.112
 89.172 238.932 93.867 238.932 c 107.98 238.932 119.469 227.448 119.469 
213.334 c 119.469 162.135 l 119.469 157.424 123.289 153.6 128 153.6 c 132.711
 153.6 136.535 157.424 136.535 162.135 c 136.535 341.334 l 136.535 350.737
 144.18 358.401 153.602 358.401 c 163.02 358.401 170.668 350.737 170.668
 341.334 c 170.668 230.401 l 170.668 225.69 174.488 221.866 179.199 221.866
 c 183.91 221.866 187.734 225.69 187.734 230.401 c 187.734 375.467 l 187.734
 384.87 195.379 392.534 204.801 392.534 c 214.223 392.534 221.867 384.87
 221.867 375.467 c 221.867 230.401 l 221.867 225.69 225.691 221.866 230.398
 221.866 c 235.109 221.866 238.934 225.69 238.934 230.401 c 238.934 341.334
 l 238.934 350.737 246.578 358.401 256 358.401 c 265.422 358.401 273.066
 350.737 273.066 341.334 c 273.066 230.401 l 273.066 225.69 276.891 221.866
 281.602 221.866 c 286.309 221.866 290.133 225.69 290.133 230.401 c 290.133
 307.202 l 290.133 316.604 297.777 324.268 307.199 324.268 c 316.621 324.268
 324.266 316.604 324.266 307.202 c h
324.266 93.866 m f
Q Q
showpage
%%Trailer
end restore
%%EOF
