%!PS-Adobe-3.0 EPSF-3.0
%%Creator: cairo 1.14.2 (http://cairographics.org)
%%CreationDate: Tue Nov 21 08:22:16 2017
%%Pages: 1
%%DocumentData: Clean7Bit
%%LanguageLevel: 2
%%BoundingBox: 0 12 406 394
%%EndComments
%%BeginProlog
save
50 dict begin
/q { gsave } bind def
/Q { grestore } bind def
/cm { 6 array astore concat } bind def
/w { setlinewidth } bind def
/J { setlinecap } bind def
/j { setlinejoin } bind def
/M { setmiterlimit } bind def
/d { setdash } bind def
/m { moveto } bind def
/l { lineto } bind def
/c { curveto } bind def
/h { closepath } bind def
/re { exch dup neg 3 1 roll 5 3 roll moveto 0 rlineto
      0 exch rlineto 0 rlineto closepath } bind def
/S { stroke } bind def
/f { fill } bind def
/f* { eofill } bind def
/n { newpath } bind def
/W { clip } bind def
/W* { eoclip } bind def
/BT { } bind def
/ET { } bind def
/pdfmark where { pop globaldict /?pdfmark /exec load put }
    { globaldict begin /?pdfmark /pop load def /pdfmark
    /cleartomark load def end } ifelse
/BDC { mark 3 1 roll /BDC pdfmark } bind def
/EMC { mark /EMC pdfmark } bind def
/cairo_store_point { /cairo_point_y exch def /cairo_point_x exch def } def
/Tj { show currentpoint cairo_store_point } bind def
/TJ {
  {
    dup
    type /stringtype eq
    { show } { -0.001 mul 0 cairo_font_matrix dtransform rmoveto } ifelse
  } forall
  currentpoint cairo_store_point
} bind def
/cairo_selectfont { cairo_font_matrix aload pop pop pop 0 0 6 array astore
    cairo_font exch selectfont cairo_point_x cairo_point_y moveto } bind def
/Tf { pop /cairo_font exch def /cairo_font_matrix where
      { pop cairo_selectfont } if } bind def
/Td { matrix translate cairo_font_matrix matrix concatmatrix dup
      /cairo_font_matrix exch def dup 4 get exch 5 get cairo_store_point
      /cairo_font where { pop cairo_selectfont } if } bind def
/Tm { 2 copy 8 2 roll 6 array astore /cairo_font_matrix exch def
      cairo_store_point /cairo_font where { pop cairo_selectfont } if } bind def
/g { setgray } bind def
/rg { setrgbcolor } bind def
/d1 { setcachedevice } bind def
%%EndProlog
%%BeginSetup
%%EndSetup
%%Page: 1 1
%%BeginPageSetup
%%PageBoundingBox: 0 12 406 394
%%EndPageSetup
q 0 12 406 382 rectclip q
0 g
372.992 228.228 m 219.699 381.521 l 204.613 396.622 180.055 396.622 164.965
 381.521 c 159.301 375.853 155.766 368.857 154.352 361.533 c 151.434 364.454
 l 136.344 379.556 111.789 379.556 96.699 364.454 c 91.016 358.771 87.469
 351.755 86.066 344.415 c 70.91 358.189 47.344 357.763 32.699 343.119 c 
18.059 328.478 17.613 304.939 31.387 289.767 c 23.844 288.318 16.914 284.665
 11.367 279.119 c 4.043 271.814 0 262.103 0 251.759 c 0 241.419 4.043 231.689
 11.348 224.384 c 140.082 95.654 l 71.305 85.822 l 47.871 82.478 30.191 
62.099 30.191 38.411 c 30.191 24.294 41.676 12.81 55.793 12.81 c 276.445
 12.81 l 301.52 12.81 325.086 22.591 342.82 40.322 c 372.992 70.494 l 394.051
 91.556 405.656 119.56 405.656 149.361 c 405.656 179.158 394.051 207.165
 372.992 228.228 c h
360.941 82.544 m 330.77 52.372 l 316.262 37.865 296.977 29.876 276.465 
29.876 c 55.809 29.876 l 51.098 29.876 47.273 33.701 47.273 38.411 c 47.273
 53.654 58.656 66.775 73.746 68.927 c 159.418 81.161 l 162.609 81.622 165.273
 83.841 166.297 86.915 c 167.32 89.986 166.52 93.365 164.23 95.654 c 23.434
 236.454 l 15 244.884 15 258.622 23.434 267.052 c 27.648 271.267 33.176 
273.384 38.723 273.384 c 44.27 273.384 49.801 271.271 54.051 266.986 c 160.715
 160.318 l 164.043 156.99 169.453 156.99 172.781 160.318 c 174.438 161.994
 175.273 164.177 175.273 166.361 c 175.273 168.544 174.457 170.728 172.781
 172.404 c 44.781 300.404 l 36.352 308.833 36.352 322.572 44.781 331.001
 c 53.215 339.435 66.953 339.435 75.383 331.001 c 203.383 203.001 l 206.711
 199.677 212.121 199.677 215.449 203.001 c 217.105 204.677 217.941 206.861
 217.941 209.044 c 217.941 211.228 217.121 213.415 215.449 215.087 c 108.781
 321.751 l 100.352 330.181 100.352 343.919 108.781 352.353 c 116.977 360.529
 131.207 360.529 139.383 352.353 c 246.051 245.685 l 249.379 242.357 254.789
 242.357 258.117 245.685 c 259.773 247.357 260.609 249.544 260.609 251.728
 c 260.609 253.911 259.789 256.095 258.117 257.767 c 177.051 338.833 l 168.617
 347.267 168.617 361.005 177.051 369.435 c 185.48 377.869 199.219 377.869
 207.652 369.435 c 360.941 216.142 l 378.777 198.31 388.609 174.568 388.609
 149.345 c 388.609 124.119 378.777 100.38 360.941 82.544 c h
360.941 82.544 m f
Q Q
showpage
%%Trailer
end restore
%%EOF
