%!PS-Adobe-3.0 EPSF-3.0
%%Creator: cairo 1.14.2 (http://cairographics.org)
%%CreationDate: Tue Nov 21 08:22:16 2017
%%Pages: 1
%%DocumentData: Clean7Bit
%%LanguageLevel: 2
%%BoundingBox: 0 -1 410 410
%%EndComments
%%BeginProlog
save
50 dict begin
/q { gsave } bind def
/Q { grestore } bind def
/cm { 6 array astore concat } bind def
/w { setlinewidth } bind def
/J { setlinecap } bind def
/j { setlinejoin } bind def
/M { setmiterlimit } bind def
/d { setdash } bind def
/m { moveto } bind def
/l { lineto } bind def
/c { curveto } bind def
/h { closepath } bind def
/re { exch dup neg 3 1 roll 5 3 roll moveto 0 rlineto
      0 exch rlineto 0 rlineto closepath } bind def
/S { stroke } bind def
/f { fill } bind def
/f* { eofill } bind def
/n { newpath } bind def
/W { clip } bind def
/W* { eoclip } bind def
/BT { } bind def
/ET { } bind def
/pdfmark where { pop globaldict /?pdfmark /exec load put }
    { globaldict begin /?pdfmark /pop load def /pdfmark
    /cleartomark load def end } ifelse
/BDC { mark 3 1 roll /BDC pdfmark } bind def
/EMC { mark /EMC pdfmark } bind def
/cairo_store_point { /cairo_point_y exch def /cairo_point_x exch def } def
/Tj { show currentpoint cairo_store_point } bind def
/TJ {
  {
    dup
    type /stringtype eq
    { show } { -0.001 mul 0 cairo_font_matrix dtransform rmoveto } ifelse
  } forall
  currentpoint cairo_store_point
} bind def
/cairo_selectfont { cairo_font_matrix aload pop pop pop 0 0 6 array astore
    cairo_font exch selectfont cairo_point_x cairo_point_y moveto } bind def
/Tf { pop /cairo_font exch def /cairo_font_matrix where
      { pop cairo_selectfont } if } bind def
/Td { matrix translate cairo_font_matrix matrix concatmatrix dup
      /cairo_font_matrix exch def dup 4 get exch 5 get cairo_store_point
      /cairo_font where { pop cairo_selectfont } if } bind def
/Tm { 2 copy 8 2 roll 6 array astore /cairo_font_matrix exch def
      cairo_store_point /cairo_font where { pop cairo_selectfont } if } bind def
/g { setgray } bind def
/rg { setrgbcolor } bind def
/d1 { setcachedevice } bind def
%%EndProlog
%%BeginSetup
%%EndSetup
%%Page: 1 1
%%BeginPageSetup
%%PageBoundingBox: 0 -1 410 410
%%EndPageSetup
q 0 -1 410 411 rectclip q
0 g
179.199 409.6 m 59.734 409.6 l 26.793 409.6 0 382.807 0 349.866 c 0 59.733
 l 0 26.795 26.793 -0.002 59.734 -0.002 c 76.801 -0.002 l 81.512 -0.002 
85.332 3.823 85.332 8.534 c 85.332 13.245 81.512 17.069 76.801 17.069 c 
59.734 17.069 l 36.215 17.069 17.066 36.217 17.066 59.733 c 17.066 349.866
 l 17.066 373.385 36.215 392.534 59.734 392.534 c 179.199 392.534 l 202.719
 392.534 221.867 373.385 221.867 349.866 c 221.867 264.534 l 221.867 259.823
 225.691 255.998 230.398 255.998 c 235.109 255.998 238.934 259.823 238.934
 264.534 c 238.934 349.866 l 238.934 382.807 212.137 409.6 179.199 409.6
 c h
179.199 409.6 m f
230.398 341.334 m 8.535 341.334 l 3.824 341.334 0 337.51 0 332.799 c 0 
328.088 3.824 324.268 8.535 324.268 c 230.398 324.268 l 235.109 324.268 
238.934 328.088 238.934 332.799 c 238.934 337.51 235.109 341.334 230.398
 341.334 c h
230.398 341.334 m f
153.602 102.401 m 8.535 102.401 l 3.824 102.401 0 98.577 0 93.866 c 0 89.155
 3.824 85.334 8.535 85.334 c 153.602 85.334 l 158.309 85.334 162.133 89.155
 162.133 93.866 c 162.133 98.577 158.309 102.401 153.602 102.401 c h
153.602 102.401 m f
145.066 375.467 m 93.867 375.467 l 89.156 375.467 85.332 371.643 85.332
 366.932 c 85.332 362.221 89.156 358.401 93.867 358.401 c 145.066 358.401
 l 149.777 358.401 153.602 362.225 153.602 366.932 c 153.602 371.643 149.777
 375.467 145.066 375.467 c h
145.066 375.467 m f
179.543 375.467 m 179.371 375.467 l 174.66 375.467 170.922 371.643 170.922
 366.932 c 170.922 362.221 174.832 358.401 179.543 358.401 c 184.254 358.401
 188.074 362.225 188.074 366.932 c 188.074 371.643 184.254 375.467 179.543
 375.467 c h
179.543 375.467 m f
385.195 183.721 m 321.023 254.241 l 308.328 266.94 287.641 266.955 274.824
 254.139 c 270.762 250.077 268 245.213 266.566 240.026 c 253.801 249.788
 235.383 248.83 223.625 237.073 c 219.578 233.01 216.816 228.147 215.348
 222.975 c 202.582 232.737 184.168 231.78 172.426 220.006 c 168.449 216.03
 165.719 211.268 164.234 206.233 c 133.992 236.475 l 121.293 249.174 100.609
 249.19 87.793 236.373 c 75.078 223.674 75.078 202.991 87.793 190.276 c 
203.98 74.088 l 135.066 63.268 l 116.445 60.604 102.398 44.424 102.398 25.6
 c 102.398 11.487 113.887 -0.002 128 -0.002 c 288.922 -0.002 l 313.992 -0.002
 337.562 9.764 355.293 27.495 c 382.141 54.338 l 399.855 72.038 409.602 
95.592 409.602 120.627 c 409.602 144.01 400.93 166.416 385.195 183.721 c
 h
370.074 66.405 m 343.227 39.561 l 328.723 25.053 309.438 17.069 288.922
 17.069 c 128 17.069 l 123.289 17.069 119.465 20.889 119.465 25.6 c 119.465
 35.979 127.215 44.905 137.59 46.405 c 223.18 59.854 l 226.355 60.35 228.965
 62.584 229.973 65.639 c 230.965 68.678 230.16 72.038 227.891 74.307 c 99.84
 202.358 l 93.781 208.416 93.781 218.264 99.941 224.428 c 102.98 227.448
 106.957 228.967 110.934 228.967 c 114.91 228.967 118.887 227.448 121.926
 224.409 c 207.309 139.026 l 210.637 135.698 216.047 135.698 219.375 139.026
 c 221.031 140.698 221.867 142.881 221.867 145.065 c 221.867 147.252 221.031
 149.436 219.375 151.092 c 184.508 185.959 l 178.449 192.018 178.449 201.866
 184.609 208.026 c 190.652 214.069 200.535 214.069 206.574 208.026 c 241.441
 173.159 l 244.77 169.83 250.18 169.83 253.508 173.159 c 255.164 174.83 
256 177.014 256 179.202 c 256 181.385 255.164 183.569 253.578 185.155 c 
235.777 202.955 l 229.719 209.014 229.719 218.862 235.879 225.026 c 241.922
 231.065 251.805 231.065 257.844 225.026 c 275.695 207.174 l 275.711 207.155
 l 275.73 207.155 l 275.746 207.155 275.746 207.139 275.746 207.139 c 279.09
 203.983 284.363 204.034 287.641 207.311 c 290.969 210.639 290.969 216.049
 287.641 219.377 c 286.906 220.108 l 283.973 223.045 282.352 226.955 282.352
 231.1 c 282.352 235.248 283.957 239.139 286.992 242.178 c 293.051 248.217
 302.898 248.202 308.688 242.467 c 372.582 172.237 l 385.434 158.088 392.535
 139.76 392.535 120.627 c 392.535 100.147 384.562 80.897 370.074 66.405 
c h
370.074 66.405 m f
Q Q
showpage
%%Trailer
end restore
%%EOF
