%!PS-Adobe-3.0 EPSF-3.0
%%Creator: cairo 1.14.2 (http://cairographics.org)
%%CreationDate: Tue Nov 21 08:22:16 2017
%%Pages: 1
%%DocumentData: Clean7Bit
%%LanguageLevel: 2
%%BoundingBox: 17 -1 393 410
%%EndComments
%%BeginProlog
save
50 dict begin
/q { gsave } bind def
/Q { grestore } bind def
/cm { 6 array astore concat } bind def
/w { setlinewidth } bind def
/J { setlinecap } bind def
/j { setlinejoin } bind def
/M { setmiterlimit } bind def
/d { setdash } bind def
/m { moveto } bind def
/l { lineto } bind def
/c { curveto } bind def
/h { closepath } bind def
/re { exch dup neg 3 1 roll 5 3 roll moveto 0 rlineto
      0 exch rlineto 0 rlineto closepath } bind def
/S { stroke } bind def
/f { fill } bind def
/f* { eofill } bind def
/n { newpath } bind def
/W { clip } bind def
/W* { eoclip } bind def
/BT { } bind def
/ET { } bind def
/pdfmark where { pop globaldict /?pdfmark /exec load put }
    { globaldict begin /?pdfmark /pop load def /pdfmark
    /cleartomark load def end } ifelse
/BDC { mark 3 1 roll /BDC pdfmark } bind def
/EMC { mark /EMC pdfmark } bind def
/cairo_store_point { /cairo_point_y exch def /cairo_point_x exch def } def
/Tj { show currentpoint cairo_store_point } bind def
/TJ {
  {
    dup
    type /stringtype eq
    { show } { -0.001 mul 0 cairo_font_matrix dtransform rmoveto } ifelse
  } forall
  currentpoint cairo_store_point
} bind def
/cairo_selectfont { cairo_font_matrix aload pop pop pop 0 0 6 array astore
    cairo_font exch selectfont cairo_point_x cairo_point_y moveto } bind def
/Tf { pop /cairo_font exch def /cairo_font_matrix where
      { pop cairo_selectfont } if } bind def
/Td { matrix translate cairo_font_matrix matrix concatmatrix dup
      /cairo_font_matrix exch def dup 4 get exch 5 get cairo_store_point
      /cairo_font where { pop cairo_selectfont } if } bind def
/Tm { 2 copy 8 2 roll 6 array astore /cairo_font_matrix exch def
      cairo_store_point /cairo_font where { pop cairo_selectfont } if } bind def
/g { setgray } bind def
/rg { setrgbcolor } bind def
/d1 { setcachedevice } bind def
%%EndProlog
%%BeginSetup
%%EndSetup
%%Page: 1 1
%%BeginPageSetup
%%PageBoundingBox: 17 -1 393 410
%%EndPageSetup
q 17 -1 376 411 rectclip q
0 g
179.199 409.6 m 146.262 409.6 119.465 382.807 119.465 349.866 c 119.465
 316.928 146.262 290.131 179.199 290.131 c 212.141 290.131 238.934 316.928
 238.934 349.866 c 238.934 382.807 212.137 409.6 179.199 409.6 c h
179.199 307.202 m 155.684 307.202 136.535 326.35 136.535 349.866 c 136.535
 373.385 155.684 392.534 179.199 392.534 c 202.719 392.534 221.867 373.385
 221.867 349.866 c 221.867 326.35 202.719 307.202 179.199 307.202 c h
179.199 307.202 m f
202.309 338.827 m 187.734 353.401 l 187.734 375.467 l 187.734 380.178 183.91
 383.998 179.199 383.998 c 174.488 383.998 170.668 380.178 170.668 375.467
 c 170.668 349.866 l 170.668 347.596 171.57 345.428 173.16 343.827 c 190.227
 326.76 l 191.898 325.104 194.082 324.268 196.266 324.268 c 198.453 324.268
 200.637 325.104 202.309 326.76 c 205.637 330.088 205.637 335.498 202.309
 338.827 c h
202.309 338.827 m f
368.129 183.721 m 303.957 254.241 l 291.262 266.94 270.574 266.955 257.758
 254.139 c 253.695 250.077 250.934 245.213 249.5 240.026 c 236.734 249.788
 218.316 248.83 206.559 237.073 c 202.512 233.01 199.75 228.147 198.281 
222.975 c 185.516 232.737 167.117 231.78 155.359 220.006 c 151.383 216.03
 148.652 211.268 147.168 206.233 c 116.926 236.475 l 104.227 249.174 83.543
 249.19 70.727 236.373 c 58.012 223.674 58.012 202.991 70.727 190.276 c 
186.914 74.088 l 118 63.268 l 99.379 60.604 85.332 44.424 85.332 25.6 c 
85.332 11.487 96.82 -0.002 110.934 -0.002 c 271.855 -0.002 l 296.926 -0.002
 320.496 9.764 338.227 27.495 c 365.074 54.338 l 382.789 72.038 392.531 
95.592 392.531 120.627 c 392.535 144.01 383.863 166.416 368.129 183.721 
c h
353.008 66.405 m 326.16 39.561 l 311.656 25.053 292.371 17.069 271.855 
17.069 c 110.934 17.069 l 106.223 17.069 102.398 20.889 102.398 25.6 c 102.398
 35.979 110.148 44.905 120.523 46.405 c 206.113 59.854 l 209.289 60.35 211.898
 62.584 212.906 65.639 c 213.898 68.678 213.094 72.038 210.824 74.307 c 
82.773 202.358 l 76.715 208.416 76.715 218.264 82.875 224.428 c 85.914 227.448
 89.891 228.967 93.867 228.967 c 97.844 228.967 101.82 227.448 104.859 224.409
 c 190.242 139.026 l 193.57 135.698 198.98 135.698 202.309 139.026 c 203.965
 140.698 204.801 142.881 204.801 145.065 c 204.801 147.252 203.965 149.436
 202.309 151.092 c 167.441 185.959 l 161.383 192.018 161.383 201.866 167.543
 208.026 c 173.586 214.069 183.469 214.069 189.508 208.026 c 224.375 173.159
 l 227.703 169.83 233.113 169.83 236.441 173.159 c 238.098 174.83 238.934
 177.014 238.934 179.202 c 238.934 181.385 238.098 183.569 236.512 185.155
 c 218.711 202.955 l 212.652 209.014 212.652 218.862 218.812 225.026 c 224.855
 231.065 234.738 231.065 240.777 225.026 c 258.578 207.225 l 258.613 207.205
 258.598 207.205 258.598 207.205 c 258.629 207.174 l 258.645 207.155 l 258.664
 207.155 l 258.68 207.155 258.68 207.139 258.68 207.139 c 262.023 203.983
 267.297 204.034 270.574 207.311 c 273.902 210.639 273.902 216.049 270.574
 219.377 c 269.84 220.108 l 266.906 223.045 265.285 226.955 265.285 231.1
 c 265.285 235.248 266.891 239.139 269.926 242.178 c 275.984 248.217 285.832
 248.202 291.621 242.467 c 355.516 172.237 l 368.367 158.088 375.469 139.76
 375.469 120.627 c 375.465 100.147 367.496 80.897 353.008 66.405 c h
353.008 66.405 m f
163.773 244.854 m 151.348 272.35 123.902 290.131 93.867 290.131 c 51.523
 290.131 17.066 255.674 17.066 213.334 c 17.066 183.295 34.852 155.854 62.344
 143.409 c 63.488 142.897 64.684 142.659 65.859 142.659 c 69.102 142.659
 72.211 144.538 73.645 147.678 c 75.57 151.979 73.66 157.03 69.375 158.975
 c 47.977 168.651 34.133 189.987 34.133 213.334 c 34.133 246.272 60.93 273.065
 93.867 273.065 c 117.215 273.065 138.547 259.225 148.207 237.823 c 150.152
 233.522 155.223 231.612 159.508 233.557 c 163.805 235.502 165.719 240.553
 163.773 244.854 c h
163.773 244.854 m f
Q Q
showpage
%%Trailer
end restore
%%EOF
