%!PS-Adobe-3.0 EPSF-3.0
%%Creator: cairo 1.14.2 (http://cairographics.org)
%%CreationDate: Tue Nov 21 08:22:16 2017
%%Pages: 1
%%DocumentData: Clean7Bit
%%LanguageLevel: 2
%%BoundingBox: 0 7 329 321
%%EndComments
%%BeginProlog
save
50 dict begin
/q { gsave } bind def
/Q { grestore } bind def
/cm { 6 array astore concat } bind def
/w { setlinewidth } bind def
/J { setlinecap } bind def
/j { setlinejoin } bind def
/M { setmiterlimit } bind def
/d { setdash } bind def
/m { moveto } bind def
/l { lineto } bind def
/c { curveto } bind def
/h { closepath } bind def
/re { exch dup neg 3 1 roll 5 3 roll moveto 0 rlineto
      0 exch rlineto 0 rlineto closepath } bind def
/S { stroke } bind def
/f { fill } bind def
/f* { eofill } bind def
/n { newpath } bind def
/W { clip } bind def
/W* { eoclip } bind def
/BT { } bind def
/ET { } bind def
/pdfmark where { pop globaldict /?pdfmark /exec load put }
    { globaldict begin /?pdfmark /pop load def /pdfmark
    /cleartomark load def end } ifelse
/BDC { mark 3 1 roll /BDC pdfmark } bind def
/EMC { mark /EMC pdfmark } bind def
/cairo_store_point { /cairo_point_y exch def /cairo_point_x exch def } def
/Tj { show currentpoint cairo_store_point } bind def
/TJ {
  {
    dup
    type /stringtype eq
    { show } { -0.001 mul 0 cairo_font_matrix dtransform rmoveto } ifelse
  } forall
  currentpoint cairo_store_point
} bind def
/cairo_selectfont { cairo_font_matrix aload pop pop pop 0 0 6 array astore
    cairo_font exch selectfont cairo_point_x cairo_point_y moveto } bind def
/Tf { pop /cairo_font exch def /cairo_font_matrix where
      { pop cairo_selectfont } if } bind def
/Td { matrix translate cairo_font_matrix matrix concatmatrix dup
      /cairo_font_matrix exch def dup 4 get exch 5 get cairo_store_point
      /cairo_font where { pop cairo_selectfont } if } bind def
/Tm { 2 copy 8 2 roll 6 array astore /cairo_font_matrix exch def
      cairo_store_point /cairo_font where { pop cairo_selectfont } if } bind def
/g { setgray } bind def
/rg { setrgbcolor } bind def
/d1 { setcachedevice } bind def
%%EndProlog
%%BeginSetup
%%EndSetup
%%Page: 1 1
%%BeginPageSetup
%%PageBoundingBox: 0 7 329 321
%%EndPageSetup
q 0 7 329 314 rectclip q
0 g
296.004 223.923 m 211.113 308.814 l 196.027 323.92 171.469 323.92 156.383
 308.814 c 150.816 303.267 147.164 296.322 145.73 288.795 c 130.559 302.552
 107.008 302.123 92.383 287.482 c 86.086 281.166 82.398 273.213 81.375 264.97
 c 66.934 272.052 48.93 269.631 36.914 257.615 c 23.637 244.318 22.051 223.701
 32.152 208.666 c 24.285 207.353 17.051 203.631 11.316 197.881 c -3.773 
182.795 -3.773 158.236 11.316 143.146 c 38.535 115.927 l 38.535 85.326 l
 38.535 42.982 72.996 8.525 115.336 8.525 c 199.457 8.525 l 224.531 8.525
 248.098 18.287 265.832 36.017 c 296.004 66.193 l 317.062 87.252 328.668
 115.259 328.668 145.056 c 328.668 174.857 317.066 202.865 296.004 223.923
 c h
283.938 78.259 m 253.766 48.088 l 239.258 33.58 219.973 25.595 199.457 
25.595 c 115.336 25.595 l 82.398 25.595 55.602 52.388 55.602 85.326 c 55.602
 98.861 l 75.16 79.287 l 78.488 75.959 83.898 75.959 87.227 79.287 c 88.883
 80.959 89.719 83.142 89.719 85.326 c 89.719 87.513 88.902 89.697 87.227
 91.369 c 23.383 155.216 l 19.301 159.295 17.051 164.74 17.051 170.506 c
 17.051 176.275 19.301 181.72 23.383 185.798 c 31.574 193.974 45.809 193.974
 53.98 185.798 c 75.164 164.619 l 78.492 161.291 83.902 161.291 87.23 164.619
 c 88.883 166.291 89.723 168.474 89.723 170.662 c 89.723 172.845 88.902 
175.029 87.23 176.701 c 48.98 214.947 l 40.551 223.381 40.551 237.119 48.98
 245.548 c 57.414 253.982 71.152 253.982 79.582 245.548 c 117.828 207.287
 l 121.156 203.959 126.566 203.959 129.895 207.287 c 131.57 208.959 132.387
 211.142 132.387 213.33 c 132.387 215.513 131.57 217.697 129.895 219.369
 c 104.449 244.814 l 100.371 248.896 98.117 254.338 98.117 260.107 c 98.117
 265.877 100.371 271.322 104.449 275.4 c 112.879 283.83 126.621 283.83 135.051
 275.4 c 160.496 249.955 l 163.824 246.627 169.234 246.627 172.562 249.955
 c 174.219 251.627 175.055 253.81 175.055 255.994 c 175.055 258.181 174.234
 260.365 172.562 262.037 c 168.449 266.15 l 160.02 274.58 160.02 288.318
 168.449 296.752 c 176.641 304.927 190.875 304.927 199.051 296.752 c 283.941
 211.861 l 301.773 194.025 311.605 170.287 311.605 145.06 c 311.605 119.838
 301.773 96.095 283.938 78.259 c h
283.938 78.259 m f
Q Q
showpage
%%Trailer
end restore
%%EOF
