%!PS-Adobe-3.0 EPSF-3.0
%%Creator: cairo 1.14.2 (http://cairographics.org)
%%CreationDate: Tue Nov 21 08:22:15 2017
%%Pages: 1
%%DocumentData: Clean7Bit
%%LanguageLevel: 2
%%BoundingBox: 0 7 410 402
%%EndComments
%%BeginProlog
save
50 dict begin
/q { gsave } bind def
/Q { grestore } bind def
/cm { 6 array astore concat } bind def
/w { setlinewidth } bind def
/J { setlinecap } bind def
/j { setlinejoin } bind def
/M { setmiterlimit } bind def
/d { setdash } bind def
/m { moveto } bind def
/l { lineto } bind def
/c { curveto } bind def
/h { closepath } bind def
/re { exch dup neg 3 1 roll 5 3 roll moveto 0 rlineto
      0 exch rlineto 0 rlineto closepath } bind def
/S { stroke } bind def
/f { fill } bind def
/f* { eofill } bind def
/n { newpath } bind def
/W { clip } bind def
/W* { eoclip } bind def
/BT { } bind def
/ET { } bind def
/pdfmark where { pop globaldict /?pdfmark /exec load put }
    { globaldict begin /?pdfmark /pop load def /pdfmark
    /cleartomark load def end } ifelse
/BDC { mark 3 1 roll /BDC pdfmark } bind def
/EMC { mark /EMC pdfmark } bind def
/cairo_store_point { /cairo_point_y exch def /cairo_point_x exch def } def
/Tj { show currentpoint cairo_store_point } bind def
/TJ {
  {
    dup
    type /stringtype eq
    { show } { -0.001 mul 0 cairo_font_matrix dtransform rmoveto } ifelse
  } forall
  currentpoint cairo_store_point
} bind def
/cairo_selectfont { cairo_font_matrix aload pop pop pop 0 0 6 array astore
    cairo_font exch selectfont cairo_point_x cairo_point_y moveto } bind def
/Tf { pop /cairo_font exch def /cairo_font_matrix where
      { pop cairo_selectfont } if } bind def
/Td { matrix translate cairo_font_matrix matrix concatmatrix dup
      /cairo_font_matrix exch def dup 4 get exch 5 get cairo_store_point
      /cairo_font where { pop cairo_selectfont } if } bind def
/Tm { 2 copy 8 2 roll 6 array astore /cairo_font_matrix exch def
      cairo_store_point /cairo_font where { pop cairo_selectfont } if } bind def
/g { setgray } bind def
/rg { setrgbcolor } bind def
/d1 { setcachedevice } bind def
%%EndProlog
%%BeginSetup
%%EndSetup
%%Page: 1 1
%%BeginPageSetup
%%PageBoundingBox: 0 7 410 402
%%EndPageSetup
q 0 7 410 395 rectclip q
0 g
25.602 264.534 m 11.484 264.534 0 253.049 0 238.932 c 0 224.819 11.484 
213.334 25.602 213.334 c 39.715 213.334 51.199 224.819 51.199 238.932 c 
51.199 253.045 39.715 264.534 25.602 264.534 c h
25.602 230.401 m 20.906 230.401 17.066 234.225 17.066 238.932 c 17.066 
243.643 20.906 247.467 25.602 247.467 c 30.293 247.467 34.133 243.643 34.133
 238.932 c 34.133 234.225 30.293 230.401 25.602 230.401 c h
25.602 230.401 m f
25.602 332.799 m 11.484 332.799 0 321.315 0 307.202 c 0 293.084 11.484 
281.6 25.602 281.6 c 39.715 281.6 51.199 293.084 51.199 307.202 c 51.199
 321.315 39.715 332.799 25.602 332.799 c h
25.602 298.666 m 20.906 298.666 17.066 302.491 17.066 307.202 c 17.066 
311.909 20.906 315.733 25.602 315.733 c 30.293 315.733 34.133 311.909 34.133
 307.202 c 34.133 302.491 30.293 298.666 25.602 298.666 c h
25.602 298.666 m f
25.602 401.065 m 11.484 401.065 0 389.58 0 375.467 c 0 361.354 11.484 349.866
 25.602 349.866 c 39.715 349.866 51.199 361.354 51.199 375.467 c 51.199 
389.58 39.715 401.065 25.602 401.065 c h
25.602 366.932 m 20.906 366.932 17.066 370.756 17.066 375.467 c 17.066 
380.178 20.906 383.998 25.602 383.998 c 30.293 383.998 34.133 380.178 34.133
 375.467 c 34.133 370.756 30.293 366.932 25.602 366.932 c h
25.602 366.932 m f
93.867 332.799 m 79.754 332.799 68.266 321.315 68.266 307.202 c 68.266 
293.084 79.754 281.6 93.867 281.6 c 107.98 281.6 119.465 293.084 119.465
 307.202 c 119.465 321.315 107.98 332.799 93.867 332.799 c h
93.867 298.666 m 89.172 298.666 85.332 302.491 85.332 307.202 c 85.332 
311.909 89.172 315.733 93.867 315.733 c 98.559 315.733 102.398 311.909 102.398
 307.202 c 102.398 302.491 98.559 298.666 93.867 298.666 c h
93.867 298.666 m f
93.867 401.065 m 79.754 401.065 68.266 389.58 68.266 375.467 c 68.266 361.354
 79.754 349.866 93.867 349.866 c 107.98 349.866 119.465 361.354 119.465 
375.467 c 119.465 389.58 107.98 401.065 93.867 401.065 c h
93.867 366.932 m 89.172 366.932 85.332 370.756 85.332 375.467 c 85.332 
380.178 89.172 383.998 93.867 383.998 c 98.559 383.998 102.398 380.178 102.398
 375.467 c 102.398 370.756 98.559 366.932 93.867 366.932 c h
93.867 366.932 m f
162.133 332.799 m 148.02 332.799 136.535 321.315 136.535 307.202 c 136.535
 293.084 148.02 281.6 162.133 281.6 c 176.246 281.6 187.734 293.084 187.734
 307.202 c 187.734 321.315 176.246 332.799 162.133 332.799 c h
162.133 298.666 m 157.441 298.666 153.602 302.491 153.602 307.202 c 153.602
 311.909 157.441 315.733 162.133 315.733 c 166.828 315.733 170.668 311.909
 170.668 307.202 c 170.668 302.491 166.828 298.666 162.133 298.666 c h
162.133 298.666 m f
162.133 264.534 m 148.02 264.534 136.535 253.049 136.535 238.932 c 136.535
 224.819 148.02 213.334 162.133 213.334 c 176.246 213.334 187.734 224.819
 187.734 238.932 c 187.734 253.045 176.246 264.534 162.133 264.534 c h
162.133 230.401 m 157.441 230.401 153.602 234.225 153.602 238.932 c 153.602
 243.643 157.441 247.467 162.133 247.467 c 166.828 247.467 170.668 243.643
 170.668 238.932 c 170.668 234.225 166.828 230.401 162.133 230.401 c h
162.133 230.401 m f
111.957 257.026 m 101.992 267.006 85.727 267.006 75.758 257.026 c 65.773
 247.041 65.773 230.811 75.758 220.827 c 77.434 219.17 79.617 218.334 81.801
 218.334 c 83.984 218.334 86.168 219.17 87.824 220.827 c 91.152 224.155 
91.152 229.565 87.824 232.893 c 84.496 236.221 84.496 241.631 87.824 244.959
 c 91.152 248.288 96.562 248.288 99.891 244.959 c 103.219 241.631 108.629
 241.631 111.957 244.959 c 115.285 248.288 115.285 253.698 111.957 257.026
 c h
111.957 257.026 m f
162.133 401.065 m 148.02 401.065 136.535 389.58 136.535 375.467 c 136.535
 361.354 148.02 349.866 162.133 349.866 c 176.246 349.866 187.734 361.354
 187.734 375.467 c 187.734 389.58 176.246 401.065 162.133 401.065 c h
162.133 366.932 m 157.441 366.932 153.602 370.756 153.602 375.467 c 153.602
 380.178 157.441 383.998 162.133 383.998 c 166.828 383.998 170.668 380.178
 170.668 375.467 c 170.668 370.756 166.828 366.932 162.133 366.932 c h
162.133 366.932 m f
385.195 192.272 m 321.008 262.776 l 308.703 275.116 287.332 275.202 274.809
 262.674 c 270.762 258.627 267.996 253.764 266.562 248.577 c 254.105 258.135
 235.094 257.092 223.605 245.608 c 219.562 241.561 216.797 236.698 215.328
 231.526 c 202.906 241.084 183.875 240.01 172.406 228.541 c 168.449 224.565
 165.719 219.803 164.23 214.768 c 133.988 245.01 l 121.273 257.705 100.625
 257.741 87.773 244.909 c 75.059 232.209 75.059 211.526 87.773 198.811 c
 203.961 82.62 l 135.082 71.799 l 116.445 69.135 102.398 52.959 102.398 
34.135 c 102.398 20.018 113.887 8.534 128 8.534 c 288.922 8.534 l 313.977
 8.534 337.543 18.295 355.312 36.045 c 382.141 62.889 l 399.855 80.588 409.602
 104.139 409.602 129.178 c 409.602 152.561 400.93 174.967 385.195 192.272
 c h
370.074 74.94 m 343.246 48.096 l 328.723 33.588 309.418 25.6 288.922 25.6
 c 128 25.6 l 123.305 25.6 119.465 29.424 119.465 34.135 c 119.465 44.51
 127.215 53.436 137.59 54.936 c 223.18 68.385 l 226.355 68.881 228.965 71.116
 229.973 74.17 c 230.965 77.209 230.16 80.573 227.891 82.842 c 99.84 210.893
 l 93.797 216.952 93.797 226.799 99.941 232.959 c 102.98 235.979 106.957
 237.498 110.934 237.498 c 114.91 237.498 118.887 235.979 121.941 232.823
 c 172.031 182.733 l 172.152 182.596 172.305 182.459 172.441 182.323 c 207.324
 147.455 l 210.652 144.127 216.062 144.127 219.391 147.455 c 222.719 150.784
 222.719 156.194 219.391 159.522 c 184.219 194.698 l 178.465 200.772 178.57
 210.416 184.609 216.475 c 190.48 222.311 200.688 222.346 206.559 216.475
 c 223.336 199.698 l 223.438 199.596 223.523 199.495 223.625 199.409 c 241.441
 181.608 l 244.77 178.28 250.18 178.28 253.508 181.608 c 256.836 184.936
 256.836 190.346 253.508 193.674 c 235.488 211.678 l 229.668 217.756 229.734
 227.463 235.812 233.557 c 241.684 239.393 251.887 239.428 257.758 233.557
 c 275.578 215.756 l 275.594 215.741 275.594 215.721 275.609 215.721 c 275.629
 215.705 l 275.816 215.62 275.664 215.69 275.664 215.69 c 275.664 215.67
 275.68 215.67 275.68 215.67 c 275.695 215.67 l 275.695 215.67 275.695 215.655
 275.711 215.655 c 275.73 215.639 l 275.746 215.623 l 275.781 215.623 l 
279.16 212.483 284.414 212.565 287.66 215.842 c 290.969 219.17 290.969 224.565
 287.641 227.893 c 286.617 228.916 l 280.848 234.991 280.934 244.651 286.992
 250.709 c 292.848 256.545 303.344 256.291 308.668 251.002 c 372.566 180.772
 l 385.449 166.604 392.531 148.295 392.531 129.163 c 392.535 108.698 384.547
 89.428 370.074 74.94 c h
370.074 74.94 m f
Q Q
showpage
%%Trailer
end restore
%%EOF
