%!PS-Adobe-3.0 EPSF-3.0
%%Creator: cairo 1.14.2 (http://cairographics.org)
%%CreationDate: Tue Nov 21 08:22:15 2017
%%Pages: 1
%%DocumentData: Clean7Bit
%%LanguageLevel: 2
%%BoundingBox: 42 -1 367 410
%%EndComments
%%BeginProlog
save
50 dict begin
/q { gsave } bind def
/Q { grestore } bind def
/cm { 6 array astore concat } bind def
/w { setlinewidth } bind def
/J { setlinecap } bind def
/j { setlinejoin } bind def
/M { setmiterlimit } bind def
/d { setdash } bind def
/m { moveto } bind def
/l { lineto } bind def
/c { curveto } bind def
/h { closepath } bind def
/re { exch dup neg 3 1 roll 5 3 roll moveto 0 rlineto
      0 exch rlineto 0 rlineto closepath } bind def
/S { stroke } bind def
/f { fill } bind def
/f* { eofill } bind def
/n { newpath } bind def
/W { clip } bind def
/W* { eoclip } bind def
/BT { } bind def
/ET { } bind def
/pdfmark where { pop globaldict /?pdfmark /exec load put }
    { globaldict begin /?pdfmark /pop load def /pdfmark
    /cleartomark load def end } ifelse
/BDC { mark 3 1 roll /BDC pdfmark } bind def
/EMC { mark /EMC pdfmark } bind def
/cairo_store_point { /cairo_point_y exch def /cairo_point_x exch def } def
/Tj { show currentpoint cairo_store_point } bind def
/TJ {
  {
    dup
    type /stringtype eq
    { show } { -0.001 mul 0 cairo_font_matrix dtransform rmoveto } ifelse
  } forall
  currentpoint cairo_store_point
} bind def
/cairo_selectfont { cairo_font_matrix aload pop pop pop 0 0 6 array astore
    cairo_font exch selectfont cairo_point_x cairo_point_y moveto } bind def
/Tf { pop /cairo_font exch def /cairo_font_matrix where
      { pop cairo_selectfont } if } bind def
/Td { matrix translate cairo_font_matrix matrix concatmatrix dup
      /cairo_font_matrix exch def dup 4 get exch 5 get cairo_store_point
      /cairo_font where { pop cairo_selectfont } if } bind def
/Tm { 2 copy 8 2 roll 6 array astore /cairo_font_matrix exch def
      cairo_store_point /cairo_font where { pop cairo_selectfont } if } bind def
/g { setgray } bind def
/rg { setrgbcolor } bind def
/d1 { setcachedevice } bind def
%%EndProlog
%%BeginSetup
%%EndSetup
%%Page: 1 1
%%BeginPageSetup
%%PageBoundingBox: 42 -1 367 410
%%EndPageSetup
q 42 -1 325 411 rectclip q
0 g
256 341.334 m 221.867 341.334 l 217.156 341.334 213.332 337.51 213.332 
332.799 c 213.332 328.088 217.156 324.268 221.867 324.268 c 256 324.268 
l 260.711 324.268 264.535 328.088 264.535 332.799 c 264.535 337.51 260.711
 341.334 256 341.334 c h
256 341.334 m f
256 409.6 m 221.867 409.6 l 217.156 409.6 213.332 405.776 213.332 401.065
 c 213.332 396.358 217.156 392.534 221.867 392.534 c 256 392.534 l 260.711
 392.534 264.535 396.358 264.535 401.065 c 264.535 405.776 260.711 409.6
 256 409.6 c h
256 409.6 m f
170.668 341.334 m 136.531 341.334 l 131.824 341.334 128 337.51 128 332.799
 c 128 328.088 131.824 324.268 136.535 324.268 c 170.668 324.268 l 175.379
 324.268 179.199 328.088 179.199 332.799 c 179.199 337.51 175.375 341.334
 170.668 341.334 c h
170.668 341.334 m f
170.668 273.065 m 136.531 273.065 l 131.824 273.065 128 269.245 128 264.534
 c 128 259.823 131.824 255.998 136.535 255.998 c 170.668 255.998 l 175.379
 255.998 179.199 259.823 179.199 264.534 c 179.199 269.245 175.375 273.065
 170.668 273.065 c h
170.668 273.065 m f
170.668 409.6 m 136.531 409.6 l 131.824 409.6 128 405.776 128 401.065 c
 128 396.358 131.824 392.534 136.535 392.534 c 170.668 392.534 l 175.379
 392.534 179.199 396.358 179.199 401.065 c 179.199 405.776 175.375 409.6
 170.668 409.6 c h
170.668 409.6 m f
85.332 341.334 m 51.199 341.334 l 46.488 341.334 42.668 337.51 42.668 332.799
 c 42.668 328.088 46.488 324.268 51.199 324.268 c 85.332 324.268 l 90.043
 324.268 93.867 328.088 93.867 332.799 c 93.867 337.51 90.043 341.334 85.332
 341.334 c h
85.332 341.334 m f
85.332 273.065 m 51.199 273.065 l 46.488 273.065 42.668 269.245 42.668 
264.534 c 42.668 259.823 46.488 255.998 51.199 255.998 c 85.332 255.998 
l 90.043 255.998 93.867 259.823 93.867 264.534 c 93.867 269.245 90.043 273.065
 85.332 273.065 c h
85.332 273.065 m f
85.332 409.6 m 51.199 409.6 l 46.488 409.6 42.668 405.776 42.668 401.065
 c 42.668 396.358 46.488 392.534 51.199 392.534 c 85.332 392.534 l 90.043
 392.534 93.867 396.358 93.867 401.069 c 93.867 405.776 90.043 409.6 85.332
 409.6 c h
85.332 409.6 m f
341.332 204.799 m 338.004 204.799 334.812 204.151 331.895 203.006 c 328.926
 213.862 318.977 221.866 307.199 221.866 c 303.871 221.866 300.68 221.217
 297.762 220.073 c 294.793 230.928 284.844 238.932 273.066 238.932 c 270.082
 238.932 267.195 238.42 264.535 237.483 c 264.535 264.534 l 264.535 278.647
 253.047 290.131 238.934 290.131 c 224.82 290.131 213.336 278.647 213.316
 264.534 c 213.316 161.006 l 199.102 170.479 l 182.016 181.877 159.062 177.92
 146.723 161.518 c 139.352 151.67 140.031 137.932 148.344 128.854 c 217.43
 53.502 l 228.711 41.198 244.754 34.131 261.445 34.131 c 290.133 34.131 
l 332.477 34.131 366.934 68.592 366.934 110.932 c 366.934 179.202 l 366.934
 193.315 355.445 204.799 341.332 204.799 c h
349.867 110.932 m 349.867 77.995 323.07 51.202 290.133 51.202 c 261.445
 51.202 l 249.531 51.202 238.062 56.233 229.992 65.026 c 160.922 140.389
 l 158.141 143.428 157.918 148.002 160.395 151.28 c 164.609 156.913 171.109
 159.916 177.699 159.916 c 181.812 159.916 185.977 158.737 189.645 156.295
 c 217.121 137.967 l 219.77 136.209 223.113 136.073 225.895 137.541 c 228.66
 139.026 230.398 141.909 230.398 145.069 c 230.398 264.534 l 230.398 269.245
 234.238 273.069 238.934 273.069 c 243.629 273.069 247.469 269.245 247.469
 264.534 c 247.469 170.666 l 247.469 165.955 251.289 162.135 256 162.135
 c 260.711 162.135 264.535 165.955 264.535 170.666 c 264.535 213.334 l 264.535
 218.045 268.375 221.866 273.066 221.866 c 277.762 221.866 281.602 218.045
 281.602 213.334 c 281.602 170.666 l 281.602 165.955 285.426 162.135 290.137
 162.135 c 294.844 162.135 298.668 165.955 298.668 170.666 c 298.668 196.268
 l 298.668 200.979 302.508 204.799 307.203 204.799 c 311.895 204.799 315.734
 200.979 315.734 196.268 c 315.734 170.666 l 315.734 165.955 319.559 162.135
 324.27 162.135 c 328.98 162.135 332.805 165.955 332.805 170.666 c 332.805
 179.202 l 332.805 183.909 336.645 187.733 341.336 187.733 c 346.031 187.733
 349.871 183.909 349.871 179.202 c 349.871 110.932 l h
349.867 110.932 m f
341.332 51.202 m 221.867 51.202 l 217.156 51.202 213.332 47.377 213.332
 42.666 c 213.332 8.534 l 213.332 3.823 217.156 -0.002 221.867 -0.002 c 
226.578 -0.002 230.398 3.823 230.398 8.534 c 230.398 34.135 l 332.801 34.135
 l 332.801 8.534 l 332.801 3.823 336.625 -0.002 341.332 -0.002 c 346.043
 -0.002 349.867 3.823 349.867 8.534 c 349.867 42.666 l 349.867 47.377 346.043
 51.202 341.332 51.202 c h
341.332 51.202 m f
Q Q
showpage
%%Trailer
end restore
%%EOF
