%!PS-Adobe-3.0 EPSF-3.0
%%Creator: cairo 1.14.2 (http://cairographics.org)
%%CreationDate: Tue Nov 21 08:22:15 2017
%%Pages: 1
%%DocumentData: Clean7Bit
%%LanguageLevel: 2
%%BoundingBox: 25 -1 367 393
%%EndComments
%%BeginProlog
save
50 dict begin
/q { gsave } bind def
/Q { grestore } bind def
/cm { 6 array astore concat } bind def
/w { setlinewidth } bind def
/J { setlinecap } bind def
/j { setlinejoin } bind def
/M { setmiterlimit } bind def
/d { setdash } bind def
/m { moveto } bind def
/l { lineto } bind def
/c { curveto } bind def
/h { closepath } bind def
/re { exch dup neg 3 1 roll 5 3 roll moveto 0 rlineto
      0 exch rlineto 0 rlineto closepath } bind def
/S { stroke } bind def
/f { fill } bind def
/f* { eofill } bind def
/n { newpath } bind def
/W { clip } bind def
/W* { eoclip } bind def
/BT { } bind def
/ET { } bind def
/pdfmark where { pop globaldict /?pdfmark /exec load put }
    { globaldict begin /?pdfmark /pop load def /pdfmark
    /cleartomark load def end } ifelse
/BDC { mark 3 1 roll /BDC pdfmark } bind def
/EMC { mark /EMC pdfmark } bind def
/cairo_store_point { /cairo_point_y exch def /cairo_point_x exch def } def
/Tj { show currentpoint cairo_store_point } bind def
/TJ {
  {
    dup
    type /stringtype eq
    { show } { -0.001 mul 0 cairo_font_matrix dtransform rmoveto } ifelse
  } forall
  currentpoint cairo_store_point
} bind def
/cairo_selectfont { cairo_font_matrix aload pop pop pop 0 0 6 array astore
    cairo_font exch selectfont cairo_point_x cairo_point_y moveto } bind def
/Tf { pop /cairo_font exch def /cairo_font_matrix where
      { pop cairo_selectfont } if } bind def
/Td { matrix translate cairo_font_matrix matrix concatmatrix dup
      /cairo_font_matrix exch def dup 4 get exch 5 get cairo_store_point
      /cairo_font where { pop cairo_selectfont } if } bind def
/Tm { 2 copy 8 2 roll 6 array astore /cairo_font_matrix exch def
      cairo_store_point /cairo_font where { pop cairo_selectfont } if } bind def
/g { setgray } bind def
/rg { setrgbcolor } bind def
/d1 { setcachedevice } bind def
%%EndProlog
%%BeginSetup
%%EndSetup
%%Page: 1 1
%%BeginPageSetup
%%PageBoundingBox: 25 -1 367 393
%%EndPageSetup
q 25 -1 342 394 rectclip q
0 g
179.195 375.467 m 141.543 375.467 110.926 344.85 110.926 307.202 c 110.926
 295.819 113.898 284.705 119.75 274.178 c 121.305 271.377 124.223 269.791
 127.207 269.791 c 128.625 269.791 130.043 270.131 131.371 270.866 c 135.484
 273.155 136.969 278.358 134.668 282.471 c 130.246 290.424 127.992 298.752
 127.992 307.202 c 127.992 335.428 150.965 358.401 179.195 358.401 c 207.422
 358.401 230.395 335.428 230.395 307.202 c 230.395 303.139 229.746 298.889
 228.363 293.803 c 227.133 289.264 229.812 284.569 234.352 283.323 c 238.977
 281.995 243.621 284.776 244.832 289.315 c 246.625 295.901 247.461 301.584
 247.461 307.202 c 247.461 344.85 216.844 375.467 179.195 375.467 c h
179.195 375.467 m f
68.262 392.534 m 63.551 392.534 59.727 388.709 59.727 383.998 c 59.727 
247.467 l 59.727 242.756 63.551 238.932 68.262 238.932 c 72.969 238.932 
76.793 242.756 76.793 247.467 c 76.793 383.998 l 76.793 388.709 72.969 392.534
 68.262 392.534 c h
68.262 392.534 m f
108.434 355.893 m 74.301 390.026 l 70.973 393.354 65.562 393.354 62.234
 390.026 c 28.102 355.893 l 24.773 352.565 24.773 347.155 28.102 343.827
 c 31.43 340.498 36.84 340.498 40.168 343.827 c 68.262 371.932 l 96.352 
343.827 l 98.027 342.17 100.211 341.334 102.395 341.334 c 104.578 341.334
 106.762 342.17 108.438 343.827 c 111.762 347.155 111.762 352.565 108.434
 355.893 c h
108.434 355.893 m f
332.793 221.866 m 325.777 221.866 319.242 219.733 313.816 216.1 c 309.141
 229.377 296.457 238.932 281.594 238.932 c 274.578 238.932 268.043 236.799
 262.613 233.166 c 257.938 246.444 245.258 255.998 230.395 255.998 c 224.18
 255.998 218.344 254.327 213.328 251.409 c 213.328 307.202 l 213.328 326.026
 198.02 341.334 179.195 341.334 c 160.367 341.334 145.059 326.026 145.059
 307.202 c 145.059 162.135 l 115.398 184.37 l 97.82 197.565 72.781 195.788
 57.219 180.241 c 47.234 170.256 47.234 154.026 57.219 144.041 c 178.75 
22.495 l 193.258 7.987 212.559 -0.002 233.074 -0.002 c 273.062 -0.002 l 
324.809 -0.002 366.926 42.104 366.926 93.866 c 366.926 187.733 l 366.926
 206.557 351.617 221.866 332.793 221.866 c h
349.859 93.866 m 349.859 51.526 315.402 17.069 273.059 17.069 c 233.074
 17.069 l 217.098 17.069 202.098 23.28 190.816 34.561 c 69.285 156.108 l
 65.957 159.436 65.957 164.846 69.285 168.174 c 74.574 173.448 81.641 176.163
 88.738 176.163 c 94.508 176.163 100.312 174.37 105.176 170.717 c 148.473
 138.241 l 151.051 136.295 154.531 135.987 157.418 137.44 c 160.301 138.889
 162.129 141.842 162.129 145.069 c 162.129 307.202 l 162.129 316.604 169.773
 324.268 179.195 324.268 c 188.613 324.268 196.262 316.604 196.262 307.202
 c 196.262 179.202 l 196.262 174.491 200.082 170.666 204.793 170.666 c 209.504
 170.666 213.328 174.491 213.328 179.202 c 213.328 221.866 l 213.328 231.272
 220.973 238.932 230.395 238.932 c 239.812 238.932 247.461 231.268 247.461
 221.866 c 247.461 179.202 l 247.461 174.491 251.281 170.666 255.992 170.666
 c 260.703 170.666 264.527 174.491 264.527 179.202 c 264.527 204.799 l 264.527
 214.205 272.172 221.866 281.594 221.866 c 291.016 221.866 298.66 214.202
 298.66 204.799 c 298.66 179.202 l 298.66 174.491 302.484 170.666 307.195
 170.666 c 311.902 170.666 315.727 174.491 315.727 179.202 c 315.727 187.733
 l 315.727 197.139 323.371 204.799 332.793 204.799 c 342.215 204.799 349.859
 197.135 349.859 187.733 c h
349.859 93.866 m f
Q Q
showpage
%%Trailer
end restore
%%EOF
