%!PS-Adobe-3.0 EPSF-3.0
%%Creator: cairo 1.14.2 (http://cairographics.org)
%%CreationDate: Tue Nov 21 08:22:15 2017
%%Pages: 1
%%DocumentData: Clean7Bit
%%LanguageLevel: 2
%%BoundingBox: 68 -1 342 410
%%EndComments
%%BeginProlog
save
50 dict begin
/q { gsave } bind def
/Q { grestore } bind def
/cm { 6 array astore concat } bind def
/w { setlinewidth } bind def
/J { setlinecap } bind def
/j { setlinejoin } bind def
/M { setmiterlimit } bind def
/d { setdash } bind def
/m { moveto } bind def
/l { lineto } bind def
/c { curveto } bind def
/h { closepath } bind def
/re { exch dup neg 3 1 roll 5 3 roll moveto 0 rlineto
      0 exch rlineto 0 rlineto closepath } bind def
/S { stroke } bind def
/f { fill } bind def
/f* { eofill } bind def
/n { newpath } bind def
/W { clip } bind def
/W* { eoclip } bind def
/BT { } bind def
/ET { } bind def
/pdfmark where { pop globaldict /?pdfmark /exec load put }
    { globaldict begin /?pdfmark /pop load def /pdfmark
    /cleartomark load def end } ifelse
/BDC { mark 3 1 roll /BDC pdfmark } bind def
/EMC { mark /EMC pdfmark } bind def
/cairo_store_point { /cairo_point_y exch def /cairo_point_x exch def } def
/Tj { show currentpoint cairo_store_point } bind def
/TJ {
  {
    dup
    type /stringtype eq
    { show } { -0.001 mul 0 cairo_font_matrix dtransform rmoveto } ifelse
  } forall
  currentpoint cairo_store_point
} bind def
/cairo_selectfont { cairo_font_matrix aload pop pop pop 0 0 6 array astore
    cairo_font exch selectfont cairo_point_x cairo_point_y moveto } bind def
/Tf { pop /cairo_font exch def /cairo_font_matrix where
      { pop cairo_selectfont } if } bind def
/Td { matrix translate cairo_font_matrix matrix concatmatrix dup
      /cairo_font_matrix exch def dup 4 get exch 5 get cairo_store_point
      /cairo_font where { pop cairo_selectfont } if } bind def
/Tm { 2 copy 8 2 roll 6 array astore /cairo_font_matrix exch def
      cairo_store_point /cairo_font where { pop cairo_selectfont } if } bind def
/g { setgray } bind def
/rg { setrgbcolor } bind def
/d1 { setcachedevice } bind def
%%EndProlog
%%BeginSetup
%%EndSetup
%%Page: 1 1
%%BeginPageSetup
%%PageBoundingBox: 68 -1 342 410
%%EndPageSetup
q 68 -1 274 411 rectclip q
0 g
248.32 409.6 m 223.488 409.6 200.141 399.924 182.543 382.362 c 156.09 355.909
 l 145.715 345.53 145.715 328.62 156.09 318.241 c 159.215 315.135 162.902
 312.952 166.828 311.705 c 165.855 308.924 165.359 305.971 165.359 302.932
 c 165.359 295.815 168.141 289.127 173.156 284.092 c 177.066 280.182 181.895
 277.76 186.945 276.788 c 186.777 275.557 186.691 274.33 186.691 273.065
 c 186.691 265.948 189.473 259.26 194.492 254.241 c 200.156 248.573 207.75
 246.049 215.176 246.51 c 215.961 240.76 218.57 235.452 222.734 231.288 
c 227.77 226.252 234.461 223.487 241.578 223.487 c 248.695 223.487 255.387
 226.252 260.418 231.288 c 268.066 238.932 l 298.664 238.932 l 322.199 238.932
 341.332 258.08 341.332 281.6 c 341.332 316.584 l 341.332 367.873 299.605
 409.6 248.32 409.6 c h
324.266 281.6 m 324.266 267.487 312.781 255.998 298.668 255.998 c 285.133
 255.998 l 304.707 275.557 l 306.363 277.233 307.199 279.416 307.199 281.6
 c 307.199 283.784 306.363 285.967 304.707 287.643 c 301.379 290.971 295.969
 290.971 292.641 287.643 c 248.355 243.354 l 244.754 239.737 238.422 239.737
 234.82 243.354 c 233.027 245.147 232.02 247.569 232.02 250.112 c 232.02
 252.655 233.027 255.061 234.82 256.87 c 253.508 275.557 l 255.164 277.233
 256 279.416 256 281.6 c 256 283.784 255.164 285.967 253.492 287.643 c 250.164
 290.971 244.754 290.971 241.426 287.643 c 220.09 266.307 l 216.355 262.569
 210.297 262.569 206.559 266.307 c 204.766 268.1 203.758 270.506 203.758
 273.065 c 203.758 275.627 204.766 278.034 206.574 279.827 c 219.375 292.623
 l 221.031 294.299 221.867 296.483 221.867 298.666 c 221.867 300.85 221.031
 303.034 219.359 304.709 c 216.031 308.038 210.621 308.038 207.293 304.709
 c 198.758 296.174 l 195.02 292.436 188.961 292.436 185.223 296.174 c 183.434
 297.967 182.426 300.373 182.426 302.932 c 182.426 305.495 183.434 307.901
 185.242 309.69 c 193.773 318.225 l 195.43 319.897 196.266 322.08 196.266
 324.268 c 196.266 326.452 195.43 328.635 193.773 330.307 c 190.445 333.635
 185.035 333.635 181.707 330.307 c 178.105 326.69 171.773 326.69 168.176
 330.307 c 164.438 334.045 164.438 340.104 168.176 343.842 c 194.629 370.295
 l 208.965 384.631 228.043 392.534 248.32 392.534 c 290.203 392.534 324.266
 358.467 324.266 316.588 c h
324.266 281.6 m f
281.207 255.83 m 276.668 256.788 272.094 253.764 271.156 249.139 c 259.668
 191.998 200.449 70.108 179.199 27.495 c 155.633 74.752 85.332 219.479 85.332
 264.534 c 85.332 316.295 127.453 358.401 179.199 358.401 c 183.91 358.401
 187.734 362.225 187.734 366.932 c 187.734 371.643 183.91 375.467 179.199
 375.467 c 118.031 375.467 68.266 325.702 68.266 264.534 c 68.266 206.573
 167.391 12.85 171.621 4.623 c 173.074 1.791 175.992 -0.002 179.199 -0.002
 c 182.41 -0.002 185.328 1.791 186.793 4.623 c 190.328 11.502 273.441 173.909
 287.898 245.776 c 288.82 250.401 285.832 254.889 281.207 255.83 c h
281.207 255.83 m f
228.965 250.299 m 224.664 252.33 219.613 250.522 217.582 246.272 c 210.398
 231.221 195.688 221.866 179.199 221.866 c 155.664 221.866 136.535 241.014
 136.535 264.534 c 136.535 288.053 155.664 307.202 179.199 307.202 c 183.91
 307.202 187.734 311.022 187.734 315.733 c 187.734 320.444 183.91 324.268
 179.199 324.268 c 146.262 324.268 119.465 297.471 119.465 264.534 c 119.465
 231.596 146.262 204.799 179.199 204.799 c 201.984 204.799 223.094 218.198
 232.977 238.916 c 235.008 243.182 233.215 248.268 228.965 250.299 c h
228.965 250.299 m f
Q Q
showpage
%%Trailer
end restore
%%EOF
