%!PS-Adobe-3.0 EPSF-3.0
%%Creator: cairo 1.14.2 (http://cairographics.org)
%%CreationDate: Tue Nov 21 08:22:15 2017
%%Pages: 1
%%DocumentData: Clean7Bit
%%LanguageLevel: 2
%%BoundingBox: 0 -1 410 410
%%EndComments
%%BeginProlog
save
50 dict begin
/q { gsave } bind def
/Q { grestore } bind def
/cm { 6 array astore concat } bind def
/w { setlinewidth } bind def
/J { setlinecap } bind def
/j { setlinejoin } bind def
/M { setmiterlimit } bind def
/d { setdash } bind def
/m { moveto } bind def
/l { lineto } bind def
/c { curveto } bind def
/h { closepath } bind def
/re { exch dup neg 3 1 roll 5 3 roll moveto 0 rlineto
      0 exch rlineto 0 rlineto closepath } bind def
/S { stroke } bind def
/f { fill } bind def
/f* { eofill } bind def
/n { newpath } bind def
/W { clip } bind def
/W* { eoclip } bind def
/BT { } bind def
/ET { } bind def
/pdfmark where { pop globaldict /?pdfmark /exec load put }
    { globaldict begin /?pdfmark /pop load def /pdfmark
    /cleartomark load def end } ifelse
/BDC { mark 3 1 roll /BDC pdfmark } bind def
/EMC { mark /EMC pdfmark } bind def
/cairo_store_point { /cairo_point_y exch def /cairo_point_x exch def } def
/Tj { show currentpoint cairo_store_point } bind def
/TJ {
  {
    dup
    type /stringtype eq
    { show } { -0.001 mul 0 cairo_font_matrix dtransform rmoveto } ifelse
  } forall
  currentpoint cairo_store_point
} bind def
/cairo_selectfont { cairo_font_matrix aload pop pop pop 0 0 6 array astore
    cairo_font exch selectfont cairo_point_x cairo_point_y moveto } bind def
/Tf { pop /cairo_font exch def /cairo_font_matrix where
      { pop cairo_selectfont } if } bind def
/Td { matrix translate cairo_font_matrix matrix concatmatrix dup
      /cairo_font_matrix exch def dup 4 get exch 5 get cairo_store_point
      /cairo_font where { pop cairo_selectfont } if } bind def
/Tm { 2 copy 8 2 roll 6 array astore /cairo_font_matrix exch def
      cairo_store_point /cairo_font where { pop cairo_selectfont } if } bind def
/g { setgray } bind def
/rg { setrgbcolor } bind def
/d1 { setcachedevice } bind def
%%EndProlog
%%BeginSetup
%%EndSetup
%%Page: 1 1
%%BeginPageSetup
%%PageBoundingBox: 0 -1 410 410
%%EndPageSetup
q 0 -1 410 411 rectclip q
0 g
366.934 255.998 m 281.602 255.998 l 276.891 255.998 273.066 252.178 273.066
 247.467 c 273.066 242.756 276.891 238.932 281.602 238.932 c 366.934 238.932
 l 381.047 238.932 392.535 227.448 392.535 213.334 c 392.535 42.666 l 392.535
 28.553 381.047 17.065 366.934 17.065 c 196.266 17.065 l 182.152 17.065 
170.668 28.553 170.668 42.666 c 170.668 110.932 l 170.668 115.643 166.844
 119.467 162.133 119.467 c 157.422 119.467 153.602 115.643 153.602 110.932
 c 153.602 42.666 l 153.602 19.147 172.75 -0.002 196.266 -0.002 c 366.934
 -0.002 l 390.453 -0.002 409.602 19.147 409.602 42.666 c 409.602 213.334
 l 409.602 236.85 390.453 255.998 366.934 255.998 c h
366.934 255.998 m f
128 170.666 m 119.465 170.666 l 114.758 170.666 110.934 166.842 110.934
 162.131 c 110.934 157.424 114.758 153.6 119.465 153.6 c 128 153.6 l 132.711
 153.6 136.535 157.424 136.535 162.135 c 136.535 166.842 132.711 170.666
 128 170.666 c h
128 170.666 m f
50.191 409.6 m 42.668 409.6 l 38.59 409.6 34.559 409.022 30.688 407.893
 c 26.164 406.561 23.57 401.819 24.883 397.295 c 25.977 393.573 29.391 391.166
 33.074 391.166 c 33.879 391.166 34.68 391.272 35.48 391.51 c 37.801 392.194
 40.207 392.534 42.668 392.534 c 50.191 392.534 l 54.922 392.534 58.727 
396.358 58.727 401.069 c 58.727 405.776 54.902 409.6 50.191 409.6 c h
50.191 409.6 m f
17.066 203.827 m 17.066 221.08 l 17.066 225.791 13.242 229.616 8.531 229.616
 c 3.824 229.616 0 225.791 0 221.08 c 0 203.827 l 0 199.116 3.824 195.295
 8.535 195.295 c 13.242 195.295 17.066 199.116 17.066 203.827 c h
17.066 203.827 m f
8.535 247.057 m 13.242 247.057 17.066 250.881 17.066 255.592 c 17.066 272.846
 l 17.066 277.557 13.242 281.377 8.535 281.377 c 3.824 281.377 0 277.557
 0 272.846 c 0 255.592 l 0 250.881 3.824 247.057 8.535 247.057 c h
8.535 247.057 m f
8.535 350.565 m 13.242 350.565 17.066 354.389 17.066 359.1 c 17.066 366.932
 l 17.066 369.307 17.391 371.643 18.023 373.897 c 19.305 378.436 16.676 
383.147 12.137 384.428 c 7.629 385.776 2.887 383.096 1.605 378.538 c 0.547
 374.768 0 370.858 0 366.932 c 0 359.1 l 0 354.389 3.824 350.565 8.535 350.565
 c h
8.535 350.565 m f
8.535 298.803 m 13.242 298.803 17.066 302.627 17.066 307.338 c 17.066 324.592
 l 17.066 329.303 13.242 333.123 8.535 333.123 c 3.824 333.123 0 329.303
 0 324.592 c 0 307.338 l 0 302.627 3.824 298.803 8.535 298.803 c h
8.535 298.803 m f
35.668 171.639 m 31.539 172.819 27.719 175.053 24.645 178.108 c 21.316 
181.436 15.906 181.401 12.578 178.073 c 9.25 174.729 9.266 169.319 12.613
 166.006 c 17.734 160.905 24.098 157.182 31.012 155.221 c 31.797 154.998
 32.582 154.897 33.348 154.897 c 37.051 154.897 40.48 157.338 41.539 161.092
 c 42.836 165.631 40.207 170.358 35.668 171.639 c h
35.668 171.639 m f
246.086 368.026 m 246.867 368.026 247.672 368.127 248.473 368.385 c 252.996
 369.713 255.605 374.444 254.277 378.967 c 252.262 385.862 248.473 392.194
 243.336 397.28 c 239.992 400.588 234.582 400.573 231.27 397.209 c 227.957
 393.866 227.992 388.455 231.336 385.143 c 234.41 382.073 236.695 378.284
 237.891 374.17 c 238.984 370.448 242.379 368.026 246.086 368.026 c h
246.086 368.026 m f
205.465 409.6 m 188.211 409.6 l 183.5 409.6 179.676 405.776 179.676 401.065
 c 179.676 396.358 183.5 392.534 188.211 392.534 c 205.465 392.534 l 210.176
 392.534 214 396.358 214 401.065 c 214 405.776 210.176 409.6 205.465 409.6
 c h
205.465 409.6 m f
84.977 170.666 m 67.723 170.666 l 63.012 170.666 59.188 166.842 59.188 
162.131 c 59.188 157.424 63.012 153.6 67.723 153.6 c 84.977 153.6 l 89.688
 153.6 93.508 157.424 93.508 162.135 c 93.508 166.842 89.688 170.666 84.977
 170.666 c h
84.977 170.666 m f
247.465 350.721 m 242.758 350.721 238.934 346.897 238.934 342.186 c 238.934
 324.932 l 238.934 320.221 242.758 316.397 247.465 316.397 c 252.176 316.397
 256 320.221 256 324.932 c 256 342.186 l 256 346.913 252.176 350.721 247.465
 350.721 c h
247.465 350.721 m f
153.719 409.6 m 136.465 409.6 l 131.738 409.6 127.93 405.776 127.93 401.065
 c 127.93 396.358 131.754 392.534 136.465 392.534 c 153.703 392.534 l 158.43
 392.534 162.254 396.358 162.254 401.065 c 162.254 405.776 158.43 409.6 
153.719 409.6 c h
153.719 409.6 m f
101.957 409.6 m 84.703 409.6 l 79.992 409.6 76.168 405.776 76.168 401.065
 c 76.168 396.358 79.992 392.534 84.703 392.534 c 101.957 392.534 l 106.668
 392.534 110.488 396.358 110.488 401.065 c 110.488 405.776 106.668 409.6
 101.957 409.6 c h
101.957 409.6 m f
247.465 298.666 m 242.758 298.666 238.934 294.842 238.934 290.131 c 238.934
 281.6 l 238.934 276.889 242.758 273.065 247.465 273.065 c 252.176 273.065
 256 276.889 256 281.6 c 256 290.135 l 256 294.842 252.176 298.666 247.465
 298.666 c h
247.465 298.666 m f
279.961 261.19 m 253.508 287.643 l 243.133 298.018 226.219 298.018 215.84
 287.643 c 212.734 284.534 210.551 280.83 209.305 276.905 c 200.004 280.147
 188.875 277.741 181.707 270.573 c 177.801 266.666 175.375 261.834 174.402
 256.784 c 166.262 257.928 157.762 255.163 151.84 249.241 c 146.176 243.577
 143.598 235.979 144.109 228.557 c 138.359 227.772 133.051 225.163 128.887
 220.995 c 123.852 215.963 121.086 209.272 121.086 202.155 c 121.086 195.038
 123.852 188.33 128.887 183.311 c 136.531 175.666 l 136.531 145.065 l 136.535
 121.549 155.684 102.401 179.199 102.401 c 214.188 102.401 l 265.473 102.401
 307.199 144.127 307.199 195.413 c 307.199 220.245 297.523 243.608 279.961
 261.19 c h
214.188 119.467 m 179.199 119.467 l 165.086 119.467 153.602 130.952 153.602
 145.065 c 153.602 158.6 l 173.176 139.026 l 176.504 135.698 181.914 135.698
 185.242 139.026 c 186.898 140.698 187.734 142.881 187.734 145.065 c 187.734
 147.252 186.898 149.436 185.242 151.108 c 140.953 195.397 l 139.145 197.19
 138.156 199.612 138.156 202.155 c 138.156 204.698 139.145 207.104 140.953
 208.913 c 144.57 212.53 150.871 212.53 154.488 208.913 c 173.176 190.225
 l 176.504 186.897 181.914 186.897 185.242 190.225 c 186.898 191.897 187.734
 194.08 187.734 196.268 c 187.734 198.452 186.898 200.635 185.242 202.291
 c 163.906 223.623 l 160.172 227.362 160.172 233.42 163.906 237.159 c 167.527
 240.776 173.824 240.776 177.441 237.159 c 190.242 224.358 l 193.57 221.03
 198.98 221.03 202.309 224.358 c 203.965 226.03 204.801 228.213 204.801 
230.401 c 204.801 232.584 203.965 234.768 202.309 236.424 c 193.773 244.959
 l 190.035 248.698 190.035 254.756 193.773 258.491 c 197.395 262.112 203.691
 262.112 207.309 258.491 c 215.84 249.959 l 219.168 246.631 224.578 246.631
 227.906 249.959 c 229.562 251.631 230.398 253.815 230.398 255.998 c 230.398
 258.186 229.562 260.37 227.891 262.041 c 226.082 263.834 225.094 266.241
 225.094 268.799 c 225.094 271.362 226.098 273.768 227.906 275.557 c 231.645
 279.295 237.703 279.295 241.441 275.557 c 267.895 249.104 l 282.23 234.768
 290.133 215.69 290.133 195.413 c 290.133 153.534 256.066 119.467 214.188
 119.467 c h
214.188 119.467 m f
Q Q
showpage
%%Trailer
end restore
%%EOF
