%!PS-Adobe-3.0 EPSF-3.0
%%Creator: cairo 1.14.2 (http://cairographics.org)
%%CreationDate: Tue Nov 21 08:22:15 2017
%%Pages: 1
%%DocumentData: Clean7Bit
%%LanguageLevel: 2
%%BoundingBox: 25 -1 367 393
%%EndComments
%%BeginProlog
save
50 dict begin
/q { gsave } bind def
/Q { grestore } bind def
/cm { 6 array astore concat } bind def
/w { setlinewidth } bind def
/J { setlinecap } bind def
/j { setlinejoin } bind def
/M { setmiterlimit } bind def
/d { setdash } bind def
/m { moveto } bind def
/l { lineto } bind def
/c { curveto } bind def
/h { closepath } bind def
/re { exch dup neg 3 1 roll 5 3 roll moveto 0 rlineto
      0 exch rlineto 0 rlineto closepath } bind def
/S { stroke } bind def
/f { fill } bind def
/f* { eofill } bind def
/n { newpath } bind def
/W { clip } bind def
/W* { eoclip } bind def
/BT { } bind def
/ET { } bind def
/pdfmark where { pop globaldict /?pdfmark /exec load put }
    { globaldict begin /?pdfmark /pop load def /pdfmark
    /cleartomark load def end } ifelse
/BDC { mark 3 1 roll /BDC pdfmark } bind def
/EMC { mark /EMC pdfmark } bind def
/cairo_store_point { /cairo_point_y exch def /cairo_point_x exch def } def
/Tj { show currentpoint cairo_store_point } bind def
/TJ {
  {
    dup
    type /stringtype eq
    { show } { -0.001 mul 0 cairo_font_matrix dtransform rmoveto } ifelse
  } forall
  currentpoint cairo_store_point
} bind def
/cairo_selectfont { cairo_font_matrix aload pop pop pop 0 0 6 array astore
    cairo_font exch selectfont cairo_point_x cairo_point_y moveto } bind def
/Tf { pop /cairo_font exch def /cairo_font_matrix where
      { pop cairo_selectfont } if } bind def
/Td { matrix translate cairo_font_matrix matrix concatmatrix dup
      /cairo_font_matrix exch def dup 4 get exch 5 get cairo_store_point
      /cairo_font where { pop cairo_selectfont } if } bind def
/Tm { 2 copy 8 2 roll 6 array astore /cairo_font_matrix exch def
      cairo_store_point /cairo_font where { pop cairo_selectfont } if } bind def
/g { setgray } bind def
/rg { setrgbcolor } bind def
/d1 { setcachedevice } bind def
%%EndProlog
%%BeginSetup
%%EndSetup
%%Page: 1 1
%%BeginPageSetup
%%PageBoundingBox: 25 -1 367 393
%%EndPageSetup
q 25 -1 342 394 rectclip q
0 g
332.801 221.866 m 325.789 221.866 319.25 219.733 313.824 216.1 c 309.148
 229.377 296.469 238.932 281.602 238.932 c 274.59 238.932 268.051 236.799
 262.625 233.166 c 257.949 246.444 245.266 255.998 230.402 255.998 c 224.191
 255.998 218.355 254.327 213.336 251.409 c 213.336 307.202 l 213.336 326.026
 198.027 341.334 179.203 341.334 c 160.379 341.334 145.07 326.026 145.07
 307.202 c 145.07 162.135 l 115.406 184.37 l 97.812 197.565 72.793 195.788
 57.227 180.241 c 47.242 170.256 47.242 154.026 57.227 144.041 c 178.777
 22.495 l 193.281 7.987 212.566 -0.002 233.082 -0.002 c 273.07 -0.002 l 
324.832 -0.002 366.938 42.104 366.938 93.866 c 366.938 187.733 l 366.934
 206.557 351.625 221.866 332.801 221.866 c h
349.867 93.866 m 349.867 51.526 315.41 17.069 273.07 17.069 c 233.098 17.069
 l 217.141 17.069 202.141 23.28 190.859 34.561 c 69.309 156.108 l 65.98 
159.436 65.98 164.846 69.309 168.174 c 74.602 173.467 81.648 176.163 88.75
 176.163 c 94.52 176.163 100.305 174.37 105.184 170.717 c 148.48 138.241
 l 151.059 136.295 154.523 135.987 157.426 137.44 c 160.309 138.889 162.137
 141.842 162.137 145.069 c 162.137 307.202 l 162.137 316.604 169.801 324.268
 179.203 324.268 c 188.605 324.268 196.27 316.604 196.27 307.202 c 196.27
 179.202 l 196.27 174.491 200.094 170.666 204.801 170.666 c 209.512 170.666
 213.336 174.491 213.336 179.202 c 213.336 221.866 l 213.336 231.272 221
 238.932 230.402 238.932 c 239.805 238.932 247.469 231.268 247.469 221.866
 c 247.469 179.202 l 247.469 174.491 251.293 170.666 256.004 170.666 c 260.711
 170.666 264.535 174.491 264.535 179.202 c 264.535 204.799 l 264.535 214.205
 272.199 221.866 281.602 221.866 c 291.004 221.866 298.668 214.202 298.668
 204.799 c 298.668 179.202 l 298.668 174.491 302.492 170.666 307.203 170.666
 c 311.914 170.666 315.734 174.491 315.734 179.202 c 315.734 187.733 l 315.734
 197.139 323.398 204.799 332.801 204.799 c 342.207 204.799 349.867 197.135
 349.867 187.733 c h
349.867 93.866 m f
179.203 375.467 m 141.555 375.467 110.938 344.85 110.938 307.202 c 110.938
 295.819 113.906 284.705 119.758 274.178 c 121.328 271.377 124.23 269.791
 127.234 269.791 c 128.633 269.791 130.051 270.131 131.363 270.866 c 135.477
 273.155 136.961 278.358 134.676 282.471 c 130.238 290.424 128.004 298.752
 128.004 307.202 c 128.004 335.428 150.977 358.401 179.203 358.401 c 207.43
 358.401 230.402 335.428 230.402 307.202 c 230.402 303.139 229.754 298.889
 228.371 293.803 c 227.125 289.264 229.805 284.569 234.363 283.323 c 238.832
 282.077 243.594 284.756 244.84 289.315 c 246.633 295.901 247.469 301.584
 247.469 307.202 c 247.469 344.85 216.852 375.467 179.203 375.467 c h
179.203 375.467 m f
68.27 392.534 m 63.559 392.534 59.734 388.709 59.734 383.998 c 59.734 247.467
 l 59.734 242.756 63.559 238.932 68.27 238.932 c 72.98 238.932 76.801 242.756
 76.801 247.467 c 76.801 383.998 l 76.801 388.709 72.98 392.534 68.27 392.534
 c h
68.27 392.534 m f
108.426 287.623 m 105.098 290.952 99.688 290.952 96.359 287.623 c 68.27
 259.534 l 40.16 287.623 l 36.832 290.952 31.422 290.952 28.094 287.623 
c 24.766 284.295 24.766 278.885 28.094 275.557 c 62.227 241.424 l 63.898
 239.768 66.086 238.932 68.27 238.932 c 70.453 238.932 72.637 239.768 74.293
 241.424 c 108.426 275.557 l 111.754 278.885 111.754 284.295 108.426 287.623
 c h
108.426 287.623 m f
Q Q
showpage
%%Trailer
end restore
%%EOF
