%!PS-Adobe-3.0 EPSF-3.0
%%Creator: cairo 1.14.2 (http://cairographics.org)
%%CreationDate: Tue Nov 21 08:22:15 2017
%%Pages: 1
%%DocumentData: Clean7Bit
%%LanguageLevel: 2
%%BoundingBox: 0 42 410 368
%%EndComments
%%BeginProlog
save
50 dict begin
/q { gsave } bind def
/Q { grestore } bind def
/cm { 6 array astore concat } bind def
/w { setlinewidth } bind def
/J { setlinecap } bind def
/j { setlinejoin } bind def
/M { setmiterlimit } bind def
/d { setdash } bind def
/m { moveto } bind def
/l { lineto } bind def
/c { curveto } bind def
/h { closepath } bind def
/re { exch dup neg 3 1 roll 5 3 roll moveto 0 rlineto
      0 exch rlineto 0 rlineto closepath } bind def
/S { stroke } bind def
/f { fill } bind def
/f* { eofill } bind def
/n { newpath } bind def
/W { clip } bind def
/W* { eoclip } bind def
/BT { } bind def
/ET { } bind def
/pdfmark where { pop globaldict /?pdfmark /exec load put }
    { globaldict begin /?pdfmark /pop load def /pdfmark
    /cleartomark load def end } ifelse
/BDC { mark 3 1 roll /BDC pdfmark } bind def
/EMC { mark /EMC pdfmark } bind def
/cairo_store_point { /cairo_point_y exch def /cairo_point_x exch def } def
/Tj { show currentpoint cairo_store_point } bind def
/TJ {
  {
    dup
    type /stringtype eq
    { show } { -0.001 mul 0 cairo_font_matrix dtransform rmoveto } ifelse
  } forall
  currentpoint cairo_store_point
} bind def
/cairo_selectfont { cairo_font_matrix aload pop pop pop 0 0 6 array astore
    cairo_font exch selectfont cairo_point_x cairo_point_y moveto } bind def
/Tf { pop /cairo_font exch def /cairo_font_matrix where
      { pop cairo_selectfont } if } bind def
/Td { matrix translate cairo_font_matrix matrix concatmatrix dup
      /cairo_font_matrix exch def dup 4 get exch 5 get cairo_store_point
      /cairo_font where { pop cairo_selectfont } if } bind def
/Tm { 2 copy 8 2 roll 6 array astore /cairo_font_matrix exch def
      cairo_store_point /cairo_font where { pop cairo_selectfont } if } bind def
/g { setgray } bind def
/rg { setrgbcolor } bind def
/d1 { setcachedevice } bind def
%%EndProlog
%%BeginSetup
%%EndSetup
%%Page: 1 1
%%BeginPageSetup
%%PageBoundingBox: 0 42 410 368
%%EndPageSetup
q 0 42 410 326 rectclip q
0 g
385.211 226.414 m 321.023 296.918 l 308.719 309.257 287.352 309.343 274.824
 296.816 c 270.781 292.769 268.016 287.906 266.582 282.718 c 254.125 292.277
 235.109 291.234 223.625 279.75 c 219.578 275.703 216.816 270.839 215.348
 265.668 c 202.922 275.226 183.895 274.132 172.426 262.683 c 168.449 258.707
 165.719 253.945 164.234 248.91 c 133.992 279.152 l 121.277 291.847 100.625
 291.882 87.773 279.05 c 75.059 266.351 75.059 245.668 87.773 232.953 c 
203.965 116.761 l 135.082 105.941 l 116.445 103.277 102.398 87.097 102.398
 68.277 c 102.398 54.16 113.887 42.675 128 42.675 c 288.922 42.675 l 313.977
 42.675 337.543 52.437 355.328 70.187 c 382.156 97.031 l 399.871 114.73 
409.617 138.281 409.617 163.32 c 409.617 186.703 400.945 209.109 385.211
 226.414 c h
370.074 109.082 m 343.246 82.238 l 328.723 67.73 309.418 59.742 288.922
 59.742 c 128 59.742 l 123.305 59.742 119.465 63.566 119.465 68.277 c 119.465
 78.652 127.215 87.578 137.59 89.082 c 223.18 102.527 l 226.355 103.023 
228.965 105.257 229.973 108.316 c 230.965 111.351 230.16 114.714 227.891
 116.984 c 99.84 245.035 l 93.797 251.093 93.797 260.941 99.941 267.101 
c 102.98 270.121 106.957 271.64 110.934 271.64 c 114.91 271.64 118.887 270.121
 121.926 267.086 c 172.031 216.976 l 172.152 216.839 172.305 216.703 172.441
 216.566 c 207.324 181.699 l 210.652 178.371 216.062 178.371 219.391 181.699
 c 222.719 185.027 222.719 190.437 219.391 193.765 c 184.219 228.941 l 178.465
 235.015 178.57 244.66 184.609 250.718 c 190.48 256.554 200.688 256.589 
206.559 250.718 c 223.336 233.925 l 223.438 233.82 223.523 233.718 223.625
 233.632 c 241.441 215.832 l 244.77 212.504 250.18 212.504 253.508 215.832
 c 256.836 219.16 256.836 224.57 253.508 227.898 c 235.488 245.906 l 229.668
 251.98 229.734 261.691 235.812 267.785 c 241.664 273.621 251.887 273.656
 257.758 267.785 c 275.578 249.898 l 275.594 249.882 275.594 249.863 275.609
 249.863 c 275.629 249.847 l 275.766 249.777 275.73 249.796 275.695 249.812
 c 275.695 249.812 275.695 249.796 275.711 249.796 c 275.73 249.781 l 275.746
 249.761 l 275.781 249.761 l 279.16 246.621 284.414 246.707 287.66 249.984
 c 290.969 253.312 290.969 258.707 287.641 262.031 c 286.617 263.058 l 280.848
 269.132 280.934 278.793 286.992 284.851 c 292.863 290.687 303.344 290.433
 308.668 285.14 c 372.566 214.914 l 385.449 200.746 392.531 182.433 392.531
 163.304 c 392.535 142.839 384.547 123.57 370.074 109.082 c h
370.074 109.082 m f
275.676 249.812 m 275.695 249.812 l 275.676 249.82 275.66 249.828 275.66
 249.828 c 275.676 249.812 275.695 249.812 275.676 249.812 c h
275.676 249.812 m f
180.855 287.515 m 168.414 315.023 140.988 332.808 110.934 332.808 c 68.59
 332.808 34.133 298.351 34.133 256.007 c 34.133 225.972 51.914 198.527 79.41
 186.086 c 80.555 185.574 81.75 185.336 82.926 185.336 c 86.188 185.336 
89.273 187.214 90.707 190.351 c 92.637 194.652 90.742 199.707 86.441 201.652
 c 65.039 211.328 51.199 232.66 51.199 256.007 c 51.199 288.945 77.996 315.742
 110.934 315.742 c 134.281 315.742 155.613 301.902 165.293 280.5 c 167.238
 276.199 172.27 274.289 176.59 276.234 c 180.871 278.16 182.785 283.23 180.855
 287.515 c h
180.855 287.515 m f
218.027 284.527 m 205.141 333.046 161.094 366.941 110.934 366.941 c 49.766
 366.941 0 317.175 0 256.007 c 0 205.847 33.895 161.8 82.434 148.914 c 83.164
 148.711 83.898 148.625 84.617 148.625 c 88.406 148.625 91.852 151.132 92.859
 154.957 c 94.07 159.511 91.375 164.187 86.801 165.402 c 45.758 176.308 
17.066 213.562 17.066 256.007 c 17.066 307.773 59.188 349.875 110.934 349.875
 c 153.363 349.875 190.637 321.203 201.539 280.14 c 202.734 275.601 207.258
 272.871 211.984 274.082 c 216.523 275.293 219.223 279.968 218.027 284.527
 c h
218.027 284.527 m f
Q Q
showpage
%%Trailer
end restore
%%EOF
