%!PS-Adobe-3.0 EPSF-3.0
%%Creator: cairo 1.14.2 (http://cairographics.org)
%%CreationDate: Tue Nov 21 08:22:15 2017
%%Pages: 1
%%DocumentData: Clean7Bit
%%LanguageLevel: 2
%%BoundingBox: 0 -1 410 410
%%EndComments
%%BeginProlog
save
50 dict begin
/q { gsave } bind def
/Q { grestore } bind def
/cm { 6 array astore concat } bind def
/w { setlinewidth } bind def
/J { setlinecap } bind def
/j { setlinejoin } bind def
/M { setmiterlimit } bind def
/d { setdash } bind def
/m { moveto } bind def
/l { lineto } bind def
/c { curveto } bind def
/h { closepath } bind def
/re { exch dup neg 3 1 roll 5 3 roll moveto 0 rlineto
      0 exch rlineto 0 rlineto closepath } bind def
/S { stroke } bind def
/f { fill } bind def
/f* { eofill } bind def
/n { newpath } bind def
/W { clip } bind def
/W* { eoclip } bind def
/BT { } bind def
/ET { } bind def
/pdfmark where { pop globaldict /?pdfmark /exec load put }
    { globaldict begin /?pdfmark /pop load def /pdfmark
    /cleartomark load def end } ifelse
/BDC { mark 3 1 roll /BDC pdfmark } bind def
/EMC { mark /EMC pdfmark } bind def
/cairo_store_point { /cairo_point_y exch def /cairo_point_x exch def } def
/Tj { show currentpoint cairo_store_point } bind def
/TJ {
  {
    dup
    type /stringtype eq
    { show } { -0.001 mul 0 cairo_font_matrix dtransform rmoveto } ifelse
  } forall
  currentpoint cairo_store_point
} bind def
/cairo_selectfont { cairo_font_matrix aload pop pop pop 0 0 6 array astore
    cairo_font exch selectfont cairo_point_x cairo_point_y moveto } bind def
/Tf { pop /cairo_font exch def /cairo_font_matrix where
      { pop cairo_selectfont } if } bind def
/Td { matrix translate cairo_font_matrix matrix concatmatrix dup
      /cairo_font_matrix exch def dup 4 get exch 5 get cairo_store_point
      /cairo_font where { pop cairo_selectfont } if } bind def
/Tm { 2 copy 8 2 roll 6 array astore /cairo_font_matrix exch def
      cairo_store_point /cairo_font where { pop cairo_selectfont } if } bind def
/g { setgray } bind def
/rg { setrgbcolor } bind def
/d1 { setcachedevice } bind def
%%EndProlog
%%BeginSetup
%%EndSetup
%%Page: 1 1
%%BeginPageSetup
%%PageBoundingBox: 0 -1 410 410
%%EndPageSetup
q 0 -1 410 411 rectclip q
0 g
407.094 407.091 m 403.766 410.419 398.355 410.419 395.027 407.091 c 2.496
 14.56 l -0.832 11.232 -0.832 5.822 2.496 2.494 c 4.168 0.837 6.352 0.001
 8.539 0.001 c 10.723 0.001 12.906 0.837 14.562 2.494 c 407.094 395.029 
l 410.422 398.357 410.422 403.763 407.094 407.091 c h
407.094 407.091 m f
366.578 235.079 m 238.527 369.443 l 226.238 381.747 204.84 381.884 192.328
 369.341 c 188.371 365.365 185.637 360.603 184.152 355.568 c 179.547 360.177
 l 166.848 372.857 146.18 372.892 133.348 360.076 c 128.941 355.669 126.059
 350.314 124.711 344.661 c 112.387 351.099 96.805 349.154 86.414 338.74 
c 74.758 327.083 73.781 308.72 83.512 295.954 c 78.305 294.47 73.391 291.689
 69.293 287.576 c 56.578 274.876 56.578 254.193 69.293 241.478 c 185.469
 125.286 l 116.586 114.466 l 97.949 111.806 83.902 95.626 83.902 76.802 
c 83.902 62.689 95.391 51.201 109.504 51.201 c 270.426 51.201 l 295.48 51.201
 319.047 60.962 336.832 78.712 c 363.66 105.56 l 381.375 123.255 391.121
 146.81 391.121 171.845 c 391.121 195.228 382.453 217.634 366.578 235.079
 c h
351.562 117.626 m 324.73 90.779 l 310.207 76.275 290.906 68.286 270.41 
68.286 c 109.488 68.286 l 104.793 68.286 100.953 72.111 100.953 76.822 c
 100.953 87.197 108.719 96.122 119.094 97.607 c 204.684 111.056 l 207.859
 111.552 210.469 113.786 211.477 116.841 c 212.469 119.88 211.664 123.244
 209.395 125.513 c 81.344 253.56 l 75.301 259.619 75.301 269.466 81.445 
275.63 c 84.484 278.65 88.461 280.169 92.438 280.169 c 96.414 280.169 100.391
 278.65 103.43 275.611 c 188.812 190.193 l 192.141 186.865 197.551 186.865
 200.879 190.193 c 202.535 191.865 203.371 194.052 203.371 196.236 c 203.371
 198.419 202.555 200.603 200.879 202.279 c 98.48 304.677 l 92.438 310.736
 92.438 320.583 98.582 326.744 c 104.641 332.786 114.488 332.786 120.547
 326.744 c 222.945 224.345 l 226.273 221.017 231.688 221.017 235.012 224.345
 c 236.668 226.017 237.504 228.201 237.504 230.384 c 237.504 232.572 236.688
 234.755 235.012 236.427 c 145.414 326.029 l 139.371 332.087 139.371 341.935
 145.516 348.095 c 151.574 354.134 161.422 354.134 167.48 348.095 c 191.922
 323.654 l 192.039 323.517 192.191 323.384 192.328 323.247 c 257.098 258.494
 l 260.426 255.165 265.836 255.165 269.164 258.494 c 272.492 261.822 272.492
 267.232 269.164 270.56 c 204.125 335.603 l 198.371 341.693 198.457 351.337
 204.5 357.38 c 210.352 363.251 220.746 363.095 226.309 357.533 c 354.055
 223.454 l 366.938 209.29 374.023 190.978 374.023 171.845 c 374.02 151.384
 366.051 132.115 351.562 117.626 c h
351.562 117.626 m f
Q Q
showpage
%%Trailer
end restore
%%EOF
