%!PS-Adobe-3.0 EPSF-3.0
%%Creator: cairo 1.14.2 (http://cairographics.org)
%%CreationDate: Tue Nov 21 08:22:15 2017
%%Pages: 1
%%DocumentData: Clean7Bit
%%LanguageLevel: 2
%%BoundingBox: 0 -1 410 410
%%EndComments
%%BeginProlog
save
50 dict begin
/q { gsave } bind def
/Q { grestore } bind def
/cm { 6 array astore concat } bind def
/w { setlinewidth } bind def
/J { setlinecap } bind def
/j { setlinejoin } bind def
/M { setmiterlimit } bind def
/d { setdash } bind def
/m { moveto } bind def
/l { lineto } bind def
/c { curveto } bind def
/h { closepath } bind def
/re { exch dup neg 3 1 roll 5 3 roll moveto 0 rlineto
      0 exch rlineto 0 rlineto closepath } bind def
/S { stroke } bind def
/f { fill } bind def
/f* { eofill } bind def
/n { newpath } bind def
/W { clip } bind def
/W* { eoclip } bind def
/BT { } bind def
/ET { } bind def
/pdfmark where { pop globaldict /?pdfmark /exec load put }
    { globaldict begin /?pdfmark /pop load def /pdfmark
    /cleartomark load def end } ifelse
/BDC { mark 3 1 roll /BDC pdfmark } bind def
/EMC { mark /EMC pdfmark } bind def
/cairo_store_point { /cairo_point_y exch def /cairo_point_x exch def } def
/Tj { show currentpoint cairo_store_point } bind def
/TJ {
  {
    dup
    type /stringtype eq
    { show } { -0.001 mul 0 cairo_font_matrix dtransform rmoveto } ifelse
  } forall
  currentpoint cairo_store_point
} bind def
/cairo_selectfont { cairo_font_matrix aload pop pop pop 0 0 6 array astore
    cairo_font exch selectfont cairo_point_x cairo_point_y moveto } bind def
/Tf { pop /cairo_font exch def /cairo_font_matrix where
      { pop cairo_selectfont } if } bind def
/Td { matrix translate cairo_font_matrix matrix concatmatrix dup
      /cairo_font_matrix exch def dup 4 get exch 5 get cairo_store_point
      /cairo_font where { pop cairo_selectfont } if } bind def
/Tm { 2 copy 8 2 roll 6 array astore /cairo_font_matrix exch def
      cairo_store_point /cairo_font where { pop cairo_selectfont } if } bind def
/g { setgray } bind def
/rg { setrgbcolor } bind def
/d1 { setcachedevice } bind def
%%EndProlog
%%BeginSetup
%%EndSetup
%%Page: 1 1
%%BeginPageSetup
%%PageBoundingBox: 0 -1 410 410
%%EndPageSetup
q 0 -1 410 411 rectclip q
0 g
296.93 261.073 m 241.855 316.147 l 231.785 326.214 214.258 326.214 204.191
 316.147 c 201.801 313.757 199.973 311.026 198.676 308.108 c 188.574 317.698
 171.438 317.511 161.523 307.612 c 158.398 304.507 156.23 300.804 154.984
 296.878 c 145.668 300.1 134.574 297.714 127.391 290.546 c 119.949 283.104
 117.832 272.319 121.074 262.964 c 117.062 261.702 113.379 259.483 110.324
 256.413 c 99.945 246.034 99.945 229.14 110.324 218.745 c 175.566 153.499
 l 162.035 153.499 l 138.5 153.499 119.367 134.35 119.367 110.831 c 119.367
 106.124 123.191 102.3 127.902 102.3 c 231.156 102.3 l 282.441 102.3 324.168
 144.026 324.168 195.311 c 324.168 220.163 314.492 243.511 296.93 261.073
 c h
231.156 119.366 m 137.902 119.366 l 141.418 129.3 150.906 136.433 162.035
 136.433 c 196.168 136.433 l 199.617 136.433 202.738 138.515 204.055 141.706
 c 205.387 144.897 204.652 148.565 202.211 151.007 c 122.391 230.811 l 118.652
 234.55 118.652 240.608 122.391 244.347 c 126.023 247.964 132.289 247.964
 135.922 244.347 c 190.145 190.143 l 193.473 186.815 198.883 186.815 202.211
 190.143 c 205.539 193.468 205.539 198.882 202.211 202.21 c 139.457 264.944
 l 135.719 268.683 135.719 274.741 139.457 278.479 c 143.09 282.097 149.355
 282.097 152.988 278.479 c 161.371 270.097 l 161.422 270.03 161.473 269.995
 161.523 269.944 c 207.211 224.257 l 210.539 220.929 215.949 220.929 219.277
 224.257 c 222.605 227.585 222.605 232.995 219.277 236.323 c 173.504 282.097
 l 169.852 285.835 169.887 291.843 173.59 295.546 c 177.227 299.163 183.488
 299.163 187.125 295.546 c 203.953 278.718 l 204.035 278.632 204.105 278.546
 204.191 278.479 c 232.812 249.858 l 236.141 246.53 241.551 246.53 244.879
 249.858 c 248.207 253.186 248.207 258.597 244.879 261.925 c 216.121 290.683
 l 212.52 294.436 212.57 300.393 216.258 304.081 c 219.891 307.698 226.156
 307.698 229.789 304.081 c 284.848 249.007 l 299.199 234.667 307.102 215.604
 307.102 195.311 c 307.102 153.433 273.035 119.366 231.156 119.366 c h
231.156 119.366 m f
349.531 349.526 m 269.656 429.382 139.762 429.382 59.891 349.526 c -19.965
 269.671 -19.965 139.745 59.891 59.89 c 99.809 19.952 152.258 0.003 204.703
 0.003 c 257.148 0.003 309.594 19.952 349.531 59.89 c 429.387 139.745 429.387
 269.675 349.531 349.526 c h
337.465 71.956 m 264.281 -1.243 145.172 -1.243 71.957 71.956 c -1.242 145.155
 -1.242 264.261 71.957 337.46 c 108.547 374.054 156.625 392.347 204.703 
392.347 c 252.777 392.347 300.855 374.034 337.465 337.46 c 410.664 264.261
 410.664 145.155 337.465 71.956 c h
337.465 71.956 m f
349.512 349.511 m 346.184 352.839 340.773 352.839 337.445 349.511 c 59.875
 71.94 l 56.547 68.612 56.547 63.198 59.875 59.874 c 61.547 58.218 63.73
 57.382 65.914 57.382 c 68.102 57.382 70.285 58.218 71.957 59.89 c 349.512
 337.444 l 352.84 340.772 352.84 346.183 349.512 349.511 c h
349.512 349.511 m f
Q Q
showpage
%%Trailer
end restore
%%EOF
