%!PS-Adobe-3.0 EPSF-3.0
%%Creator: cairo 1.14.2 (http://cairographics.org)
%%CreationDate: Tue Nov 21 08:22:15 2017
%%Pages: 1
%%DocumentData: Clean7Bit
%%LanguageLevel: 2
%%BoundingBox: 42 -1 367 410
%%EndComments
%%BeginProlog
save
50 dict begin
/q { gsave } bind def
/Q { grestore } bind def
/cm { 6 array astore concat } bind def
/w { setlinewidth } bind def
/J { setlinecap } bind def
/j { setlinejoin } bind def
/M { setmiterlimit } bind def
/d { setdash } bind def
/m { moveto } bind def
/l { lineto } bind def
/c { curveto } bind def
/h { closepath } bind def
/re { exch dup neg 3 1 roll 5 3 roll moveto 0 rlineto
      0 exch rlineto 0 rlineto closepath } bind def
/S { stroke } bind def
/f { fill } bind def
/f* { eofill } bind def
/n { newpath } bind def
/W { clip } bind def
/W* { eoclip } bind def
/BT { } bind def
/ET { } bind def
/pdfmark where { pop globaldict /?pdfmark /exec load put }
    { globaldict begin /?pdfmark /pop load def /pdfmark
    /cleartomark load def end } ifelse
/BDC { mark 3 1 roll /BDC pdfmark } bind def
/EMC { mark /EMC pdfmark } bind def
/cairo_store_point { /cairo_point_y exch def /cairo_point_x exch def } def
/Tj { show currentpoint cairo_store_point } bind def
/TJ {
  {
    dup
    type /stringtype eq
    { show } { -0.001 mul 0 cairo_font_matrix dtransform rmoveto } ifelse
  } forall
  currentpoint cairo_store_point
} bind def
/cairo_selectfont { cairo_font_matrix aload pop pop pop 0 0 6 array astore
    cairo_font exch selectfont cairo_point_x cairo_point_y moveto } bind def
/Tf { pop /cairo_font exch def /cairo_font_matrix where
      { pop cairo_selectfont } if } bind def
/Td { matrix translate cairo_font_matrix matrix concatmatrix dup
      /cairo_font_matrix exch def dup 4 get exch 5 get cairo_store_point
      /cairo_font where { pop cairo_selectfont } if } bind def
/Tm { 2 copy 8 2 roll 6 array astore /cairo_font_matrix exch def
      cairo_store_point /cairo_font where { pop cairo_selectfont } if } bind def
/g { setgray } bind def
/rg { setrgbcolor } bind def
/d1 { setcachedevice } bind def
%%EndProlog
%%BeginSetup
%%EndSetup
%%Page: 1 1
%%BeginPageSetup
%%PageBoundingBox: 42 -1 367 410
%%EndPageSetup
q 42 -1 325 411 rectclip q
0 g
358.398 409.6 m 307.199 409.6 l 302.488 409.6 298.668 405.776 298.668 401.065
 c 298.668 396.358 302.488 392.534 307.199 392.534 c 349.867 392.534 l 349.867
 349.866 l 349.867 345.159 353.691 341.334 358.398 341.334 c 363.109 341.334
 366.934 345.159 366.934 349.866 c 366.934 401.069 l 366.934 405.776 363.109
 409.6 358.398 409.6 c h
358.398 409.6 m f
358.398 273.065 m 353.691 273.065 349.867 269.245 349.867 264.534 c 349.867
 221.866 l 307.199 221.866 l 302.488 221.866 298.668 218.041 298.668 213.334
 c 298.668 208.623 302.488 204.799 307.199 204.799 c 358.398 204.799 l 363.109
 204.799 366.934 208.623 366.934 213.334 c 366.934 264.534 l 366.934 269.245
 363.109 273.065 358.398 273.065 c h
358.398 273.065 m f
221.867 409.6 m 170.668 409.6 l 165.957 409.6 162.133 405.776 162.133 401.065
 c 162.133 349.866 l 162.133 345.155 165.957 341.334 170.668 341.334 c 175.375
 341.334 179.199 345.155 179.199 349.866 c 179.199 392.534 l 221.867 392.534
 l 226.578 392.534 230.398 396.358 230.398 401.069 c 230.398 405.776 226.578
 409.6 221.867 409.6 c h
221.867 409.6 m f
364.426 407.092 m 361.098 410.42 355.688 410.42 352.359 407.092 c 301.16
 355.893 l 297.832 352.565 297.832 347.155 301.16 343.827 c 302.832 342.17
 305.016 341.334 307.199 341.334 c 309.387 341.334 311.57 342.17 313.227
 343.827 c 364.426 395.026 l 367.754 398.354 367.754 403.764 364.426 407.092
 c h
364.426 407.092 m f
219.359 364.424 m 176.691 407.092 l 173.363 410.42 167.953 410.42 164.625
 407.092 c 161.297 403.764 161.297 398.354 164.625 395.026 c 207.293 352.358
 l 208.965 350.702 211.148 349.866 213.332 349.866 c 215.52 349.866 217.703
 350.702 219.359 352.358 c 222.688 355.686 222.688 361.096 219.359 364.424
 c h
219.359 364.424 m f
364.426 219.358 m 321.758 262.026 l 318.43 265.354 313.02 265.354 309.691
 262.026 c 306.363 258.698 306.363 253.288 309.691 249.959 c 352.359 207.291
 l 354.031 205.635 356.215 204.799 358.398 204.799 c 360.586 204.799 362.77
 205.635 364.426 207.291 c 367.754 210.62 367.754 216.03 364.426 219.358
 c h
364.426 219.358 m f
296.805 134.776 m 292.746 138.838 287.879 141.6 282.691 143.034 c 292.473
 155.799 291.5 174.217 279.738 185.975 c 275.676 190.022 270.812 192.784
 265.641 194.252 c 275.406 207.038 274.434 225.416 262.672 237.174 c 258.695
 241.151 253.934 243.881 248.898 245.366 c 279.141 275.608 l 291.84 288.323
 291.84 309.01 279.039 321.807 c 266.324 334.522 245.656 334.522 232.941
 321.807 c 116.754 205.62 l 105.934 274.534 l 103.27 293.155 87.09 307.202
 68.266 307.202 c 54.152 307.202 42.668 295.713 42.668 281.6 c 42.668 120.678
 l 42.668 95.608 52.43 72.038 70.16 54.307 c 97.008 27.459 l 114.703 9.745
 138.258 -0.002 163.293 -0.002 c 186.676 -0.002 209.082 8.67 226.391 24.405
 c 296.906 88.577 l 309.605 101.291 309.605 121.975 296.805 134.776 c h
285.133 100.916 m 214.902 37.018 l 200.754 24.166 182.426 17.065 163.293
 17.065 c 142.812 17.065 123.562 25.038 109.074 39.526 c 82.227 66.373 l
 67.723 80.877 59.734 100.163 59.734 120.678 c 59.734 281.6 l 59.734 286.311
 63.559 290.135 68.266 290.135 c 78.645 290.135 87.57 282.385 89.055 271.991
 c 102.504 186.42 l 103 183.245 105.234 180.635 108.289 179.627 c 111.344
 178.639 114.688 179.455 116.957 181.709 c 245.008 309.76 l 251.066 315.803
 260.914 315.819 267.074 309.659 c 273.133 303.6 273.133 293.752 267.074
 287.694 c 181.691 202.307 l 180.035 200.635 179.199 198.452 179.199 196.268
 c 179.199 194.08 180.035 191.897 181.691 190.241 c 185.02 186.913 190.43
 186.913 193.758 190.241 c 228.625 225.108 l 234.684 231.151 244.531 231.166
 250.691 225.006 c 256.75 218.948 256.75 209.1 250.691 203.041 c 215.824
 168.174 l 214.172 166.502 213.332 164.319 213.332 162.131 c 213.332 159.948
 214.168 157.764 215.844 156.108 c 219.172 152.78 224.582 152.78 227.91 
156.108 c 245.711 173.909 l 251.77 179.952 261.617 179.967 267.777 173.807
 c 273.836 167.748 273.836 157.901 267.777 151.842 c 249.977 134.041 l 249.961
 134.041 249.961 134.006 249.941 134.006 c 246.648 130.663 246.664 125.288
 249.977 121.975 c 253.305 118.647 258.715 118.647 262.043 121.975 c 262.777
 122.709 l 268.648 128.58 278.785 128.663 284.844 122.604 c 290.902 116.549
 290.902 106.702 285.133 100.916 c h
285.133 100.916 m f
256 375.467 m 225.961 375.467 198.52 357.682 186.078 330.19 c 184.148 325.889
 186.062 320.834 190.344 318.889 c 194.629 316.963 199.695 318.873 201.641
 323.159 c 211.32 344.561 232.652 358.401 256 358.401 c 288.938 358.401 
315.734 331.604 315.734 298.666 c 315.734 275.319 301.895 253.987 280.492
 244.307 c 276.191 242.381 274.277 237.311 276.227 233.03 c 277.641 229.87
 280.746 228.01 284.008 228.01 c 285.168 228.01 286.363 228.248 287.504 
228.76 c 315.016 241.186 332.801 268.631 332.801 298.666 c 332.801 341.01
 298.344 375.467 256 375.467 c h
256 375.467 m f
Q Q
showpage
%%Trailer
end restore
%%EOF
