%!PS-Adobe-3.0 EPSF-3.0
%%Creator: cairo 1.14.2 (http://cairographics.org)
%%CreationDate: Tue Nov 21 08:22:15 2017
%%Pages: 1
%%DocumentData: Clean7Bit
%%LanguageLevel: 2
%%BoundingBox: 59 -1 350 410
%%EndComments
%%BeginProlog
save
50 dict begin
/q { gsave } bind def
/Q { grestore } bind def
/cm { 6 array astore concat } bind def
/w { setlinewidth } bind def
/J { setlinecap } bind def
/j { setlinejoin } bind def
/M { setmiterlimit } bind def
/d { setdash } bind def
/m { moveto } bind def
/l { lineto } bind def
/c { curveto } bind def
/h { closepath } bind def
/re { exch dup neg 3 1 roll 5 3 roll moveto 0 rlineto
      0 exch rlineto 0 rlineto closepath } bind def
/S { stroke } bind def
/f { fill } bind def
/f* { eofill } bind def
/n { newpath } bind def
/W { clip } bind def
/W* { eoclip } bind def
/BT { } bind def
/ET { } bind def
/pdfmark where { pop globaldict /?pdfmark /exec load put }
    { globaldict begin /?pdfmark /pop load def /pdfmark
    /cleartomark load def end } ifelse
/BDC { mark 3 1 roll /BDC pdfmark } bind def
/EMC { mark /EMC pdfmark } bind def
/cairo_store_point { /cairo_point_y exch def /cairo_point_x exch def } def
/Tj { show currentpoint cairo_store_point } bind def
/TJ {
  {
    dup
    type /stringtype eq
    { show } { -0.001 mul 0 cairo_font_matrix dtransform rmoveto } ifelse
  } forall
  currentpoint cairo_store_point
} bind def
/cairo_selectfont { cairo_font_matrix aload pop pop pop 0 0 6 array astore
    cairo_font exch selectfont cairo_point_x cairo_point_y moveto } bind def
/Tf { pop /cairo_font exch def /cairo_font_matrix where
      { pop cairo_selectfont } if } bind def
/Td { matrix translate cairo_font_matrix matrix concatmatrix dup
      /cairo_font_matrix exch def dup 4 get exch 5 get cairo_store_point
      /cairo_font where { pop cairo_selectfont } if } bind def
/Tm { 2 copy 8 2 roll 6 array astore /cairo_font_matrix exch def
      cairo_store_point /cairo_font where { pop cairo_selectfont } if } bind def
/g { setgray } bind def
/rg { setrgbcolor } bind def
/d1 { setcachedevice } bind def
%%EndProlog
%%BeginSetup
%%EndSetup
%%Page: 1 1
%%BeginPageSetup
%%PageBoundingBox: 59 -1 350 410
%%EndPageSetup
q 59 -1 291 411 rectclip q
0 g
204.801 409.6 m 200.094 409.6 196.27 405.776 196.27 401.065 c 196.27 332.799
 l 196.27 328.088 200.094 324.268 204.801 324.268 c 209.512 324.268 213.336
 328.088 213.336 332.799 c 213.336 401.065 l 213.336 405.776 209.512 409.6
 204.801 409.6 c h
204.801 409.6 m f
244.977 372.975 m 210.844 407.108 l 207.516 410.436 202.105 410.436 198.777
 407.108 c 164.645 372.975 l 161.316 369.647 161.316 364.237 164.645 360.909
 c 167.973 357.581 173.383 357.581 176.711 360.909 c 204.801 388.999 l 232.895
 360.893 l 234.566 359.237 236.75 358.401 238.938 358.401 c 241.121 358.401
 243.305 359.237 244.977 360.909 c 248.305 364.237 248.305 369.647 244.977
 372.975 c h
244.977 372.975 m f
341.336 273.065 m 273.07 273.065 l 268.359 273.065 264.535 269.245 264.535
 264.534 c 264.535 259.823 268.359 255.999 273.07 255.999 c 341.336 255.999
 l 346.047 255.999 349.867 259.823 349.867 264.534 c 349.867 269.245 346.047
 273.065 341.336 273.065 c h
341.336 273.065 m f
347.375 270.557 m 313.242 304.69 l 309.914 308.018 304.504 308.018 301.176
 304.69 c 297.848 301.362 297.848 295.952 301.176 292.624 c 329.27 264.534
 l 301.16 236.424 l 297.832 233.096 297.832 227.686 301.16 224.358 c 302.832
 222.702 305.016 221.866 307.203 221.866 c 309.387 221.866 311.57 222.702
 313.242 224.358 c 347.375 258.491 l 350.703 261.819 350.703 267.229 347.375
 270.557 c h
347.375 270.557 m f
136.535 273.065 m 68.27 273.065 l 63.559 273.065 59.734 269.245 59.734 
264.534 c 59.734 259.823 63.559 255.999 68.27 255.999 c 136.535 255.999 
l 141.246 255.999 145.07 259.823 145.07 264.534 c 145.07 269.245 141.246
 273.065 136.535 273.065 c h
136.535 273.065 m f
80.336 264.534 m 108.426 292.624 l 111.754 295.952 111.754 301.362 108.426
 304.69 c 105.098 308.018 99.688 308.018 96.359 304.69 c 62.227 270.557 
l 58.898 267.229 58.898 261.819 62.227 258.491 c 96.359 224.358 l 98.035
 222.702 100.219 221.866 102.402 221.866 c 104.586 221.866 106.77 222.702
 108.426 224.374 c 111.754 227.702 111.754 233.112 108.426 236.44 c h
80.336 264.534 m f
296.996 161.518 m 284.707 177.92 261.703 181.862 244.617 170.495 c 230.402
 161.022 l 230.402 264.534 l 230.402 278.647 218.914 290.131 204.801 290.131
 c 190.688 290.131 179.203 278.647 179.203 264.534 c 179.203 237.483 l 176.539
 238.42 173.656 238.932 170.668 238.932 c 158.891 238.932 148.926 230.928
 145.973 220.073 c 143.039 221.217 139.863 221.866 136.535 221.866 c 124.758
 221.866 114.793 213.862 111.84 203.006 c 108.906 204.151 105.73 204.799
 102.402 204.799 c 88.289 204.799 76.801 193.315 76.801 179.202 c 76.801
 110.932 l 76.801 68.592 111.262 34.135 153.602 34.135 c 182.273 34.135 
l 198.98 34.135 215.027 41.198 226.324 53.487 c 295.391 128.854 l 303.703
 137.948 304.387 151.67 296.996 161.518 c h
282.797 140.409 m 213.727 65.042 l 205.672 56.233 194.203 51.202 182.273
 51.202 c 153.602 51.202 l 120.664 51.202 93.867 77.995 93.867 110.932 c
 93.867 179.202 l 93.867 183.909 97.691 187.733 102.402 187.733 c 107.113
 187.733 110.938 183.909 110.938 179.202 c 110.938 170.667 l 110.938 165.956
 114.758 162.131 119.469 162.131 c 124.18 162.131 128.004 165.956 128.004
 170.667 c 128.004 196.268 l 128.004 200.975 131.828 204.799 136.535 204.799
 c 141.246 204.799 145.07 200.975 145.07 196.268 c 145.07 170.667 l 145.07
 165.956 148.895 162.131 153.605 162.131 c 158.312 162.131 162.137 165.956
 162.137 170.667 c 162.137 213.334 l 162.137 218.042 165.961 221.866 170.672
 221.866 c 175.383 221.866 179.203 218.042 179.203 213.334 c 179.203 170.667
 l 179.203 165.956 183.027 162.131 187.738 162.131 c 192.449 162.131 196.273
 165.956 196.273 170.667 c 196.273 264.534 l 196.273 269.245 200.094 273.065
 204.805 273.065 c 209.516 273.065 213.34 269.245 213.34 264.534 c 213.34
 145.065 l 213.34 141.909 215.078 139.026 217.863 137.557 c 220.609 136.073
 224.004 136.241 226.617 137.983 c 254.094 156.311 l 263.633 162.643 276.469
 160.459 283.348 151.295 c 285.801 148.018 285.578 143.428 282.797 140.409
 c h
282.797 140.409 m f
221.867 51.202 m 102.402 51.202 l 97.691 51.202 93.867 47.377 93.867 42.667
 c 93.867 8.534 l 93.867 3.823 97.691 -0.001 102.402 -0.001 c 107.113 -0.001
 110.938 3.823 110.938 8.534 c 110.938 34.131 l 213.336 34.131 l 213.336
 8.534 l 213.336 3.823 217.16 -0.001 221.871 -0.001 c 226.578 -0.001 230.402
 3.823 230.402 8.534 c 230.402 42.667 l 230.402 47.377 226.578 51.202 221.867
 51.202 c h
221.867 51.202 m f
Q Q
showpage
%%Trailer
end restore
%%EOF
