%!PS-Adobe-3.0 EPSF-3.0
%%Creator: cairo 1.14.2 (http://cairographics.org)
%%CreationDate: Tue Nov 21 08:22:15 2017
%%Pages: 1
%%DocumentData: Clean7Bit
%%LanguageLevel: 2
%%BoundingBox: 0 -1 376 376
%%EndComments
%%BeginProlog
save
50 dict begin
/q { gsave } bind def
/Q { grestore } bind def
/cm { 6 array astore concat } bind def
/w { setlinewidth } bind def
/J { setlinecap } bind def
/j { setlinejoin } bind def
/M { setmiterlimit } bind def
/d { setdash } bind def
/m { moveto } bind def
/l { lineto } bind def
/c { curveto } bind def
/h { closepath } bind def
/re { exch dup neg 3 1 roll 5 3 roll moveto 0 rlineto
      0 exch rlineto 0 rlineto closepath } bind def
/S { stroke } bind def
/f { fill } bind def
/f* { eofill } bind def
/n { newpath } bind def
/W { clip } bind def
/W* { eoclip } bind def
/BT { } bind def
/ET { } bind def
/pdfmark where { pop globaldict /?pdfmark /exec load put }
    { globaldict begin /?pdfmark /pop load def /pdfmark
    /cleartomark load def end } ifelse
/BDC { mark 3 1 roll /BDC pdfmark } bind def
/EMC { mark /EMC pdfmark } bind def
/cairo_store_point { /cairo_point_y exch def /cairo_point_x exch def } def
/Tj { show currentpoint cairo_store_point } bind def
/TJ {
  {
    dup
    type /stringtype eq
    { show } { -0.001 mul 0 cairo_font_matrix dtransform rmoveto } ifelse
  } forall
  currentpoint cairo_store_point
} bind def
/cairo_selectfont { cairo_font_matrix aload pop pop pop 0 0 6 array astore
    cairo_font exch selectfont cairo_point_x cairo_point_y moveto } bind def
/Tf { pop /cairo_font exch def /cairo_font_matrix where
      { pop cairo_selectfont } if } bind def
/Td { matrix translate cairo_font_matrix matrix concatmatrix dup
      /cairo_font_matrix exch def dup 4 get exch 5 get cairo_store_point
      /cairo_font where { pop cairo_selectfont } if } bind def
/Tm { 2 copy 8 2 roll 6 array astore /cairo_font_matrix exch def
      cairo_store_point /cairo_font where { pop cairo_selectfont } if } bind def
/g { setgray } bind def
/rg { setrgbcolor } bind def
/d1 { setcachedevice } bind def
%%EndProlog
%%BeginSetup
%%EndSetup
%%Page: 1 1
%%BeginPageSetup
%%PageBoundingBox: 0 -1 376 376
%%EndPageSetup
q 0 -1 376 377 rectclip q
0 g
350.926 183.877 m 222.875 318.24 l 210.551 330.58 189.184 330.65 176.676
 318.138 c 172.715 314.162 169.984 309.4 168.5 304.365 c 163.891 308.974
 l 151.195 321.654 130.527 321.689 117.691 308.873 c 113.305 304.47 110.422
 299.111 109.055 293.443 c 96.734 299.877 81.152 297.916 70.758 287.521 
c 59.102 275.865 58.145 257.517 67.855 244.752 c 62.652 243.267 57.734 240.486
 53.641 236.373 c 40.926 223.673 40.926 202.99 53.641 190.275 c 169.828 
74.087 l 100.949 63.267 l 82.312 60.603 68.266 44.423 68.266 25.599 c 68.266
 11.486 79.754 0.002 93.867 0.002 c 254.789 0.002 l 279.84 0.002 303.41 
9.763 321.176 27.494 c 348.008 54.341 l 365.723 72.037 375.465 95.591 375.465
 120.627 c 375.465 144.009 366.797 166.416 350.926 183.877 c h
335.941 66.408 m 309.109 39.56 l 294.59 25.052 275.285 17.068 254.789 17.068
 c 93.867 17.068 l 89.172 17.068 85.332 20.888 85.332 25.599 c 85.332 35.978
 93.082 44.904 103.457 46.404 c 189.047 59.853 l 192.223 60.349 194.832 
62.584 195.84 65.638 c 196.828 68.677 196.027 72.037 193.758 74.306 c 65.707
 202.361 l 59.664 208.42 59.664 218.267 65.809 224.427 c 68.848 227.447 
72.824 228.966 76.801 228.966 c 80.777 228.966 84.754 227.447 87.793 224.408
 c 173.176 139.025 l 176.504 135.697 181.914 135.697 185.242 139.025 c 186.898
 140.697 187.734 142.88 187.734 145.068 c 187.734 147.252 186.898 149.435
 185.242 151.091 c 82.844 253.49 l 76.801 259.548 76.801 269.396 82.945 
275.56 c 89.004 281.599 98.852 281.599 104.91 275.56 c 207.309 173.158 l
 210.637 169.83 216.047 169.83 219.375 173.158 c 221.031 174.83 221.867 
177.013 221.867 179.201 c 221.867 181.384 221.031 183.568 219.359 185.224
 c 129.758 274.826 l 123.719 280.884 123.719 290.732 129.859 296.892 c 135.918
 302.935 145.766 302.935 151.824 296.892 c 176.281 272.455 l 176.402 272.314
 176.555 272.181 176.691 272.045 c 241.461 207.291 l 244.789 203.962 250.199
 203.962 253.527 207.291 c 256.855 210.619 256.855 216.029 253.527 219.357
 c 188.484 284.4 l 182.734 290.474 182.836 300.119 188.879 306.177 c 194.73
 311.998 205.109 311.877 210.672 306.314 c 338.434 172.236 l 351.316 158.072
 358.398 139.759 358.398 120.627 c 358.398 100.166 350.414 80.896 335.941
 66.408 c h
335.941 66.408 m f
196.266 375.466 m 178.84 375.466 161.895 369.373 148.156 358.212 c 147.133
 358.33 146.125 358.4 145.066 358.4 c 127.641 358.4 110.695 352.306 96.957
 341.146 c 95.93 341.263 94.926 341.334 93.867 341.334 c 51.523 341.334 
17.066 306.877 17.066 264.533 c 17.066 263.474 17.152 262.451 17.27 261.443
 c 6.094 247.705 0 230.759 0 213.334 c 0 170.99 34.457 136.533 76.801 136.533
 c 81.512 136.533 85.332 140.357 85.332 145.068 c 85.332 149.775 81.512 
153.599 76.801 153.599 c 43.863 153.599 17.066 180.396 17.066 213.334 c 
17.066 227.841 22.562 241.955 32.527 253.064 c 34.098 254.806 34.883 257.142
 34.695 259.482 c 34.391 262.076 l 34.27 262.896 34.133 263.697 34.133 264.533
 c 34.133 297.47 60.93 324.267 93.867 324.267 c 94.719 324.267 95.523 324.13
 96.324 324.009 c 98.902 323.72 l 101.258 323.513 103.578 324.283 105.336
 325.869 c 116.445 335.837 130.559 341.334 145.066 341.334 c 145.922 341.334
 146.723 341.197 147.523 341.076 c 150.102 340.787 l 152.406 340.599 154.777
 341.349 156.535 342.935 c 167.645 352.904 181.762 358.4 196.266 358.4 c
 229.207 358.4 256 331.603 256 298.666 c 256 293.955 259.824 290.134 264.535
 290.134 c 269.242 290.134 273.066 293.955 273.066 298.666 c 273.066 341.009
 238.609 375.466 196.266 375.466 c h
196.266 375.466 m f
Q Q
showpage
%%Trailer
end restore
%%EOF
