%!PS-Adobe-3.0 EPSF-3.0
%%Creator: cairo 1.14.2 (http://cairographics.org)
%%CreationDate: Tue Nov 21 08:22:15 2017
%%Pages: 1
%%DocumentData: Clean7Bit
%%LanguageLevel: 2
%%BoundingBox: 0 -1 410 410
%%EndComments
%%BeginProlog
save
50 dict begin
/q { gsave } bind def
/Q { grestore } bind def
/cm { 6 array astore concat } bind def
/w { setlinewidth } bind def
/J { setlinecap } bind def
/j { setlinejoin } bind def
/M { setmiterlimit } bind def
/d { setdash } bind def
/m { moveto } bind def
/l { lineto } bind def
/c { curveto } bind def
/h { closepath } bind def
/re { exch dup neg 3 1 roll 5 3 roll moveto 0 rlineto
      0 exch rlineto 0 rlineto closepath } bind def
/S { stroke } bind def
/f { fill } bind def
/f* { eofill } bind def
/n { newpath } bind def
/W { clip } bind def
/W* { eoclip } bind def
/BT { } bind def
/ET { } bind def
/pdfmark where { pop globaldict /?pdfmark /exec load put }
    { globaldict begin /?pdfmark /pop load def /pdfmark
    /cleartomark load def end } ifelse
/BDC { mark 3 1 roll /BDC pdfmark } bind def
/EMC { mark /EMC pdfmark } bind def
/cairo_store_point { /cairo_point_y exch def /cairo_point_x exch def } def
/Tj { show currentpoint cairo_store_point } bind def
/TJ {
  {
    dup
    type /stringtype eq
    { show } { -0.001 mul 0 cairo_font_matrix dtransform rmoveto } ifelse
  } forall
  currentpoint cairo_store_point
} bind def
/cairo_selectfont { cairo_font_matrix aload pop pop pop 0 0 6 array astore
    cairo_font exch selectfont cairo_point_x cairo_point_y moveto } bind def
/Tf { pop /cairo_font exch def /cairo_font_matrix where
      { pop cairo_selectfont } if } bind def
/Td { matrix translate cairo_font_matrix matrix concatmatrix dup
      /cairo_font_matrix exch def dup 4 get exch 5 get cairo_store_point
      /cairo_font where { pop cairo_selectfont } if } bind def
/Tm { 2 copy 8 2 roll 6 array astore /cairo_font_matrix exch def
      cairo_store_point /cairo_font where { pop cairo_selectfont } if } bind def
/g { setgray } bind def
/rg { setrgbcolor } bind def
/d1 { setcachedevice } bind def
%%EndProlog
%%BeginSetup
%%EndSetup
%%Page: 1 1
%%BeginPageSetup
%%PageBoundingBox: 0 -1 410 410
%%EndPageSetup
q 0 -1 410 411 rectclip q
0 g
269.5 363.366 m 239.668 393.182 200.039 409.6 157.867 409.6 c 115.695 409.6
 76.066 393.182 46.234 363.366 c 16.418 333.534 0 293.905 0 251.733 c 0 
209.561 16.418 169.932 46.234 140.1 c 47.906 138.444 50.09 137.608 52.273
 137.608 c 54.461 137.608 56.645 138.444 58.316 140.12 c 61.645 143.444 
61.645 148.858 58.316 152.186 c 31.711 178.772 17.066 214.12 17.066 251.733
 c 17.066 289.35 31.711 324.694 58.316 351.284 c 84.906 377.889 120.254 
392.534 157.867 392.534 c 195.48 392.534 230.828 377.889 257.434 351.299
 c 260.762 347.971 266.172 347.971 269.5 351.299 c 272.828 354.627 272.828
 360.038 269.5 363.366 c h
269.5 363.366 m f
59.734 204.799 m 55.023 204.799 51.199 200.975 51.199 196.268 c 51.199 
153.6 l 8.535 153.6 l 3.824 153.6 0 149.776 0 145.065 c 0 140.358 3.824 
136.534 8.535 136.534 c 59.734 136.534 l 64.445 136.534 68.266 140.358 68.266
 145.065 c 68.266 196.268 l 68.266 200.975 64.445 204.799 59.734 204.799
 c h
59.734 204.799 m f
385.059 183.877 m 257.023 318.26 l 244.328 330.955 223.641 330.975 210.824
 318.159 c 206.918 314.248 204.133 309.538 202.617 304.401 c 198.023 308.975
 l 185.328 321.67 164.641 321.69 151.824 308.873 c 147.438 304.467 144.555
 299.092 143.207 293.444 c 130.887 299.877 115.32 297.948 104.91 287.522
 c 93.254 275.866 92.281 257.518 102.008 244.752 c 96.801 243.268 91.887
 240.487 87.793 236.373 c 75.078 223.674 75.078 202.991 87.793 190.276 c
 203.98 74.088 l 135.066 63.268 l 116.445 60.604 102.398 44.424 102.398 
25.6 c 102.398 11.487 113.887 -0.002 128 -0.002 c 288.922 -0.002 l 313.992
 -0.002 337.562 9.764 355.293 27.495 c 382.141 54.338 l 399.855 72.038 409.602
 95.592 409.602 120.627 c 409.602 144.01 400.93 166.416 385.059 183.877 
c h
370.074 66.405 m 343.227 39.561 l 328.723 25.053 309.438 17.069 288.922
 17.069 c 128 17.069 l 123.289 17.069 119.465 20.889 119.465 25.6 c 119.465
 35.979 127.215 44.905 137.59 46.405 c 223.18 59.854 l 226.355 60.35 228.965
 62.584 229.973 65.639 c 230.965 68.678 230.16 72.038 227.891 74.307 c 99.84
 202.358 l 93.781 208.416 93.781 218.264 99.941 224.428 c 102.98 227.448
 106.957 228.967 110.934 228.967 c 114.91 228.967 118.887 227.448 121.926
 224.409 c 207.309 139.026 l 210.637 135.698 216.047 135.698 219.375 139.026
 c 221.031 140.698 221.867 142.881 221.867 145.065 c 221.867 147.252 221.031
 149.436 219.375 151.108 c 116.977 253.506 l 110.918 259.549 110.918 269.413
 117.078 275.557 c 123.121 281.6 133 281.6 139.043 275.557 c 241.441 173.159
 l 244.77 169.83 250.18 169.83 253.508 173.159 c 255.164 174.83 256 177.014
 256 179.202 c 256 181.385 255.164 183.569 253.508 185.241 c 163.91 274.842
 l 157.852 280.881 157.852 290.748 164.012 296.893 c 170.055 302.932 179.934
 302.932 185.977 296.893 c 275.578 207.291 l 278.906 203.963 284.316 203.963
 287.645 207.291 c 289.297 208.963 290.137 211.147 290.137 213.334 c 290.137
 215.518 289.301 217.702 287.625 219.358 c 222.895 284.092 l 216.836 290.151
 216.836 299.998 222.996 306.159 c 229.055 312.237 238.902 312.217 244.824
 306.311 c 372.586 172.237 l 385.434 158.088 392.535 139.76 392.535 120.627
 c 392.535 100.147 384.562 80.897 370.074 66.405 c h
370.074 66.405 m f
Q Q
showpage
%%Trailer
end restore
%%EOF
