%!PS-Adobe-3.0 EPSF-3.0
%%Creator: cairo 1.14.2 (http://cairographics.org)
%%CreationDate: Tue Nov 21 08:22:15 2017
%%Pages: 1
%%DocumentData: Clean7Bit
%%LanguageLevel: 2
%%BoundingBox: 0 8 376 368
%%EndComments
%%BeginProlog
save
50 dict begin
/q { gsave } bind def
/Q { grestore } bind def
/cm { 6 array astore concat } bind def
/w { setlinewidth } bind def
/J { setlinecap } bind def
/j { setlinejoin } bind def
/M { setmiterlimit } bind def
/d { setdash } bind def
/m { moveto } bind def
/l { lineto } bind def
/c { curveto } bind def
/h { closepath } bind def
/re { exch dup neg 3 1 roll 5 3 roll moveto 0 rlineto
      0 exch rlineto 0 rlineto closepath } bind def
/S { stroke } bind def
/f { fill } bind def
/f* { eofill } bind def
/n { newpath } bind def
/W { clip } bind def
/W* { eoclip } bind def
/BT { } bind def
/ET { } bind def
/pdfmark where { pop globaldict /?pdfmark /exec load put }
    { globaldict begin /?pdfmark /pop load def /pdfmark
    /cleartomark load def end } ifelse
/BDC { mark 3 1 roll /BDC pdfmark } bind def
/EMC { mark /EMC pdfmark } bind def
/cairo_store_point { /cairo_point_y exch def /cairo_point_x exch def } def
/Tj { show currentpoint cairo_store_point } bind def
/TJ {
  {
    dup
    type /stringtype eq
    { show } { -0.001 mul 0 cairo_font_matrix dtransform rmoveto } ifelse
  } forall
  currentpoint cairo_store_point
} bind def
/cairo_selectfont { cairo_font_matrix aload pop pop pop 0 0 6 array astore
    cairo_font exch selectfont cairo_point_x cairo_point_y moveto } bind def
/Tf { pop /cairo_font exch def /cairo_font_matrix where
      { pop cairo_selectfont } if } bind def
/Td { matrix translate cairo_font_matrix matrix concatmatrix dup
      /cairo_font_matrix exch def dup 4 get exch 5 get cairo_store_point
      /cairo_font where { pop cairo_selectfont } if } bind def
/Tm { 2 copy 8 2 roll 6 array astore /cairo_font_matrix exch def
      cairo_store_point /cairo_font where { pop cairo_selectfont } if } bind def
/g { setgray } bind def
/rg { setrgbcolor } bind def
/d1 { setcachedevice } bind def
%%EndProlog
%%BeginSetup
%%EndSetup
%%Page: 1 1
%%BeginPageSetup
%%PageBoundingBox: 0 8 376 368
%%EndPageSetup
q 0 8 376 360 rectclip q
0 g
351.078 192.281 m 286.891 262.785 l 274.586 275.125 253.219 275.211 240.691
 262.683 c 236.715 258.722 233.984 253.961 232.516 248.89 c 163.891 317.515
 l 151.195 330.199 130.527 330.23 117.691 317.414 c 113.305 313.011 110.422
 307.652 109.055 301.988 c 96.734 308.422 81.168 306.457 70.758 296.062 
c 59.102 284.406 58.145 266.062 67.855 253.297 c 62.652 251.812 57.734 249.027
 53.641 244.914 c 40.926 232.218 40.926 211.531 53.641 198.82 c 169.828 
82.629 l 100.949 71.808 l 82.312 69.148 68.266 52.968 68.266 34.144 c 68.266
 20.027 79.754 8.543 93.867 8.543 c 254.789 8.543 l 279.84 8.543 303.41 
18.304 321.195 36.054 c 348.023 62.898 l 365.738 80.597 375.484 104.148 
375.484 129.187 c 375.484 152.57 366.812 174.976 351.078 192.281 c h
335.941 74.949 m 309.109 48.105 l 294.586 33.597 275.285 25.609 254.789
 25.609 c 93.867 25.609 l 89.172 25.609 85.332 29.433 85.332 34.144 c 85.332
 44.519 93.082 53.445 103.457 54.949 c 189.047 68.394 l 192.223 68.89 194.832
 71.125 195.84 74.183 c 196.828 77.218 196.027 80.582 193.758 82.851 c 65.707
 210.902 l 59.664 216.961 59.664 226.808 65.809 232.968 c 68.848 235.988
 72.824 237.507 76.801 237.507 c 80.777 237.507 84.754 235.988 87.793 232.953
 c 173.176 147.566 l 176.504 144.238 181.914 144.238 185.242 147.566 c 186.898
 149.242 187.734 151.425 187.734 153.609 c 187.734 155.793 186.898 157.976
 185.242 159.632 c 82.844 262.035 l 76.801 268.093 76.801 277.941 82.945
 284.101 c 89.004 290.144 98.852 290.144 104.91 284.101 c 207.309 181.699
 l 210.637 178.375 216.047 178.375 219.375 181.699 c 221.031 183.375 221.867
 185.558 221.867 187.742 c 221.867 189.925 221.031 192.113 219.375 193.714
 c 129.773 283.316 l 123.734 289.375 123.734 299.222 129.879 305.382 c 135.938
 311.425 145.785 311.425 151.844 305.382 c 241.441 215.785 l 241.461 215.765
 241.461 215.75 241.477 215.75 c 241.543 215.679 l 241.562 215.679 l 241.562
 215.664 l 241.578 215.664 l 241.578 215.648 241.578 215.648 241.594 215.648
 c 241.629 215.648 l 241.645 215.648 241.645 215.629 241.645 215.629 c 245.008
 212.492 250.266 212.574 253.523 215.851 c 256.836 219.179 256.836 224.574
 253.508 227.902 c 252.465 228.941 l 246.715 235.019 246.801 244.66 252.859
 250.718 c 258.73 256.554 269.227 256.3 274.535 251.007 c 338.43 180.781
 l 351.316 166.613 358.398 148.3 358.398 129.172 c 358.398 108.707 350.414
 89.437 335.941 74.949 c h
335.941 74.949 m f
145.066 366.941 m 127.641 366.941 110.695 360.851 96.957 349.687 c 95.93
 349.808 94.926 349.875 93.867 349.875 c 51.523 349.875 17.066 315.418 17.066
 273.078 c 17.066 272.019 17.152 270.992 17.27 269.988 c 6.094 256.25 0 
239.3 0 221.875 c 0 179.531 34.457 145.074 76.801 145.074 c 81.512 145.074
 85.332 148.898 85.332 153.609 c 85.332 158.32 81.512 162.144 76.801 162.144
 c 43.863 162.144 17.066 188.937 17.066 221.875 c 17.066 236.382 22.562 
250.496 32.527 261.609 c 34.098 263.347 34.883 265.687 34.695 268.023 c 
34.391 270.617 l 34.27 271.437 34.133 272.242 34.133 273.078 c 34.133 306.015
 60.926 332.808 93.867 332.808 c 94.719 332.808 95.523 332.672 96.324 332.554
 c 98.902 332.261 l 101.238 332.058 103.578 332.843 105.336 334.414 c 116.445
 344.382 130.559 349.875 145.066 349.875 c 178.004 349.875 204.801 323.082
 204.801 290.144 c 204.801 285.433 208.625 281.609 213.332 281.609 c 218.043
 281.609 221.867 285.433 221.867 290.144 c 221.867 332.484 187.41 366.941
 145.066 366.941 c h
145.066 366.941 m f
Q Q
showpage
%%Trailer
end restore
%%EOF
