%!PS-Adobe-3.0 EPSF-3.0
%%Creator: cairo 1.14.2 (http://cairographics.org)
%%CreationDate: Tue Nov 21 08:22:15 2017
%%Pages: 1
%%DocumentData: Clean7Bit
%%LanguageLevel: 2
%%BoundingBox: 0 16 376 359
%%EndComments
%%BeginProlog
save
50 dict begin
/q { gsave } bind def
/Q { grestore } bind def
/cm { 6 array astore concat } bind def
/w { setlinewidth } bind def
/J { setlinecap } bind def
/j { setlinejoin } bind def
/M { setmiterlimit } bind def
/d { setdash } bind def
/m { moveto } bind def
/l { lineto } bind def
/c { curveto } bind def
/h { closepath } bind def
/re { exch dup neg 3 1 roll 5 3 roll moveto 0 rlineto
      0 exch rlineto 0 rlineto closepath } bind def
/S { stroke } bind def
/f { fill } bind def
/f* { eofill } bind def
/n { newpath } bind def
/W { clip } bind def
/W* { eoclip } bind def
/BT { } bind def
/ET { } bind def
/pdfmark where { pop globaldict /?pdfmark /exec load put }
    { globaldict begin /?pdfmark /pop load def /pdfmark
    /cleartomark load def end } ifelse
/BDC { mark 3 1 roll /BDC pdfmark } bind def
/EMC { mark /EMC pdfmark } bind def
/cairo_store_point { /cairo_point_y exch def /cairo_point_x exch def } def
/Tj { show currentpoint cairo_store_point } bind def
/TJ {
  {
    dup
    type /stringtype eq
    { show } { -0.001 mul 0 cairo_font_matrix dtransform rmoveto } ifelse
  } forall
  currentpoint cairo_store_point
} bind def
/cairo_selectfont { cairo_font_matrix aload pop pop pop 0 0 6 array astore
    cairo_font exch selectfont cairo_point_x cairo_point_y moveto } bind def
/Tf { pop /cairo_font exch def /cairo_font_matrix where
      { pop cairo_selectfont } if } bind def
/Td { matrix translate cairo_font_matrix matrix concatmatrix dup
      /cairo_font_matrix exch def dup 4 get exch 5 get cairo_store_point
      /cairo_font where { pop cairo_selectfont } if } bind def
/Tm { 2 copy 8 2 roll 6 array astore /cairo_font_matrix exch def
      cairo_store_point /cairo_font where { pop cairo_selectfont } if } bind def
/g { setgray } bind def
/rg { setrgbcolor } bind def
/d1 { setcachedevice } bind def
%%EndProlog
%%BeginSetup
%%EndSetup
%%Page: 1 1
%%BeginPageSetup
%%PageBoundingBox: 0 16 376 359
%%EndPageSetup
q 0 16 376 343 rectclip q
0 g
351.078 200.797 m 286.906 271.316 l 274.211 284.015 253.527 284.031 240.707
 271.214 c 236.648 267.152 233.883 262.289 232.449 257.101 c 219.684 266.879
 201.27 265.906 189.508 254.148 c 185.531 250.172 182.801 245.41 181.316
 240.375 c 116.977 304.699 l 104.277 317.398 83.594 317.414 70.777 304.597
 c 59.121 292.941 58.145 274.593 67.875 261.828 c 62.668 260.343 57.754 
257.562 53.656 253.449 c 40.941 240.75 40.941 220.066 53.656 207.351 c 169.848
 91.164 l 100.934 80.343 l 82.312 77.679 68.266 61.5 68.266 42.675 c 68.266
 28.562 79.754 17.078 93.867 17.078 c 254.789 17.078 l 279.859 17.078 303.43
 26.839 321.176 44.57 c 348.023 71.418 l 365.738 89.113 375.484 112.668 
375.484 137.703 c 375.484 161.086 366.812 183.492 351.078 200.797 c h
335.941 83.48 m 309.094 56.636 l 294.59 42.129 275.301 34.144 254.789 34.144
 c 93.867 34.144 l 89.156 34.144 85.332 37.964 85.332 42.675 c 85.332 53.054
 93.082 61.98 103.457 63.48 c 189.047 76.929 l 192.223 77.425 194.832 79.66
 195.84 82.714 c 196.828 85.754 196.027 89.113 193.758 91.382 c 65.707 219.437
 l 59.648 225.492 59.648 235.343 65.809 241.504 c 68.848 244.523 72.824 
246.043 76.801 246.043 c 80.777 246.043 84.754 244.523 87.793 241.484 c 
173.176 156.101 l 176.504 152.773 181.914 152.773 185.242 156.101 c 186.898
 157.773 187.734 159.957 187.734 162.144 c 187.734 164.328 186.898 166.511
 185.242 168.183 c 82.844 270.586 l 76.785 276.625 76.785 286.492 82.945
 292.636 c 88.988 298.675 98.867 298.675 104.91 292.636 c 207.309 190.234
 l 210.637 186.906 216.047 186.906 219.375 190.234 c 221.031 191.906 221.867
 194.089 221.867 196.277 c 221.867 198.461 221.031 200.644 219.359 202.316
 c 201.559 220.117 l 195.5 226.175 195.5 236.023 201.66 242.187 c 207.703
 248.226 217.586 248.226 223.625 242.187 c 241.496 224.3 l 241.512 224.285
 l 241.512 224.265 241.527 224.265 241.527 224.265 c 241.543 224.25 l 241.562
 224.25 l 241.562 224.234 241.578 224.234 241.578 224.234 c 241.594 224.234
 l 241.613 224.214 l 244.957 221.043 250.23 221.109 253.508 224.386 c 256.836
 227.714 256.836 233.125 253.508 236.453 c 252.773 237.187 l 249.84 240.121
 248.219 244.031 248.219 248.179 c 248.219 252.324 249.82 256.214 252.859
 259.254 c 258.918 265.297 268.781 265.277 274.551 259.543 c 338.449 189.316
 l 351.301 175.164 358.398 156.836 358.398 137.703 c 358.398 117.222 350.43
 97.972 335.941 83.48 c h
335.941 83.48 m f
93.867 358.41 m 51.523 358.41 17.066 323.953 17.066 281.609 c 17.066 280.55
 17.133 279.527 17.254 278.519 c 6.094 264.781 0 247.832 0 230.41 c 0 188.066
 34.457 153.609 76.801 153.609 c 81.512 153.609 85.332 157.433 85.332 162.144
 c 85.332 166.851 81.512 170.675 76.801 170.675 c 43.863 170.675 17.066 
197.468 17.066 230.41 c 17.066 244.933 22.562 259.031 32.527 270.14 c 34.117
 271.882 34.883 274.218 34.68 276.558 c 34.371 279.152 l 34.27 279.972 34.133
 280.773 34.133 281.609 c 34.133 314.547 60.926 341.343 93.867 341.343 c
 126.805 341.343 153.602 314.547 153.602 281.609 c 153.602 276.898 157.422
 273.074 162.133 273.074 c 166.844 273.074 170.668 276.898 170.668 281.609
 c 170.668 323.953 136.207 358.41 93.867 358.41 c h
93.867 358.41 m f
Q Q
showpage
%%Trailer
end restore
%%EOF
