%!PS-Adobe-3.0 EPSF-3.0
%%Creator: cairo 1.14.2 (http://cairographics.org)
%%CreationDate: Tue Nov 21 08:22:15 2017
%%Pages: 1
%%DocumentData: Clean7Bit
%%LanguageLevel: 2
%%BoundingBox: 0 42 376 334
%%EndComments
%%BeginProlog
save
50 dict begin
/q { gsave } bind def
/Q { grestore } bind def
/cm { 6 array astore concat } bind def
/w { setlinewidth } bind def
/J { setlinecap } bind def
/j { setlinejoin } bind def
/M { setmiterlimit } bind def
/d { setdash } bind def
/m { moveto } bind def
/l { lineto } bind def
/c { curveto } bind def
/h { closepath } bind def
/re { exch dup neg 3 1 roll 5 3 roll moveto 0 rlineto
      0 exch rlineto 0 rlineto closepath } bind def
/S { stroke } bind def
/f { fill } bind def
/f* { eofill } bind def
/n { newpath } bind def
/W { clip } bind def
/W* { eoclip } bind def
/BT { } bind def
/ET { } bind def
/pdfmark where { pop globaldict /?pdfmark /exec load put }
    { globaldict begin /?pdfmark /pop load def /pdfmark
    /cleartomark load def end } ifelse
/BDC { mark 3 1 roll /BDC pdfmark } bind def
/EMC { mark /EMC pdfmark } bind def
/cairo_store_point { /cairo_point_y exch def /cairo_point_x exch def } def
/Tj { show currentpoint cairo_store_point } bind def
/TJ {
  {
    dup
    type /stringtype eq
    { show } { -0.001 mul 0 cairo_font_matrix dtransform rmoveto } ifelse
  } forall
  currentpoint cairo_store_point
} bind def
/cairo_selectfont { cairo_font_matrix aload pop pop pop 0 0 6 array astore
    cairo_font exch selectfont cairo_point_x cairo_point_y moveto } bind def
/Tf { pop /cairo_font exch def /cairo_font_matrix where
      { pop cairo_selectfont } if } bind def
/Td { matrix translate cairo_font_matrix matrix concatmatrix dup
      /cairo_font_matrix exch def dup 4 get exch 5 get cairo_store_point
      /cairo_font where { pop cairo_selectfont } if } bind def
/Tm { 2 copy 8 2 roll 6 array astore /cairo_font_matrix exch def
      cairo_store_point /cairo_font where { pop cairo_selectfont } if } bind def
/g { setgray } bind def
/rg { setrgbcolor } bind def
/d1 { setcachedevice } bind def
%%EndProlog
%%BeginSetup
%%EndSetup
%%Page: 1 1
%%BeginPageSetup
%%PageBoundingBox: 0 42 376 334
%%EndPageSetup
q 0 42 376 292 rectclip q
0 g
351.062 226.388 m 286.891 296.908 l 274.195 309.607 253.508 309.623 240.691
 296.806 c 236.629 292.744 233.867 287.88 232.434 282.693 c 219.668 292.47
 201.25 291.498 189.492 279.74 c 185.445 275.677 182.684 270.814 181.215
 265.642 c 168.449 275.388 150.035 274.431 138.293 262.673 c 134.316 258.697
 131.586 253.951 130.102 248.9 c 99.859 279.142 l 87.16 291.837 66.477 291.857
 53.66 279.041 c 40.945 266.341 40.945 245.658 53.66 232.943 c 169.848 116.752
 l 100.934 105.931 l 82.312 103.271 68.266 87.091 68.266 68.267 c 68.266
 54.154 79.754 42.666 93.867 42.666 c 254.789 42.666 l 279.859 42.666 303.43
 52.427 321.16 70.162 c 348.008 97.005 l 365.723 114.705 375.465 138.255
 375.465 163.295 c 375.465 186.673 366.797 209.084 351.062 226.388 c h
335.941 109.072 m 309.094 82.228 l 294.59 67.72 275.301 59.732 254.789 
59.732 c 93.867 59.732 l 89.156 59.732 85.332 63.556 85.332 68.267 c 85.332
 78.642 93.082 87.568 103.473 89.056 c 189.062 102.502 l 192.238 102.998
 194.848 105.232 195.855 108.291 c 196.848 111.326 196.043 114.689 193.773
 116.959 c 65.723 245.009 l 59.664 251.068 59.664 260.931 65.809 267.091
 c 68.848 270.115 72.824 271.634 76.801 271.634 c 80.777 271.634 84.754 
270.115 87.793 267.076 c 173.176 181.693 l 176.504 178.365 181.914 178.365
 185.242 181.693 c 186.898 183.365 187.734 185.548 187.734 187.732 c 187.734
 189.92 186.898 192.103 185.227 193.775 c 150.359 228.642 l 144.301 234.701
 144.301 244.548 150.461 250.709 c 156.504 256.752 166.387 256.752 172.426
 250.709 c 207.309 215.826 l 210.637 212.498 216.047 212.498 219.375 215.826
 c 221.031 217.498 221.867 219.681 221.867 221.865 c 221.867 224.052 221.031
 226.236 219.359 227.908 c 201.559 245.709 l 195.5 251.767 195.5 261.615
 201.66 267.775 c 207.703 273.818 217.586 273.818 223.625 267.775 c 241.512
 249.892 l 241.547 249.873 241.527 249.873 241.527 249.873 c 241.547 249.857
 l 241.562 249.841 l 241.578 249.822 l 241.598 249.822 l 241.613 249.822
 241.613 249.806 241.613 249.806 c 244.957 246.63 250.25 246.701 253.508
 249.978 c 256.836 253.306 256.836 258.716 253.508 262.045 c 252.773 262.775
 l 249.84 265.712 248.219 269.623 248.219 273.767 c 248.219 277.916 249.82
 281.806 252.859 284.845 c 258.938 290.884 268.766 290.869 274.551 285.134
 c 338.449 214.904 l 351.301 200.755 358.398 182.427 358.398 163.295 c 358.398
 142.814 350.43 123.564 335.941 109.072 c h
335.941 109.072 m f
146.703 287.521 m 134.281 315.017 106.836 332.798 76.801 332.798 c 34.457
 332.798 0 298.341 0 256.002 c 0 225.962 17.781 198.521 45.277 186.076 c
 46.422 185.564 47.617 185.326 48.793 185.326 c 52.035 185.326 55.141 187.205
 56.574 190.345 c 58.504 194.646 56.594 199.697 52.309 201.642 c 30.906 
211.318 17.066 232.654 17.066 256.002 c 17.066 288.939 43.863 315.732 76.801
 315.732 c 100.148 315.732 121.48 301.892 131.16 280.49 c 133.086 276.189
 138.156 274.263 142.438 276.224 c 146.738 278.17 148.652 283.22 146.703
 287.521 c h
146.703 287.521 m f
Q Q
showpage
%%Trailer
end restore
%%EOF
