<?xml version="1.0" encoding="iso-8859-1"?>
<!-- Generator: Adobe Illustrator 19.0.0, SVG Export Plug-In . SVG Version: 6.00 Build 0)  -->
<svg version="1.1" id="Capa_1" xmlns="http://www.w3.org/2000/svg" xmlns:xlink="http://www.w3.org/1999/xlink" x="0px" y="0px"
	 viewBox="0 0 469.211 469.211" style="enable-background:new 0 0 469.211 469.211;" xml:space="preserve">
<g>
	<g>
		<path d="M379.707,74.864c-99.84-99.819-262.208-99.819-362.048,0c-4.16,4.16-4.16,10.923,0,15.083c4.16,4.16,10.923,4.16,15.083,0
			c91.499-91.477,240.384-91.477,331.883,0c2.091,2.069,4.821,3.115,7.552,3.115c2.731,0,5.461-1.024,7.531-3.115
			C383.867,85.787,383.867,79.024,379.707,74.864z"/>
	</g>
</g>
<g>
	<g>
		<path d="M380.027,21.211c-5.888,0-10.667,4.779-10.667,10.667v53.333h-53.333c-5.888,0-10.667,4.779-10.667,10.667
			s4.779,10.667,10.667,10.667h64c5.888,0,10.667-4.757,10.667-10.667v-64C390.693,25.989,385.915,21.211,380.027,21.211z"/>
	</g>
</g>
<g>
	<g>
		<path d="M424.165,239.536l-80.235-88.128c-15.381-15.424-42.091-15.531-57.749,0.128c-5.056,5.056-8.512,11.136-10.304,17.621
			c-15.573-11.947-39.339-10.624-53.696,3.712c-5.056,5.056-8.512,11.136-10.347,17.6c-15.531-11.947-39.317-10.581-53.653,3.733
			c-4.949,4.971-8.363,10.923-10.219,17.216l-37.803-37.803c-15.872-15.851-41.707-15.893-57.749,0.128
			c-15.893,15.872-15.893,41.728,0,57.621l145.237,145.237l-86.101,13.525c-23.296,3.328-40.853,23.552-40.853,47.083
			c0,17.643,14.357,32,32,32h201.152c31.317,0,60.779-12.203,82.965-34.389l33.536-33.557
			c22.144-22.123,34.325-51.563,34.325-82.859C454.672,289.179,443.835,261.168,424.165,239.536z M287.318,210.294
			c-0.004-0.002-0.006-0.004-0.01-0.006h0.004C287.312,210.288,287.317,210.291,287.318,210.294z M405.285,386.203l-33.557,33.557
			c-18.155,18.133-42.283,28.117-67.904,28.117H102.672c-5.867,0-10.667-4.779-10.667-10.667c0-12.971,9.707-24.128,22.677-25.984
			l106.987-16.811c3.968-0.619,7.232-3.413,8.491-7.232c1.237-3.797,0.235-8-2.603-10.837L67.493,216.283
			c-7.552-7.573-7.552-19.883,0.128-27.584c3.797-3.776,8.768-5.675,13.739-5.675s9.941,1.899,13.717,5.675l62.656,62.763
			c0.149,0.171,0.341,0.341,0.512,0.512l43.605,43.584c4.16,4.16,10.923,4.16,15.083,0c4.16-4.16,4.16-10.923,0-15.083
			l-43.968-43.968c-7.189-7.595-7.061-19.648,0.491-27.221c7.339-7.296,20.096-7.339,27.435,0l20.971,20.971
			c0.128,0.128,0.235,0.256,0.363,0.363l22.272,22.251c4.16,4.16,10.923,4.16,15.083,0c4.16-4.16,4.16-10.923,0-15.083
			l-22.528-22.507c-7.275-7.595-7.189-19.733,0.405-27.349c7.339-7.296,20.096-7.339,27.435,0l22.272,22.251
			c0.021,0.021,0.021,0.043,0.043,0.043l0.021,0.021c0.024,0.013,0.028,0.015,0.044,0.024c0.002,0.02,0.02,0.039,0.02,0.019h0.015
			c0.003,0.002,0.012,0.007,0.015,0.008c0.002,0.006,0,0.013,0.013,0.013c0.021,0.021,0.021,0,0.021,0.021s0.021,0.021,0.021,0.021
			h0.021c0.021,0,0.021,0,0.021,0c4.224,3.925,10.795,3.819,14.848-0.277c4.139-4.16,4.139-10.901-0.021-15.061l-1.28-1.28
			c-7.211-7.595-7.104-19.669,0.469-27.243c7.317-7.296,20.437-6.976,27.093-0.363l79.872,87.787
			c16.107,17.707,24.96,40.597,24.96,64.512C433.36,344.005,423.397,368.091,405.285,386.203z"/>
	</g>
</g>
<g>
</g>
<g>
</g>
<g>
</g>
<g>
</g>
<g>
</g>
<g>
</g>
<g>
</g>
<g>
</g>
<g>
</g>
<g>
</g>
<g>
</g>
<g>
</g>
<g>
</g>
<g>
</g>
<g>
</g>
</svg>
